2019-12-08 00:32:07.086 +01:00 [INF] 9328
2019-12-08 00:32:08.004 +01:00 [INF] 854
2019-12-08 00:32:08.007 +01:00 [INF] eyJhbGciOiJIUzUxMiJ9.eyJzdWIiOiI0NCIsImlhdCI6MTU3NTc2MTUyNiwiZXhwIjoxNTc1NzY0MTE4fQ.p6_Ksn8vJ1zsT7_d5EudnuTzoCPGW7UANtn-5EIUIYw83Tru0pXjlBROZ1R9s-nhZa2716w5yfYvV1T6PzJytA
2019-12-08 00:32:08.009 +01:00 [INF] eyJhbGciOiJIUzUxMiJ9.eyJzdWIiOiI0NCIsImlhdCI6MTU3NTc2MTUyNiwiZXhwIjoxNTc1NzY0MTE4fQ.p6_Ksn8vJ1zsT7_d5EudnuTzoCPGW7UANtn-5EIUIYw83Tru0pXjlBROZ1R9s-nhZa2716w5yfYvV1T6PzJytA
2019-12-08 00:32:08.011 +01:00 [INF] eyJhbGciOiJIUzUxMiJ9.eyJzdWIiOiI0NCIsImlhdCI6MTU3NTc2MTUyNiwiZXhwIjoxNTc1NzY0MTE4fQ.p6_Ksn8vJ1zsT7_d5EudnuTzoCPGW7UANtn-5EIUIYw83Tru0pXjlBROZ1R9s-nhZa2716w5yfYvV1T6PzJytA
2019-12-08 00:32:08.012 +01:00 [INF] eyJhbGciOiJIUzUxMiJ9.eyJzdWIiOiI0NCIsImlhdCI6MTU3NTc2MTUyNiwiZXhwIjoxNTc1NzY0MTE4fQ.p6_Ksn8vJ1zsT7_d5EudnuTzoCPGW7UANtn-5EIUIYw83Tru0pXjlBROZ1R9s-nhZa2716w5yfYvV1T6PzJytA
2019-12-08 00:32:08.015 +01:00 [INF] eyJhbGciOiJIUzUxMiJ9.eyJzdWIiOiI0NCIsImlhdCI6MTU3NTc2MTUyNiwiZXhwIjoxNTc1NzY0MTE4fQ.p6_Ksn8vJ1zsT7_d5EudnuTzoCPGW7UANtn-5EIUIYw83Tru0pXjlBROZ1R9s-nhZa2716w5yfYvV1T6PzJytA
2019-12-08 00:32:08.016 +01:00 [INF] eyJhbGciOiJIUzUxMiJ9.eyJzdWIiOiI0NCIsImlhdCI6MTU3NTc2MTUyNiwiZXhwIjoxNTc1NzY0MTE4fQ.p6_Ksn8vJ1zsT7_d5EudnuTzoCPGW7UANtn-5EIUIYw83Tru0pXjlBROZ1R9s-nhZa2716w5yfYvV1T6PzJytA
2019-12-08 00:32:08.018 +01:00 [INF] eyJhbGciOiJIUzUxMiJ9.eyJzdWIiOiI0NCIsImlhdCI6MTU3NTc2MTUyNiwiZXhwIjoxNTc1NzY0MTE4fQ.p6_Ksn8vJ1zsT7_d5EudnuTzoCPGW7UANtn-5EIUIYw83Tru0pXjlBROZ1R9s-nhZa2716w5yfYvV1T6PzJytA
2019-12-08 00:32:08.019 +01:00 [INF] eyJhbGciOiJIUzUxMiJ9.eyJzdWIiOiI0NCIsImlhdCI6MTU3NTc2MTUyNiwiZXhwIjoxNTc1NzY0MTE4fQ.p6_Ksn8vJ1zsT7_d5EudnuTzoCPGW7UANtn-5EIUIYw83Tru0pXjlBROZ1R9s-nhZa2716w5yfYvV1T6PzJytA
2019-12-08 00:32:08.020 +01:00 [INF] eyJhbGciOiJIUzUxMiJ9.eyJzdWIiOiI0NCIsImlhdCI6MTU3NTc2MTUyNiwiZXhwIjoxNTc1NzY0MTE4fQ.p6_Ksn8vJ1zsT7_d5EudnuTzoCPGW7UANtn-5EIUIYw83Tru0pXjlBROZ1R9s-nhZa2716w5yfYvV1T6PzJytA
2019-12-08 00:32:08.021 +01:00 [INF] eyJhbGciOiJIUzUxMiJ9.eyJzdWIiOiI0NCIsImlhdCI6MTU3NTc2MTUyNiwiZXhwIjoxNTc1NzY0MTE4fQ.p6_Ksn8vJ1zsT7_d5EudnuTzoCPGW7UANtn-5EIUIYw83Tru0pXjlBROZ1R9s-nhZa2716w5yfYvV1T6PzJytA
2019-12-08 00:32:08.023 +01:00 [INF] eyJhbGciOiJIUzUxMiJ9.eyJzdWIiOiI0NCIsImlhdCI6MTU3NTc2MTUyNiwiZXhwIjoxNTc1NzY0MTE4fQ.p6_Ksn8vJ1zsT7_d5EudnuTzoCPGW7UANtn-5EIUIYw83Tru0pXjlBROZ1R9s-nhZa2716w5yfYvV1T6PzJytA
2019-12-08 00:32:08.027 +01:00 [INF] eyJhbGciOiJIUzUxMiJ9.eyJzdWIiOiI0NCIsImlhdCI6MTU3NTc2MTUyNiwiZXhwIjoxNTc1NzY0MTE4fQ.p6_Ksn8vJ1zsT7_d5EudnuTzoCPGW7UANtn-5EIUIYw83Tru0pXjlBROZ1R9s-nhZa2716w5yfYvV1T6PzJytA
2019-12-08 00:32:08.029 +01:00 [INF] eyJhbGciOiJIUzUxMiJ9.eyJzdWIiOiI0NCIsImlhdCI6MTU3NTc2MTUyNiwiZXhwIjoxNTc1NzY0MTE4fQ.p6_Ksn8vJ1zsT7_d5EudnuTzoCPGW7UANtn-5EIUIYw83Tru0pXjlBROZ1R9s-nhZa2716w5yfYvV1T6PzJytA
2019-12-08 00:32:08.031 +01:00 [INF] eyJhbGciOiJIUzUxMiJ9.eyJzdWIiOiI0NCIsImlhdCI6MTU3NTc2MTUyNiwiZXhwIjoxNTc1NzY0MTE4fQ.p6_Ksn8vJ1zsT7_d5EudnuTzoCPGW7UANtn-5EIUIYw83Tru0pXjlBROZ1R9s-nhZa2716w5yfYvV1T6PzJytA
2019-12-08 00:32:08.032 +01:00 [INF] eyJhbGciOiJIUzUxMiJ9.eyJzdWIiOiI0NCIsImlhdCI6MTU3NTc2MTUyNiwiZXhwIjoxNTc1NzY0MTE4fQ.p6_Ksn8vJ1zsT7_d5EudnuTzoCPGW7UANtn-5EIUIYw83Tru0pXjlBROZ1R9s-nhZa2716w5yfYvV1T6PzJytA
2019-12-08 00:32:08.037 +01:00 [INF] eyJhbGciOiJIUzUxMiJ9.eyJzdWIiOiI0NCIsImlhdCI6MTU3NTc2MTUyNiwiZXhwIjoxNTc1NzY0MTE4fQ.p6_Ksn8vJ1zsT7_d5EudnuTzoCPGW7UANtn-5EIUIYw83Tru0pXjlBROZ1R9s-nhZa2716w5yfYvV1T6PzJytA
2019-12-08 00:32:08.041 +01:00 [INF] eyJhbGciOiJIUzUxMiJ9.eyJzdWIiOiI0NCIsImlhdCI6MTU3NTc2MTUyNiwiZXhwIjoxNTc1NzY0MTE4fQ.p6_Ksn8vJ1zsT7_d5EudnuTzoCPGW7UANtn-5EIUIYw83Tru0pXjlBROZ1R9s-nhZa2716w5yfYvV1T6PzJytA
2019-12-08 00:32:08.047 +01:00 [INF] eyJhbGciOiJIUzUxMiJ9.eyJzdWIiOiI0NCIsImlhdCI6MTU3NTc2MTUyNiwiZXhwIjoxNTc1NzY0MTE4fQ.p6_Ksn8vJ1zsT7_d5EudnuTzoCPGW7UANtn-5EIUIYw83Tru0pXjlBROZ1R9s-nhZa2716w5yfYvV1T6PzJytA
2019-12-08 00:32:08.050 +01:00 [INF] eyJhbGciOiJIUzUxMiJ9.eyJzdWIiOiI0NCIsImlhdCI6MTU3NTc2MTUyNiwiZXhwIjoxNTc1NzY0MTE4fQ.p6_Ksn8vJ1zsT7_d5EudnuTzoCPGW7UANtn-5EIUIYw83Tru0pXjlBROZ1R9s-nhZa2716w5yfYvV1T6PzJytA
2019-12-08 00:32:08.052 +01:00 [INF] eyJhbGciOiJIUzUxMiJ9.eyJzdWIiOiI0NCIsImlhdCI6MTU3NTc2MTUyNiwiZXhwIjoxNTc1NzY0MTE4fQ.p6_Ksn8vJ1zsT7_d5EudnuTzoCPGW7UANtn-5EIUIYw83Tru0pXjlBROZ1R9s-nhZa2716w5yfYvV1T6PzJytA
2019-12-08 00:32:08.054 +01:00 [INF] eyJhbGciOiJIUzUxMiJ9.eyJzdWIiOiI0NCIsImlhdCI6MTU3NTc2MTUyNiwiZXhwIjoxNTc1NzY0MTE4fQ.p6_Ksn8vJ1zsT7_d5EudnuTzoCPGW7UANtn-5EIUIYw83Tru0pXjlBROZ1R9s-nhZa2716w5yfYvV1T6PzJytA
2019-12-08 00:32:08.059 +01:00 [INF] eyJhbGciOiJIUzUxMiJ9.eyJzdWIiOiI0NCIsImlhdCI6MTU3NTc2MTUyNiwiZXhwIjoxNTc1NzY0MTE4fQ.p6_Ksn8vJ1zsT7_d5EudnuTzoCPGW7UANtn-5EIUIYw83Tru0pXjlBROZ1R9s-nhZa2716w5yfYvV1T6PzJytA
2019-12-08 00:32:08.062 +01:00 [INF] eyJhbGciOiJIUzUxMiJ9.eyJzdWIiOiI0NCIsImlhdCI6MTU3NTc2MTUyNiwiZXhwIjoxNTc1NzY0MTE4fQ.p6_Ksn8vJ1zsT7_d5EudnuTzoCPGW7UANtn-5EIUIYw83Tru0pXjlBROZ1R9s-nhZa2716w5yfYvV1T6PzJytA
2019-12-08 00:32:08.068 +01:00 [INF] eyJhbGciOiJIUzUxMiJ9.eyJzdWIiOiI0NCIsImlhdCI6MTU3NTc2MTUyNiwiZXhwIjoxNTc1NzY0MTE4fQ.p6_Ksn8vJ1zsT7_d5EudnuTzoCPGW7UANtn-5EIUIYw83Tru0pXjlBROZ1R9s-nhZa2716w5yfYvV1T6PzJytA
2019-12-08 00:32:08.072 +01:00 [INF] eyJhbGciOiJIUzUxMiJ9.eyJzdWIiOiI0NCIsImlhdCI6MTU3NTc2MTUyNiwiZXhwIjoxNTc1NzY0MTE4fQ.p6_Ksn8vJ1zsT7_d5EudnuTzoCPGW7UANtn-5EIUIYw83Tru0pXjlBROZ1R9s-nhZa2716w5yfYvV1T6PzJytA
2019-12-08 00:32:08.074 +01:00 [INF] eyJhbGciOiJIUzUxMiJ9.eyJzdWIiOiI0NCIsImlhdCI6MTU3NTc2MTUyNiwiZXhwIjoxNTc1NzY0MTE4fQ.p6_Ksn8vJ1zsT7_d5EudnuTzoCPGW7UANtn-5EIUIYw83Tru0pXjlBROZ1R9s-nhZa2716w5yfYvV1T6PzJytA
2019-12-08 00:32:08.081 +01:00 [INF] eyJhbGciOiJIUzUxMiJ9.eyJzdWIiOiI0NCIsImlhdCI6MTU3NTc2MTUyNiwiZXhwIjoxNTc1NzY0MTE4fQ.p6_Ksn8vJ1zsT7_d5EudnuTzoCPGW7UANtn-5EIUIYw83Tru0pXjlBROZ1R9s-nhZa2716w5yfYvV1T6PzJytA
2019-12-08 00:32:08.086 +01:00 [INF] eyJhbGciOiJIUzUxMiJ9.eyJzdWIiOiI0NCIsImlhdCI6MTU3NTc2MTUyNiwiZXhwIjoxNTc1NzY0MTE4fQ.p6_Ksn8vJ1zsT7_d5EudnuTzoCPGW7UANtn-5EIUIYw83Tru0pXjlBROZ1R9s-nhZa2716w5yfYvV1T6PzJytA
2019-12-08 00:32:08.092 +01:00 [INF] eyJhbGciOiJIUzUxMiJ9.eyJzdWIiOiI0NCIsImlhdCI6MTU3NTc2MTUyNiwiZXhwIjoxNTc1NzY0MTE4fQ.p6_Ksn8vJ1zsT7_d5EudnuTzoCPGW7UANtn-5EIUIYw83Tru0pXjlBROZ1R9s-nhZa2716w5yfYvV1T6PzJytA
2019-12-08 00:32:08.096 +01:00 [INF] eyJhbGciOiJIUzUxMiJ9.eyJzdWIiOiI0NCIsImlhdCI6MTU3NTc2MTUyNiwiZXhwIjoxNTc1NzY0MTE4fQ.p6_Ksn8vJ1zsT7_d5EudnuTzoCPGW7UANtn-5EIUIYw83Tru0pXjlBROZ1R9s-nhZa2716w5yfYvV1T6PzJytA
2019-12-08 00:32:08.101 +01:00 [INF] eyJhbGciOiJIUzUxMiJ9.eyJzdWIiOiI0NCIsImlhdCI6MTU3NTc2MTUyNiwiZXhwIjoxNTc1NzY0MTE4fQ.p6_Ksn8vJ1zsT7_d5EudnuTzoCPGW7UANtn-5EIUIYw83Tru0pXjlBROZ1R9s-nhZa2716w5yfYvV1T6PzJytA
2019-12-08 00:32:08.105 +01:00 [INF] eyJhbGciOiJIUzUxMiJ9.eyJzdWIiOiI0NCIsImlhdCI6MTU3NTc2MTUyNiwiZXhwIjoxNTc1NzY0MTE4fQ.p6_Ksn8vJ1zsT7_d5EudnuTzoCPGW7UANtn-5EIUIYw83Tru0pXjlBROZ1R9s-nhZa2716w5yfYvV1T6PzJytA
2019-12-08 00:32:08.107 +01:00 [INF] eyJhbGciOiJIUzUxMiJ9.eyJzdWIiOiI0NCIsImlhdCI6MTU3NTc2MTUyNiwiZXhwIjoxNTc1NzY0MTE4fQ.p6_Ksn8vJ1zsT7_d5EudnuTzoCPGW7UANtn-5EIUIYw83Tru0pXjlBROZ1R9s-nhZa2716w5yfYvV1T6PzJytA
2019-12-08 00:32:08.115 +01:00 [INF] TimeStamp: 08.12.2019 00:31:58.428
2019-12-08 00:32:08.120 +01:00 [INF] TestParam: 1
2019-12-08 00:32:08.123 +01:00 [INF] TestId: 0
2019-12-08 00:32:08.125 +01:00 [INF] UserId: 12
2019-12-08 00:32:08.126 +01:00 [INF] EndpointId: 3
2019-12-08 00:32:08.128 +01:00 [INF] API_Time: 0
2019-12-08 00:32:08.131 +01:00 [INF] DB_Time: 0
2019-12-08 00:32:08.134 +01:00 [INF] Apl_Time: 0
2019-12-08 00:32:08.135 +01:00 [DBG] 
2019-12-08 00:32:08.136 +01:00 [INF] TimeStamp: 08.12.2019 00:31:58.589
2019-12-08 00:32:08.138 +01:00 [INF] TestParam: 0
2019-12-08 00:32:08.142 +01:00 [INF] TestId: 0
2019-12-08 00:32:08.145 +01:00 [INF] UserId: 12
2019-12-08 00:32:08.147 +01:00 [INF] EndpointId: 1
2019-12-08 00:32:08.150 +01:00 [INF] API_Time: 722
2019-12-08 00:32:08.153 +01:00 [INF] DB_Time: 718
2019-12-08 00:32:08.155 +01:00 [INF] Apl_Time: 148
2019-12-08 00:32:08.156 +01:00 [DBG] 
2019-12-08 00:32:08.158 +01:00 [INF] TimeStamp: 08.12.2019 00:31:58.707
2019-12-08 00:32:08.162 +01:00 [INF] TestParam: 1
2019-12-08 00:32:08.165 +01:00 [INF] TestId: 0
2019-12-08 00:32:08.170 +01:00 [INF] UserId: 12
2019-12-08 00:32:08.172 +01:00 [INF] EndpointId: 3
2019-12-08 00:32:08.173 +01:00 [INF] API_Time: 0
2019-12-08 00:32:08.175 +01:00 [INF] DB_Time: 0
2019-12-08 00:32:08.176 +01:00 [INF] Apl_Time: 0
2019-12-08 00:32:08.178 +01:00 [DBG] 
2019-12-08 00:32:08.181 +01:00 [INF] TimeStamp: 08.12.2019 00:31:58.836
2019-12-08 00:32:08.185 +01:00 [INF] TestParam: 0
2019-12-08 00:32:08.187 +01:00 [INF] TestId: 0
2019-12-08 00:32:08.188 +01:00 [INF] UserId: 13
2019-12-08 00:32:08.191 +01:00 [INF] EndpointId: 1
2019-12-08 00:32:08.194 +01:00 [INF] API_Time: 609
2019-12-08 00:32:08.195 +01:00 [INF] DB_Time: 604
2019-12-08 00:32:08.197 +01:00 [INF] Apl_Time: 128
2019-12-08 00:32:08.198 +01:00 [DBG] 
2019-12-08 00:32:08.202 +01:00 [INF] TimeStamp: 08.12.2019 00:31:58.985
2019-12-08 00:32:08.205 +01:00 [INF] TestParam: 1
2019-12-08 00:32:08.206 +01:00 [INF] TestId: 0
2019-12-08 00:32:08.207 +01:00 [INF] UserId: 13
2019-12-08 00:32:08.209 +01:00 [INF] EndpointId: 3
2019-12-08 00:32:08.214 +01:00 [INF] API_Time: 0
2019-12-08 00:32:08.216 +01:00 [INF] DB_Time: 0
2019-12-08 00:32:08.217 +01:00 [INF] Apl_Time: 0
2019-12-08 00:32:08.219 +01:00 [DBG] 
2019-12-08 00:32:08.220 +01:00 [INF] TimeStamp: 08.12.2019 00:31:59.125
2019-12-08 00:32:08.224 +01:00 [INF] TestParam: 0
2019-12-08 00:32:08.227 +01:00 [INF] TestId: 0
2019-12-08 00:32:08.229 +01:00 [INF] UserId: 14
2019-12-08 00:32:08.233 +01:00 [INF] EndpointId: 1
2019-12-08 00:32:08.236 +01:00 [INF] API_Time: 662
2019-12-08 00:32:08.238 +01:00 [INF] DB_Time: 656
2019-12-08 00:32:08.240 +01:00 [INF] Apl_Time: 140
2019-12-08 00:32:08.243 +01:00 [DBG] 
2019-12-08 00:32:08.248 +01:00 [INF] TimeStamp: 08.12.2019 00:31:59.234
2019-12-08 00:32:08.250 +01:00 [INF] TestParam: 1
2019-12-08 00:32:08.253 +01:00 [INF] TestId: 0
2019-12-08 00:32:08.255 +01:00 [INF] UserId: 14
2019-12-08 00:32:08.257 +01:00 [INF] EndpointId: 3
2019-12-08 00:32:08.258 +01:00 [INF] API_Time: 0
2019-12-08 00:32:08.260 +01:00 [INF] DB_Time: 0
2019-12-08 00:32:08.263 +01:00 [INF] Apl_Time: 0
2019-12-08 00:32:08.266 +01:00 [DBG] 
2019-12-08 00:32:08.268 +01:00 [INF] TimeStamp: 08.12.2019 00:31:59.375
2019-12-08 00:32:08.269 +01:00 [INF] TestParam: 0
2019-12-08 00:32:08.271 +01:00 [INF] TestId: 0
2019-12-08 00:32:08.274 +01:00 [INF] UserId: 15
2019-12-08 00:32:08.276 +01:00 [INF] EndpointId: 1
2019-12-08 00:32:08.279 +01:00 [INF] API_Time: 5637
2019-12-08 00:32:08.281 +01:00 [INF] DB_Time: 5633
2019-12-08 00:32:08.284 +01:00 [INF] Apl_Time: 140
2019-12-08 00:32:08.287 +01:00 [DBG] 
2019-12-08 00:32:08.289 +01:00 [INF] TimeStamp: 08.12.2019 00:31:59.505
2019-12-08 00:32:08.291 +01:00 [INF] TestParam: 1
2019-12-08 00:32:08.295 +01:00 [INF] TestId: 0
2019-12-08 00:32:08.299 +01:00 [INF] UserId: 15
2019-12-08 00:32:08.301 +01:00 [INF] EndpointId: 3
2019-12-08 00:32:08.304 +01:00 [INF] API_Time: 0
2019-12-08 00:32:08.307 +01:00 [INF] DB_Time: 0
2019-12-08 00:32:08.310 +01:00 [INF] Apl_Time: 0
2019-12-08 00:32:08.315 +01:00 [DBG] 
2019-12-08 00:32:08.318 +01:00 [INF] TimeStamp: 08.12.2019 00:31:59.665
2019-12-08 00:32:08.320 +01:00 [INF] TestParam: 0
2019-12-08 00:32:08.322 +01:00 [INF] TestId: 0
2019-12-08 00:32:08.327 +01:00 [INF] UserId: 16
2019-12-08 00:32:08.335 +01:00 [INF] EndpointId: 1
2019-12-08 00:32:08.338 +01:00 [INF] API_Time: 790
2019-12-08 00:32:08.343 +01:00 [INF] DB_Time: 783
2019-12-08 00:32:08.348 +01:00 [INF] Apl_Time: 160
2019-12-08 00:32:08.351 +01:00 [DBG] 
2019-12-08 00:32:08.353 +01:00 [INF] TimeStamp: 08.12.2019 00:31:59.764
2019-12-08 00:32:08.355 +01:00 [INF] TestParam: 1
2019-12-08 00:32:08.359 +01:00 [INF] TestId: 0
2019-12-08 00:32:08.364 +01:00 [INF] UserId: 16
2019-12-08 00:32:08.366 +01:00 [INF] EndpointId: 3
2019-12-08 00:32:08.370 +01:00 [INF] API_Time: 0
2019-12-08 00:32:08.373 +01:00 [INF] DB_Time: 0
2019-12-08 00:32:08.375 +01:00 [INF] Apl_Time: 0
2019-12-08 00:32:08.380 +01:00 [DBG] 
2019-12-08 00:32:08.384 +01:00 [INF] TimeStamp: 08.12.2019 00:31:59.904
2019-12-08 00:32:08.386 +01:00 [INF] TestParam: 0
2019-12-08 00:32:08.388 +01:00 [INF] TestId: 0
2019-12-08 00:32:08.392 +01:00 [INF] UserId: 17
2019-12-08 00:32:08.397 +01:00 [INF] EndpointId: 1
2019-12-08 00:32:08.402 +01:00 [INF] API_Time: 618
2019-12-08 00:32:08.406 +01:00 [INF] DB_Time: 613
2019-12-08 00:32:08.407 +01:00 [INF] Apl_Time: 139
2019-12-08 00:32:08.409 +01:00 [DBG] 
2019-12-08 00:32:08.413 +01:00 [INF] TimeStamp: 08.12.2019 00:32:00.14
2019-12-08 00:32:08.416 +01:00 [INF] TestParam: 1
2019-12-08 00:32:08.418 +01:00 [INF] TestId: 0
2019-12-08 00:32:08.420 +01:00 [INF] UserId: 17
2019-12-08 00:32:08.426 +01:00 [INF] EndpointId: 3
2019-12-08 00:32:08.436 +01:00 [INF] API_Time: 0
2019-12-08 00:32:08.439 +01:00 [INF] DB_Time: 0
2019-12-08 00:32:08.441 +01:00 [INF] Apl_Time: 0
2019-12-08 00:32:08.443 +01:00 [DBG] 
2019-12-08 00:32:08.449 +01:00 [INF] TimeStamp: 08.12.2019 00:32:00.185
2019-12-08 00:32:08.450 +01:00 [INF] TestParam: 0
2019-12-08 00:32:08.452 +01:00 [INF] TestId: 0
2019-12-08 00:32:08.457 +01:00 [INF] UserId: 18
2019-12-08 00:32:08.459 +01:00 [INF] EndpointId: 1
2019-12-08 00:32:08.461 +01:00 [INF] API_Time: 668
2019-12-08 00:32:08.463 +01:00 [INF] DB_Time: 651
2019-12-08 00:32:08.464 +01:00 [INF] Apl_Time: 170
2019-12-08 00:32:08.468 +01:00 [DBG] 
2019-12-08 00:32:08.470 +01:00 [INF] TimeStamp: 08.12.2019 00:32:00.284
2019-12-08 00:32:08.471 +01:00 [INF] TestParam: 1
2019-12-08 00:32:08.472 +01:00 [INF] TestId: 0
2019-12-08 00:32:08.474 +01:00 [INF] UserId: 18
2019-12-08 00:32:08.478 +01:00 [INF] EndpointId: 3
2019-12-08 00:32:08.480 +01:00 [INF] API_Time: 0
2019-12-08 00:32:08.482 +01:00 [INF] DB_Time: 0
2019-12-08 00:32:08.483 +01:00 [INF] Apl_Time: 0
2019-12-08 00:32:08.485 +01:00 [DBG] 
2019-12-08 00:32:08.488 +01:00 [INF] TimeStamp: 08.12.2019 00:32:00.404
2019-12-08 00:32:08.490 +01:00 [INF] TestParam: 0
2019-12-08 00:32:08.492 +01:00 [INF] TestId: 0
2019-12-08 00:32:08.494 +01:00 [INF] UserId: 19
2019-12-08 00:32:08.496 +01:00 [INF] EndpointId: 1
2019-12-08 00:32:08.499 +01:00 [INF] API_Time: 663
2019-12-08 00:32:08.501 +01:00 [INF] DB_Time: 660
2019-12-08 00:32:08.503 +01:00 [INF] Apl_Time: 119
2019-12-08 00:32:08.504 +01:00 [DBG] 
2019-12-08 00:32:08.506 +01:00 [INF] TimeStamp: 08.12.2019 00:32:00.544
2019-12-08 00:32:08.509 +01:00 [INF] TestParam: 1
2019-12-08 00:32:08.512 +01:00 [INF] TestId: 0
2019-12-08 00:32:08.514 +01:00 [INF] UserId: 19
2019-12-08 00:32:08.515 +01:00 [INF] EndpointId: 3
2019-12-08 00:32:08.519 +01:00 [INF] API_Time: 0
2019-12-08 00:32:08.521 +01:00 [INF] DB_Time: 0
2019-12-08 00:32:08.523 +01:00 [INF] Apl_Time: 0
2019-12-08 00:32:08.524 +01:00 [DBG] 
2019-12-08 00:32:08.526 +01:00 [INF] TimeStamp: 08.12.2019 00:32:00.685
2019-12-08 00:32:08.531 +01:00 [INF] TestParam: 0
2019-12-08 00:32:08.533 +01:00 [INF] TestId: 0
2019-12-08 00:32:08.535 +01:00 [INF] UserId: 20
2019-12-08 00:32:08.536 +01:00 [INF] EndpointId: 1
2019-12-08 00:32:08.538 +01:00 [INF] API_Time: 615
2019-12-08 00:32:08.541 +01:00 [INF] DB_Time: 611
2019-12-08 00:32:08.544 +01:00 [INF] Apl_Time: 140
2019-12-08 00:32:08.546 +01:00 [DBG] 
2019-12-08 00:32:08.548 +01:00 [INF] TimeStamp: 08.12.2019 00:32:00.794
2019-12-08 00:32:08.551 +01:00 [INF] TestParam: 1
2019-12-08 00:32:08.553 +01:00 [INF] TestId: 0
2019-12-08 00:32:08.555 +01:00 [INF] UserId: 20
2019-12-08 00:32:08.556 +01:00 [INF] EndpointId: 3
2019-12-08 00:32:08.558 +01:00 [INF] API_Time: 0
2019-12-08 00:32:08.562 +01:00 [INF] DB_Time: 0
2019-12-08 00:32:08.564 +01:00 [INF] Apl_Time: 0
2019-12-08 00:32:08.565 +01:00 [DBG] 
2019-12-08 00:32:08.567 +01:00 [INF] TimeStamp: 08.12.2019 00:32:00.935
2019-12-08 00:32:08.568 +01:00 [INF] TestParam: 0
2019-12-08 00:32:08.570 +01:00 [INF] TestId: 0
2019-12-08 00:32:08.573 +01:00 [INF] UserId: 21
2019-12-08 00:32:08.575 +01:00 [INF] EndpointId: 1
2019-12-08 00:32:08.577 +01:00 [INF] API_Time: 627
2019-12-08 00:32:08.578 +01:00 [INF] DB_Time: 620
2019-12-08 00:32:08.580 +01:00 [INF] Apl_Time: 140
2019-12-08 00:32:08.584 +01:00 [DBG] 
2019-12-08 00:32:08.586 +01:00 [INF] TimeStamp: 08.12.2019 00:32:01.64
2019-12-08 00:32:08.587 +01:00 [INF] TestParam: 1
2019-12-08 00:32:08.589 +01:00 [INF] TestId: 0
2019-12-08 00:32:08.590 +01:00 [INF] UserId: 21
2019-12-08 00:32:08.594 +01:00 [INF] EndpointId: 3
2019-12-08 00:32:08.596 +01:00 [INF] API_Time: 0
2019-12-08 00:32:08.598 +01:00 [INF] DB_Time: 0
2019-12-08 00:32:08.599 +01:00 [INF] Apl_Time: 0
2019-12-08 00:32:08.600 +01:00 [DBG] 
2019-12-08 00:32:08.602 +01:00 [INF] TimeStamp: 08.12.2019 00:32:01.204
2019-12-08 00:32:08.605 +01:00 [INF] TestParam: 0
2019-12-08 00:32:08.607 +01:00 [INF] TestId: 0
2019-12-08 00:32:08.609 +01:00 [INF] UserId: 22
2019-12-08 00:32:08.610 +01:00 [INF] EndpointId: 1
2019-12-08 00:32:08.612 +01:00 [INF] API_Time: 658
2019-12-08 00:32:08.615 +01:00 [INF] DB_Time: 653
2019-12-08 00:32:08.618 +01:00 [INF] Apl_Time: 139
2019-12-08 00:32:08.619 +01:00 [DBG] 
2019-12-08 00:32:08.621 +01:00 [INF] TimeStamp: 08.12.2019 00:32:01.330
2019-12-08 00:32:08.622 +01:00 [INF] TestParam: 1
2019-12-08 00:32:08.625 +01:00 [INF] TestId: 0
2019-12-08 00:32:08.629 +01:00 [INF] UserId: 22
2019-12-08 00:32:08.630 +01:00 [INF] EndpointId: 3
2019-12-08 00:32:08.632 +01:00 [INF] API_Time: 0
2019-12-08 00:32:08.635 +01:00 [INF] DB_Time: 0
2019-12-08 00:32:08.637 +01:00 [INF] Apl_Time: 0
2019-12-08 00:32:08.639 +01:00 [DBG] 
2019-12-08 00:32:08.640 +01:00 [INF] TimeStamp: 08.12.2019 00:32:01.474
2019-12-08 00:32:08.641 +01:00 [INF] TestParam: 0
2019-12-08 00:32:08.643 +01:00 [INF] TestId: 0
2019-12-08 00:32:08.647 +01:00 [INF] UserId: 23
2019-12-08 00:32:08.649 +01:00 [INF] EndpointId: 1
2019-12-08 00:32:08.650 +01:00 [INF] API_Time: 3027
2019-12-08 00:32:08.652 +01:00 [INF] DB_Time: 3022
2019-12-08 00:32:08.653 +01:00 [INF] Apl_Time: 144
2019-12-08 00:32:08.657 +01:00 [DBG] 
2019-12-08 00:32:08.659 +01:00 [INF] TimeStamp: 08.12.2019 00:32:01.604
2019-12-08 00:32:08.661 +01:00 [INF] TestParam: 1
2019-12-08 00:32:08.662 +01:00 [INF] TestId: 0
2019-12-08 00:32:08.664 +01:00 [INF] UserId: 23
2019-12-08 00:32:08.667 +01:00 [INF] EndpointId: 3
2019-12-08 00:32:08.669 +01:00 [INF] API_Time: 0
2019-12-08 00:32:08.671 +01:00 [INF] DB_Time: 0
2019-12-08 00:32:08.680 +01:00 [INF] Apl_Time: 0
2019-12-08 00:32:08.683 +01:00 [DBG] 
2019-12-08 00:32:08.686 +01:00 [INF] TimeStamp: 08.12.2019 00:32:01.745
2019-12-08 00:32:08.689 +01:00 [INF] TestParam: 0
2019-12-08 00:32:08.691 +01:00 [INF] TestId: 0
2019-12-08 00:32:08.693 +01:00 [INF] UserId: 24
2019-12-08 00:32:08.695 +01:00 [INF] EndpointId: 1
2019-12-08 00:32:08.696 +01:00 [INF] API_Time: 615
2019-12-08 00:32:08.700 +01:00 [INF] DB_Time: 610
2019-12-08 00:32:08.702 +01:00 [INF] Apl_Time: 140
2019-12-08 00:32:08.704 +01:00 [DBG] 
2019-12-08 00:32:08.705 +01:00 [INF] TimeStamp: 08.12.2019 00:32:01.867
2019-12-08 00:32:08.706 +01:00 [INF] TestParam: 1
2019-12-08 00:32:08.710 +01:00 [INF] TestId: 0
2019-12-08 00:32:08.712 +01:00 [INF] UserId: 24
2019-12-08 00:32:08.714 +01:00 [INF] EndpointId: 3
2019-12-08 00:32:08.715 +01:00 [INF] API_Time: 0
2019-12-08 00:32:08.717 +01:00 [INF] DB_Time: 0
2019-12-08 00:32:08.720 +01:00 [INF] Apl_Time: 0
2019-12-08 00:32:08.722 +01:00 [DBG] 
2019-12-08 00:32:08.724 +01:00 [INF] TimeStamp: 08.12.2019 00:32:01.995
2019-12-08 00:32:08.725 +01:00 [INF] TestParam: 0
2019-12-08 00:32:08.727 +01:00 [INF] TestId: 0
2019-12-08 00:32:08.731 +01:00 [INF] UserId: 25
2019-12-08 00:32:08.733 +01:00 [INF] EndpointId: 1
2019-12-08 00:32:08.735 +01:00 [INF] API_Time: 630
2019-12-08 00:32:08.736 +01:00 [INF] DB_Time: 624
2019-12-08 00:32:08.738 +01:00 [INF] Apl_Time: 128
2019-12-08 00:32:08.739 +01:00 [DBG] 
2019-12-08 00:32:08.743 +01:00 [INF] TimeStamp: 08.12.2019 00:32:02.124
2019-12-08 00:32:08.745 +01:00 [INF] TestParam: 1
2019-12-08 00:32:08.747 +01:00 [INF] TestId: 0
2019-12-08 00:32:08.749 +01:00 [INF] UserId: 25
2019-12-08 00:32:08.752 +01:00 [INF] EndpointId: 3
2019-12-08 00:32:08.754 +01:00 [INF] API_Time: 0
2019-12-08 00:32:08.756 +01:00 [INF] DB_Time: 0
2019-12-08 00:32:08.757 +01:00 [INF] Apl_Time: 0
2019-12-08 00:32:08.759 +01:00 [DBG] 
2019-12-08 00:32:08.763 +01:00 [INF] TimeStamp: 08.12.2019 00:32:02.265
2019-12-08 00:32:08.765 +01:00 [INF] TestParam: 0
2019-12-08 00:32:08.766 +01:00 [INF] TestId: 0
2019-12-08 00:32:08.768 +01:00 [INF] UserId: 26
2019-12-08 00:32:08.770 +01:00 [INF] EndpointId: 1
2019-12-08 00:32:08.773 +01:00 [INF] API_Time: 680
2019-12-08 00:32:08.775 +01:00 [INF] DB_Time: 675
2019-12-08 00:32:08.777 +01:00 [INF] Apl_Time: 140
2019-12-08 00:32:08.779 +01:00 [DBG] 
2019-12-08 00:32:08.780 +01:00 [INF] TimeStamp: 08.12.2019 00:32:02.404
2019-12-08 00:32:08.784 +01:00 [INF] TestParam: 1
2019-12-08 00:32:08.786 +01:00 [INF] TestId: 0
2019-12-08 00:32:08.788 +01:00 [INF] UserId: 26
2019-12-08 00:32:08.789 +01:00 [INF] EndpointId: 3
2019-12-08 00:32:08.791 +01:00 [INF] API_Time: 0
2019-12-08 00:32:08.795 +01:00 [INF] DB_Time: 0
2019-12-08 00:32:08.798 +01:00 [INF] Apl_Time: 0
2019-12-08 00:32:08.799 +01:00 [DBG] 
2019-12-08 00:32:08.800 +01:00 [INF] TimeStamp: 08.12.2019 00:32:02.544
2019-12-08 00:32:08.802 +01:00 [INF] TestParam: 0
2019-12-08 00:32:08.805 +01:00 [INF] TestId: 0
2019-12-08 00:32:08.807 +01:00 [INF] UserId: 27
2019-12-08 00:32:08.809 +01:00 [INF] EndpointId: 1
2019-12-08 00:32:08.811 +01:00 [INF] API_Time: 651
2019-12-08 00:32:08.813 +01:00 [INF] DB_Time: 646
2019-12-08 00:32:08.816 +01:00 [INF] Apl_Time: 139
2019-12-08 00:32:08.818 +01:00 [DBG] 
2019-12-08 00:32:08.820 +01:00 [INF] TimeStamp: 08.12.2019 00:32:02.664
2019-12-08 00:32:08.821 +01:00 [INF] TestParam: 1
2019-12-08 00:32:08.823 +01:00 [INF] TestId: 0
2019-12-08 00:32:08.826 +01:00 [INF] UserId: 27
2019-12-08 00:32:08.828 +01:00 [INF] EndpointId: 3
2019-12-08 00:32:08.830 +01:00 [INF] API_Time: 0
2019-12-08 00:32:08.832 +01:00 [INF] DB_Time: 0
2019-12-08 00:32:08.833 +01:00 [INF] Apl_Time: 0
2019-12-08 00:32:08.836 +01:00 [DBG] 
2019-12-08 00:32:08.838 +01:00 [INF] TimeStamp: 08.12.2019 00:32:02.804
2019-12-08 00:32:08.840 +01:00 [INF] TestParam: 0
2019-12-08 00:32:08.841 +01:00 [INF] TestId: 0
2019-12-08 00:32:08.843 +01:00 [INF] UserId: 28
2019-12-08 00:32:08.847 +01:00 [INF] EndpointId: 1
2019-12-08 00:32:08.849 +01:00 [INF] API_Time: 631
2019-12-08 00:32:08.850 +01:00 [INF] DB_Time: 626
2019-12-08 00:32:08.852 +01:00 [INF] Apl_Time: 139
2019-12-08 00:32:08.853 +01:00 [DBG] 
2019-12-08 00:32:08.856 +01:00 [INF] TimeStamp: 08.12.2019 00:32:02.914
2019-12-08 00:32:08.859 +01:00 [INF] TestParam: 1
2019-12-08 00:32:08.861 +01:00 [INF] TestId: 0
2019-12-08 00:32:08.863 +01:00 [INF] UserId: 28
2019-12-08 00:32:08.866 +01:00 [INF] EndpointId: 3
2019-12-08 00:32:08.868 +01:00 [INF] API_Time: 0
2019-12-08 00:32:08.870 +01:00 [INF] DB_Time: 0
2019-12-08 00:32:08.872 +01:00 [INF] Apl_Time: 0
2019-12-08 00:32:08.873 +01:00 [DBG] 
2019-12-08 00:32:08.877 +01:00 [INF] TimeStamp: 08.12.2019 00:32:03.44
2019-12-08 00:32:08.879 +01:00 [INF] TestParam: 0
2019-12-08 00:32:08.880 +01:00 [INF] TestId: 0
2019-12-08 00:32:08.882 +01:00 [INF] UserId: 29
2019-12-08 00:32:08.883 +01:00 [INF] EndpointId: 1
2019-12-08 00:32:08.887 +01:00 [INF] API_Time: 631
2019-12-08 00:32:08.889 +01:00 [INF] DB_Time: 627
2019-12-08 00:32:08.891 +01:00 [INF] Apl_Time: 129
2019-12-08 00:32:08.894 +01:00 [DBG] 
2019-12-08 00:32:08.897 +01:00 [INF] TimeStamp: 08.12.2019 00:32:03.174
2019-12-08 00:32:08.899 +01:00 [INF] TestParam: 1
2019-12-08 00:32:08.900 +01:00 [INF] TestId: 0
2019-12-08 00:32:08.902 +01:00 [INF] UserId: 29
2019-12-08 00:32:08.904 +01:00 [INF] EndpointId: 3
2019-12-08 00:32:08.907 +01:00 [INF] API_Time: 0
2019-12-08 00:32:08.909 +01:00 [INF] DB_Time: 0
2019-12-08 00:32:08.911 +01:00 [INF] Apl_Time: 0
2019-12-08 00:32:08.913 +01:00 [DBG] 
2019-12-08 00:32:08.916 +01:00 [INF] TimeStamp: 08.12.2019 00:32:03.314
2019-12-08 00:32:08.918 +01:00 [INF] TestParam: 0
2019-12-08 00:32:08.920 +01:00 [INF] TestId: 0
2019-12-08 00:32:08.921 +01:00 [INF] UserId: 30
2019-12-08 00:32:08.923 +01:00 [INF] EndpointId: 1
2019-12-08 00:32:08.927 +01:00 [INF] API_Time: 1247
2019-12-08 00:32:08.929 +01:00 [INF] DB_Time: 1236
2019-12-08 00:32:08.931 +01:00 [INF] Apl_Time: 140
2019-12-08 00:32:08.932 +01:00 [DBG] 
2019-12-08 00:32:08.934 +01:00 [INF] TimeStamp: 08.12.2019 00:32:03.454
2019-12-08 00:32:08.937 +01:00 [INF] TestParam: 1
2019-12-08 00:32:08.939 +01:00 [INF] TestId: 0
2019-12-08 00:32:08.941 +01:00 [INF] UserId: 30
2019-12-08 00:32:08.942 +01:00 [INF] EndpointId: 3
2019-12-08 00:32:08.944 +01:00 [INF] API_Time: 0
2019-12-08 00:32:08.947 +01:00 [INF] DB_Time: 0
2019-12-08 00:32:08.949 +01:00 [INF] Apl_Time: 0
2019-12-08 00:32:08.951 +01:00 [DBG] 
2019-12-08 00:32:08.952 +01:00 [INF] TimeStamp: 08.12.2019 00:32:03.584
2019-12-08 00:32:08.956 +01:00 [INF] TestParam: 0
2019-12-08 00:32:08.958 +01:00 [INF] TestId: 0
2019-12-08 00:32:08.960 +01:00 [INF] UserId: 31
2019-12-08 00:32:08.962 +01:00 [INF] EndpointId: 1
2019-12-08 00:32:08.964 +01:00 [INF] API_Time: 636
2019-12-08 00:32:08.967 +01:00 [INF] DB_Time: 631
2019-12-08 00:32:08.970 +01:00 [INF] Apl_Time: 129
2019-12-08 00:32:08.971 +01:00 [DBG] 
2019-12-08 00:32:08.972 +01:00 [INF] TimeStamp: 08.12.2019 00:32:03.714
2019-12-08 00:32:08.974 +01:00 [INF] TestParam: 1
2019-12-08 00:32:08.978 +01:00 [INF] TestId: 0
2019-12-08 00:32:08.980 +01:00 [INF] UserId: 31
2019-12-08 00:32:08.981 +01:00 [INF] EndpointId: 3
2019-12-08 00:32:08.983 +01:00 [INF] API_Time: 0
2019-12-08 00:32:08.985 +01:00 [INF] DB_Time: 0
2019-12-08 00:32:08.986 +01:00 [INF] Apl_Time: 0
2019-12-08 00:32:08.989 +01:00 [DBG] 
2019-12-08 00:32:08.991 +01:00 [INF] TimeStamp: 08.12.2019 00:32:03.925
2019-12-08 00:32:08.993 +01:00 [INF] TestParam: 0
2019-12-08 00:32:08.995 +01:00 [INF] TestId: 0
2019-12-08 00:32:08.997 +01:00 [INF] UserId: 32
2019-12-08 00:32:09.001 +01:00 [INF] EndpointId: 1
2019-12-08 00:32:09.003 +01:00 [INF] API_Time: 586
2019-12-08 00:32:09.005 +01:00 [INF] DB_Time: 581
2019-12-08 00:32:09.006 +01:00 [INF] Apl_Time: 210
2019-12-08 00:32:09.008 +01:00 [DBG] 
2019-12-08 00:32:09.012 +01:00 [INF] TimeStamp: 08.12.2019 00:32:04.55
2019-12-08 00:32:09.014 +01:00 [INF] TestParam: 1
2019-12-08 00:32:09.015 +01:00 [INF] TestId: 0
2019-12-08 00:32:09.016 +01:00 [INF] UserId: 32
2019-12-08 00:32:09.018 +01:00 [INF] EndpointId: 3
2019-12-08 00:32:09.020 +01:00 [INF] API_Time: 0
2019-12-08 00:32:09.023 +01:00 [INF] DB_Time: 0
2019-12-08 00:32:09.025 +01:00 [INF] Apl_Time: 0
2019-12-08 00:32:09.027 +01:00 [DBG] 
2019-12-08 00:32:09.029 +01:00 [INF] TimeStamp: 08.12.2019 00:32:04.194
2019-12-08 00:32:09.032 +01:00 [INF] TestParam: 0
2019-12-08 00:32:09.034 +01:00 [INF] TestId: 0
2019-12-08 00:32:09.036 +01:00 [INF] UserId: 33
2019-12-08 00:32:09.037 +01:00 [INF] EndpointId: 1
2019-12-08 00:32:09.039 +01:00 [INF] API_Time: 596
2019-12-08 00:32:09.040 +01:00 [INF] DB_Time: 590
2019-12-08 00:32:09.044 +01:00 [INF] Apl_Time: 139
2019-12-08 00:32:09.046 +01:00 [DBG] 
2019-12-08 00:32:09.048 +01:00 [INF] TimeStamp: 08.12.2019 00:32:04.304
2019-12-08 00:32:09.049 +01:00 [INF] TestParam: 1
2019-12-08 00:32:09.051 +01:00 [INF] TestId: 0
2019-12-08 00:32:09.054 +01:00 [INF] UserId: 33
2019-12-08 00:32:09.056 +01:00 [INF] EndpointId: 3
2019-12-08 00:32:09.059 +01:00 [INF] API_Time: 0
2019-12-08 00:32:09.061 +01:00 [INF] DB_Time: 0
2019-12-08 00:32:09.064 +01:00 [INF] Apl_Time: 0
2019-12-08 00:32:09.066 +01:00 [DBG] 
2019-12-08 00:32:09.068 +01:00 [INF] TimeStamp: 08.12.2019 00:32:04.444
2019-12-08 00:32:09.069 +01:00 [INF] TestParam: 0
2019-12-08 00:32:09.070 +01:00 [INF] TestId: 0
2019-12-08 00:32:09.073 +01:00 [INF] UserId: 34
2019-12-08 00:32:09.076 +01:00 [INF] EndpointId: 1
2019-12-08 00:32:09.077 +01:00 [INF] API_Time: 627
2019-12-08 00:32:09.079 +01:00 [INF] DB_Time: 622
2019-12-08 00:32:09.081 +01:00 [INF] Apl_Time: 139
2019-12-08 00:32:09.085 +01:00 [DBG] 
2019-12-08 00:32:09.087 +01:00 [INF] TimeStamp: 08.12.2019 00:32:04.564
2019-12-08 00:32:09.089 +01:00 [INF] TestParam: 1
2019-12-08 00:32:09.091 +01:00 [INF] TestId: 0
2019-12-08 00:32:09.095 +01:00 [INF] UserId: 34
2019-12-08 00:32:09.097 +01:00 [INF] EndpointId: 3
2019-12-08 00:32:09.099 +01:00 [INF] API_Time: 0
2019-12-08 00:32:09.100 +01:00 [INF] DB_Time: 0
2019-12-08 00:32:09.102 +01:00 [INF] Apl_Time: 0
2019-12-08 00:32:09.103 +01:00 [DBG] 
2019-12-08 00:32:09.106 +01:00 [INF] TimeStamp: 08.12.2019 00:32:04.695
2019-12-08 00:32:09.110 +01:00 [INF] TestParam: 0
2019-12-08 00:32:09.112 +01:00 [INF] TestId: 0
2019-12-08 00:32:09.113 +01:00 [INF] UserId: 35
2019-12-08 00:32:09.116 +01:00 [INF] EndpointId: 1
2019-12-08 00:32:09.119 +01:00 [INF] API_Time: 687
2019-12-08 00:32:09.120 +01:00 [INF] DB_Time: 681
2019-12-08 00:32:09.122 +01:00 [INF] Apl_Time: 130
2019-12-08 00:32:09.124 +01:00 [DBG] 
2019-12-08 00:32:09.128 +01:00 [INF] TimeStamp: 08.12.2019 00:32:04.834
2019-12-08 00:32:09.130 +01:00 [INF] TestParam: 1
2019-12-08 00:32:09.132 +01:00 [INF] TestId: 0
2019-12-08 00:32:09.133 +01:00 [INF] UserId: 35
2019-12-08 00:32:09.135 +01:00 [INF] EndpointId: 3
2019-12-08 00:32:09.138 +01:00 [INF] API_Time: 0
2019-12-08 00:32:09.141 +01:00 [INF] DB_Time: 0
2019-12-08 00:32:09.142 +01:00 [INF] Apl_Time: 0
2019-12-08 00:32:09.145 +01:00 [DBG] 
2019-12-08 00:32:09.148 +01:00 [INF] TimeStamp: 08.12.2019 00:32:04.964
2019-12-08 00:32:09.150 +01:00 [INF] TestParam: 0
2019-12-08 00:32:09.152 +01:00 [INF] TestId: 0
2019-12-08 00:32:09.154 +01:00 [INF] UserId: 36
2019-12-08 00:32:09.156 +01:00 [INF] EndpointId: 1
2019-12-08 00:32:09.159 +01:00 [INF] API_Time: 653
2019-12-08 00:32:09.162 +01:00 [INF] DB_Time: 647
2019-12-08 00:32:09.163 +01:00 [INF] Apl_Time: 129
2019-12-08 00:32:09.165 +01:00 [DBG] 
2019-12-08 00:32:09.166 +01:00 [INF] TimeStamp: 08.12.2019 00:32:05.134
2019-12-08 00:32:09.169 +01:00 [INF] TestParam: 1
2019-12-08 00:32:09.171 +01:00 [INF] TestId: 0
2019-12-08 00:32:09.173 +01:00 [INF] UserId: 36
2019-12-08 00:32:09.174 +01:00 [INF] EndpointId: 3
2019-12-08 00:32:09.179 +01:00 [INF] API_Time: 0
2019-12-08 00:32:09.181 +01:00 [INF] DB_Time: 0
2019-12-08 00:32:09.184 +01:00 [INF] Apl_Time: 0
2019-12-08 00:32:09.185 +01:00 [DBG] 
2019-12-08 00:32:09.186 +01:00 [INF] TimeStamp: 08.12.2019 00:32:05.294
2019-12-08 00:32:09.190 +01:00 [INF] TestParam: 0
2019-12-08 00:32:09.192 +01:00 [INF] TestId: 0
2019-12-08 00:32:09.194 +01:00 [INF] UserId: 37
2019-12-08 00:32:09.195 +01:00 [INF] EndpointId: 1
2019-12-08 00:32:09.197 +01:00 [INF] API_Time: 596
2019-12-08 00:32:09.200 +01:00 [INF] DB_Time: 589
2019-12-08 00:32:09.202 +01:00 [INF] Apl_Time: 159
2019-12-08 00:32:09.205 +01:00 [DBG] 
2019-12-08 00:32:09.206 +01:00 [INF] TimeStamp: 08.12.2019 00:32:05.414
2019-12-08 00:32:09.209 +01:00 [INF] TestParam: 1
2019-12-08 00:32:09.212 +01:00 [INF] TestId: 0
2019-12-08 00:32:09.213 +01:00 [INF] UserId: 37
2019-12-08 00:32:09.215 +01:00 [INF] EndpointId: 3
2019-12-08 00:32:09.216 +01:00 [INF] API_Time: 0
2019-12-08 00:32:09.220 +01:00 [INF] DB_Time: 0
2019-12-08 00:32:09.222 +01:00 [INF] Apl_Time: 0
2019-12-08 00:32:09.223 +01:00 [DBG] 
2019-12-08 00:32:09.225 +01:00 [INF] TimeStamp: 08.12.2019 00:32:05.554
2019-12-08 00:32:09.227 +01:00 [INF] TestParam: 0
2019-12-08 00:32:09.230 +01:00 [INF] TestId: 0
2019-12-08 00:32:09.232 +01:00 [INF] UserId: 38
2019-12-08 00:32:09.234 +01:00 [INF] EndpointId: 1
2019-12-08 00:32:09.236 +01:00 [INF] API_Time: 590
2019-12-08 00:32:09.240 +01:00 [INF] DB_Time: 581
2019-12-08 00:32:09.244 +01:00 [INF] Apl_Time: 139
2019-12-08 00:32:09.245 +01:00 [DBG] 
2019-12-08 00:32:09.247 +01:00 [INF] TimeStamp: 08.12.2019 00:32:05.664
2019-12-08 00:32:09.252 +01:00 [INF] TestParam: 1
2019-12-08 00:32:09.255 +01:00 [INF] TestId: 0
2019-12-08 00:32:09.256 +01:00 [INF] UserId: 38
2019-12-08 00:32:09.258 +01:00 [INF] EndpointId: 3
2019-12-08 00:32:09.263 +01:00 [INF] API_Time: 0
2019-12-08 00:32:09.265 +01:00 [INF] DB_Time: 0
2019-12-08 00:32:09.267 +01:00 [INF] Apl_Time: 0
2019-12-08 00:32:09.268 +01:00 [DBG] 
2019-12-08 00:32:09.270 +01:00 [INF] TimeStamp: 08.12.2019 00:32:05.814
2019-12-08 00:32:09.273 +01:00 [INF] TestParam: 0
2019-12-08 00:32:09.275 +01:00 [INF] TestId: 0
2019-12-08 00:32:09.277 +01:00 [INF] UserId: 39
2019-12-08 00:32:09.279 +01:00 [INF] EndpointId: 1
2019-12-08 00:32:09.281 +01:00 [INF] API_Time: 586
2019-12-08 00:32:09.284 +01:00 [INF] DB_Time: 580
2019-12-08 00:32:09.286 +01:00 [INF] Apl_Time: 150
2019-12-08 00:32:09.288 +01:00 [DBG] 
2019-12-08 00:32:09.289 +01:00 [INF] TimeStamp: 08.12.2019 00:32:05.914
2019-12-08 00:32:09.291 +01:00 [INF] TestParam: 1
2019-12-08 00:32:09.294 +01:00 [INF] TestId: 0
2019-12-08 00:32:09.296 +01:00 [INF] UserId: 39
2019-12-08 00:32:09.298 +01:00 [INF] EndpointId: 3
2019-12-08 00:32:09.299 +01:00 [INF] API_Time: 0
2019-12-08 00:32:09.303 +01:00 [INF] DB_Time: 0
2019-12-08 00:32:09.305 +01:00 [INF] Apl_Time: 0
2019-12-08 00:32:09.307 +01:00 [DBG] 
2019-12-08 00:32:09.309 +01:00 [INF] TimeStamp: 08.12.2019 00:32:06.45
2019-12-08 00:32:09.311 +01:00 [INF] TestParam: 0
2019-12-08 00:32:09.314 +01:00 [INF] TestId: 0
2019-12-08 00:32:09.317 +01:00 [INF] UserId: 40
2019-12-08 00:32:09.318 +01:00 [INF] EndpointId: 1
2019-12-08 00:32:09.320 +01:00 [INF] API_Time: 575
2019-12-08 00:32:09.321 +01:00 [INF] DB_Time: 568
2019-12-08 00:32:09.324 +01:00 [INF] Apl_Time: 130
2019-12-08 00:32:09.327 +01:00 [DBG] 
2019-12-08 00:32:09.329 +01:00 [INF] TimeStamp: 08.12.2019 00:32:06.184
2019-12-08 00:32:09.330 +01:00 [INF] TestParam: 1
2019-12-08 00:32:09.332 +01:00 [INF] TestId: 0
2019-12-08 00:32:09.335 +01:00 [INF] UserId: 40
2019-12-08 00:32:09.337 +01:00 [INF] EndpointId: 3
2019-12-08 00:32:09.339 +01:00 [INF] API_Time: 0
2019-12-08 00:32:09.340 +01:00 [INF] DB_Time: 0
2019-12-08 00:32:09.342 +01:00 [INF] Apl_Time: 0
2019-12-08 00:32:09.346 +01:00 [DBG] 
2019-12-08 00:32:09.348 +01:00 [INF] TimeStamp: 08.12.2019 00:32:06.325
2019-12-08 00:32:09.349 +01:00 [INF] TestParam: 0
2019-12-08 00:32:09.351 +01:00 [INF] TestId: 0
2019-12-08 00:32:09.352 +01:00 [INF] UserId: 41
2019-12-08 00:32:09.355 +01:00 [INF] EndpointId: 1
2019-12-08 00:32:09.358 +01:00 [INF] API_Time: 646
2019-12-08 00:32:09.359 +01:00 [INF] DB_Time: 640
2019-12-08 00:32:09.362 +01:00 [INF] Apl_Time: 140
2019-12-08 00:32:09.365 +01:00 [DBG] 
2019-12-08 00:32:09.367 +01:00 [INF] TimeStamp: 08.12.2019 00:32:06.437
2019-12-08 00:32:09.369 +01:00 [INF] TestParam: 1
2019-12-08 00:32:09.370 +01:00 [INF] TestId: 0
2019-12-08 00:32:09.371 +01:00 [INF] UserId: 41
2019-12-08 00:32:09.376 +01:00 [INF] EndpointId: 3
2019-12-08 00:32:09.378 +01:00 [INF] API_Time: 0
2019-12-08 00:32:09.380 +01:00 [INF] DB_Time: 0
2019-12-08 00:32:09.381 +01:00 [INF] Apl_Time: 0
2019-12-08 00:32:09.383 +01:00 [DBG] 
2019-12-08 00:32:09.384 +01:00 [INF] TimeStamp: 08.12.2019 00:32:06.594
2019-12-08 00:32:09.387 +01:00 [INF] TestParam: 0
2019-12-08 00:32:09.389 +01:00 [INF] TestId: 0
2019-12-08 00:32:09.391 +01:00 [INF] UserId: 42
2019-12-08 00:32:09.392 +01:00 [INF] EndpointId: 1
2019-12-08 00:32:09.394 +01:00 [INF] API_Time: 618
2019-12-08 00:32:09.398 +01:00 [INF] DB_Time: 612
2019-12-08 00:32:09.400 +01:00 [INF] Apl_Time: 156
2019-12-08 00:32:09.401 +01:00 [DBG] 
2019-12-08 00:32:09.403 +01:00 [INF] TimeStamp: 08.12.2019 00:32:06.684
2019-12-08 00:32:09.404 +01:00 [INF] TestParam: 1
2019-12-08 00:32:09.408 +01:00 [INF] TestId: 0
2019-12-08 00:32:09.410 +01:00 [INF] UserId: 42
2019-12-08 00:32:09.412 +01:00 [INF] EndpointId: 3
2019-12-08 00:32:09.413 +01:00 [INF] API_Time: 0
2019-12-08 00:32:09.415 +01:00 [INF] DB_Time: 0
2019-12-08 00:32:09.418 +01:00 [INF] Apl_Time: 0
2019-12-08 00:32:09.420 +01:00 [DBG] 
2019-12-08 00:32:09.422 +01:00 [INF] TimeStamp: 08.12.2019 00:32:06.824
2019-12-08 00:32:09.423 +01:00 [INF] TestParam: 0
2019-12-08 00:32:09.424 +01:00 [INF] TestId: 0
2019-12-08 00:32:09.428 +01:00 [INF] UserId: 43
2019-12-08 00:32:09.431 +01:00 [INF] EndpointId: 1
2019-12-08 00:32:09.433 +01:00 [INF] API_Time: 646
2019-12-08 00:32:09.435 +01:00 [INF] DB_Time: 641
2019-12-08 00:32:09.438 +01:00 [INF] Apl_Time: 139
2019-12-08 00:32:09.440 +01:00 [DBG] 
2019-12-08 00:32:09.442 +01:00 [INF] TimeStamp: 08.12.2019 00:32:06.944
2019-12-08 00:32:09.443 +01:00 [INF] TestParam: 1
2019-12-08 00:32:09.445 +01:00 [INF] TestId: 0
2019-12-08 00:32:09.449 +01:00 [INF] UserId: 43
2019-12-08 00:32:09.451 +01:00 [INF] EndpointId: 3
2019-12-08 00:32:09.452 +01:00 [INF] API_Time: 0
2019-12-08 00:32:09.454 +01:00 [INF] DB_Time: 0
2019-12-08 00:32:09.455 +01:00 [INF] Apl_Time: 0
2019-12-08 00:32:09.457 +01:00 [DBG] 
2019-12-08 00:32:09.460 +01:00 [INF] TimeStamp: 08.12.2019 00:32:07.84
2019-12-08 00:32:09.463 +01:00 [INF] TestParam: 0
2019-12-08 00:32:09.464 +01:00 [INF] TestId: 0
2019-12-08 00:32:09.467 +01:00 [INF] UserId: 44
2019-12-08 00:32:09.470 +01:00 [INF] EndpointId: 1
2019-12-08 00:32:09.472 +01:00 [INF] API_Time: 633
2019-12-08 00:32:09.474 +01:00 [INF] DB_Time: 622
2019-12-08 00:32:09.475 +01:00 [INF] Apl_Time: 139
2019-12-08 00:32:09.477 +01:00 [DBG] 
2019-12-08 00:32:09.480 +01:00 [INF] TimeStamp: 08.12.2019 00:32:07.325
2019-12-08 00:32:09.484 +01:00 [INF] TestParam: 0
2019-12-08 00:32:09.485 +01:00 [INF] TestId: 0
2019-12-08 00:32:09.487 +01:00 [INF] UserId: 44
2019-12-08 00:32:09.490 +01:00 [INF] EndpointId: 7
2019-12-08 00:32:09.493 +01:00 [INF] API_Time: 1088
2019-12-08 00:32:09.494 +01:00 [INF] DB_Time: 1078
2019-12-08 00:32:09.496 +01:00 [INF] Apl_Time: 166
2019-12-08 00:32:09.498 +01:00 [DBG] 
2019-12-08 00:32:09.501 +01:00 [ERR] NULL
2019-12-08 00:32:09.503 +01:00 [ERR] NULL
2019-12-08 00:32:09.505 +01:00 [ERR] NULL
2019-12-08 00:32:09.506 +01:00 [INF] TimeStamp: 08.12.2019 00:32:07.325
2019-12-08 00:32:09.508 +01:00 [INF] TestParam: 0
2019-12-08 00:32:09.512 +01:00 [INF] TestId: 0
2019-12-08 00:32:09.514 +01:00 [INF] UserId: 44
2019-12-08 00:32:09.516 +01:00 [INF] EndpointId: 7
2019-12-08 00:32:09.517 +01:00 [INF] API_Time: 955
2019-12-08 00:32:09.521 +01:00 [INF] DB_Time: 950
2019-12-08 00:32:09.523 +01:00 [INF] Apl_Time: 168
2019-12-08 00:32:09.525 +01:00 [DBG] 
2019-12-08 00:32:09.527 +01:00 [INF] TimeStamp: 08.12.2019 00:32:07.333
2019-12-08 00:32:09.529 +01:00 [INF] TestParam: 0
2019-12-08 00:32:09.532 +01:00 [INF] TestId: 0
2019-12-08 00:32:09.534 +01:00 [INF] UserId: 44
2019-12-08 00:32:09.536 +01:00 [INF] EndpointId: 7
2019-12-08 00:32:09.537 +01:00 [INF] API_Time: 870
2019-12-08 00:32:09.538 +01:00 [INF] DB_Time: 865
2019-12-08 00:32:09.540 +01:00 [INF] Apl_Time: 176
2019-12-08 00:32:09.544 +01:00 [DBG] 
2019-12-08 00:32:09.547 +01:00 [INF] TimeStamp: 08.12.2019 00:32:07.334
2019-12-08 00:32:09.549 +01:00 [INF] TestParam: 0
2019-12-08 00:32:09.550 +01:00 [INF] TestId: 0
2019-12-08 00:32:09.553 +01:00 [INF] UserId: 44
2019-12-08 00:32:09.555 +01:00 [INF] EndpointId: 7
2019-12-08 00:32:09.557 +01:00 [INF] API_Time: 1039
2019-12-08 00:32:09.560 +01:00 [INF] DB_Time: 1033
2019-12-08 00:32:09.563 +01:00 [INF] Apl_Time: 175
2019-12-08 00:32:09.565 +01:00 [DBG] 
2019-12-08 00:32:09.567 +01:00 [INF] TimeStamp: 08.12.2019 00:32:07.344
2019-12-08 00:32:09.568 +01:00 [INF] TestParam: 0
2019-12-08 00:32:09.570 +01:00 [INF] TestId: 0
2019-12-08 00:32:09.573 +01:00 [INF] UserId: 44
2019-12-08 00:32:09.575 +01:00 [INF] EndpointId: 7
2019-12-08 00:32:09.577 +01:00 [INF] API_Time: 1212
2019-12-08 00:32:09.579 +01:00 [INF] DB_Time: 1199
2019-12-08 00:32:09.580 +01:00 [INF] Apl_Time: 184
2019-12-08 00:32:09.584 +01:00 [DBG] 
2019-12-08 00:32:09.586 +01:00 [INF] TimeStamp: 08.12.2019 00:32:07.350
2019-12-08 00:32:09.588 +01:00 [INF] TestParam: 0
2019-12-08 00:32:09.589 +01:00 [INF] TestId: 0
2019-12-08 00:32:09.594 +01:00 [INF] UserId: 44
2019-12-08 00:32:09.596 +01:00 [INF] EndpointId: 7
2019-12-08 00:32:09.598 +01:00 [INF] API_Time: 975
2019-12-08 00:32:09.599 +01:00 [INF] DB_Time: 970
2019-12-08 00:32:09.600 +01:00 [INF] Apl_Time: 193
2019-12-08 00:32:09.604 +01:00 [DBG] 
2019-12-08 00:32:09.606 +01:00 [INF] TimeStamp: 08.12.2019 00:32:07.354
2019-12-08 00:32:09.607 +01:00 [INF] TestParam: 0
2019-12-08 00:32:09.609 +01:00 [INF] TestId: 0
2019-12-08 00:32:09.611 +01:00 [INF] UserId: 44
2019-12-08 00:32:09.614 +01:00 [INF] EndpointId: 7
2019-12-08 00:32:09.617 +01:00 [INF] API_Time: 1029
2019-12-08 00:32:09.618 +01:00 [INF] DB_Time: 1024
2019-12-08 00:32:09.620 +01:00 [INF] Apl_Time: 194
2019-12-08 00:32:09.621 +01:00 [DBG] 
2019-12-08 00:32:09.624 +01:00 [INF] TimeStamp: 08.12.2019 00:32:07.364
2019-12-08 00:32:09.628 +01:00 [INF] TestParam: 0
2019-12-08 00:32:09.629 +01:00 [INF] TestId: 0
2019-12-08 00:32:09.631 +01:00 [INF] UserId: 44
2019-12-08 00:32:09.634 +01:00 [INF] EndpointId: 7
2019-12-08 00:32:09.636 +01:00 [INF] API_Time: 995
2019-12-08 00:32:09.638 +01:00 [INF] DB_Time: 989
2019-12-08 00:32:09.639 +01:00 [INF] Apl_Time: 204
2019-12-08 00:32:09.641 +01:00 [DBG] 
2019-12-08 00:32:09.645 +01:00 [INF] TimeStamp: 08.12.2019 00:32:07.374
2019-12-08 00:32:09.647 +01:00 [INF] TestParam: 0
2019-12-08 00:32:09.649 +01:00 [INF] TestId: 0
2019-12-08 00:32:09.650 +01:00 [INF] UserId: 44
2019-12-08 00:32:09.652 +01:00 [INF] EndpointId: 7
2019-12-08 00:32:09.656 +01:00 [INF] API_Time: 1025
2019-12-08 00:32:09.658 +01:00 [INF] DB_Time: 1021
2019-12-08 00:32:09.660 +01:00 [INF] Apl_Time: 213
2019-12-08 00:32:09.661 +01:00 [DBG] 
2019-12-08 00:32:09.663 +01:00 [INF] TimeStamp: 08.12.2019 00:32:07.407
2019-12-08 00:32:09.666 +01:00 [INF] TestParam: 0
2019-12-08 00:32:09.668 +01:00 [INF] TestId: 0
2019-12-08 00:32:09.670 +01:00 [INF] UserId: 44
2019-12-08 00:32:09.671 +01:00 [INF] EndpointId: 7
2019-12-08 00:32:09.673 +01:00 [INF] API_Time: 1864
2019-12-08 00:32:09.674 +01:00 [INF] DB_Time: 1860
2019-12-08 00:32:09.679 +01:00 [INF] Apl_Time: 247
2019-12-08 00:32:09.680 +01:00 [DBG] 
2019-12-08 00:32:09.682 +01:00 [INF] TimeStamp: 08.12.2019 00:32:07.407
2019-12-08 00:32:09.683 +01:00 [INF] TestParam: 0
2019-12-08 00:32:09.685 +01:00 [INF] TestId: 0
2019-12-08 00:32:09.688 +01:00 [INF] UserId: 44
2019-12-08 00:32:09.690 +01:00 [INF] EndpointId: 7
2019-12-08 00:32:09.692 +01:00 [INF] API_Time: 2034
2019-12-08 00:32:09.693 +01:00 [INF] DB_Time: 2030
2019-12-08 00:32:09.695 +01:00 [INF] Apl_Time: 245
2019-12-08 00:32:09.698 +01:00 [DBG] 
2019-12-08 00:32:09.700 +01:00 [INF] TimeStamp: 08.12.2019 00:32:07.412
2019-12-08 00:32:09.702 +01:00 [INF] TestParam: 0
2019-12-08 00:32:09.703 +01:00 [INF] TestId: 0
2019-12-08 00:32:09.705 +01:00 [INF] UserId: 44
2019-12-08 00:32:09.708 +01:00 [INF] EndpointId: 7
2019-12-08 00:32:09.711 +01:00 [INF] API_Time: 990
2019-12-08 00:32:09.713 +01:00 [INF] DB_Time: 978
2019-12-08 00:32:09.714 +01:00 [INF] Apl_Time: 249
2019-12-08 00:32:09.717 +01:00 [DBG] 
2019-12-08 00:32:09.720 +01:00 [INF] TimeStamp: 08.12.2019 00:32:07.417
2019-12-08 00:32:09.722 +01:00 [INF] TestParam: 0
2019-12-08 00:32:09.723 +01:00 [INF] TestId: 0
2019-12-08 00:32:09.725 +01:00 [INF] UserId: 44
2019-12-08 00:32:09.728 +01:00 [INF] EndpointId: 7
2019-12-08 00:32:09.732 +01:00 [INF] API_Time: 873
2019-12-08 00:32:09.733 +01:00 [INF] DB_Time: 869
2019-12-08 00:32:09.735 +01:00 [INF] Apl_Time: 255
2019-12-08 00:32:09.738 +01:00 [DBG] 
2019-12-08 00:32:09.740 +01:00 [INF] TimeStamp: 08.12.2019 00:32:07.426
2019-12-08 00:32:09.742 +01:00 [INF] TestParam: 0
2019-12-08 00:32:09.744 +01:00 [INF] TestId: 0
2019-12-08 00:32:09.746 +01:00 [INF] UserId: 44
2019-12-08 00:32:09.749 +01:00 [INF] EndpointId: 7
2019-12-08 00:32:09.751 +01:00 [INF] API_Time: 1199
2019-12-08 00:32:09.753 +01:00 [INF] DB_Time: 1193
2019-12-08 00:32:09.754 +01:00 [INF] Apl_Time: 263
2019-12-08 00:32:09.756 +01:00 [DBG] 
2019-12-08 00:32:09.759 +01:00 [INF] TimeStamp: 08.12.2019 00:32:07.432
2019-12-08 00:32:09.761 +01:00 [INF] TestParam: 0
2019-12-08 00:32:09.763 +01:00 [INF] TestId: 0
2019-12-08 00:32:09.764 +01:00 [INF] UserId: 44
2019-12-08 00:32:09.769 +01:00 [INF] EndpointId: 7
2019-12-08 00:32:09.771 +01:00 [INF] API_Time: 934
2019-12-08 00:32:09.773 +01:00 [INF] DB_Time: 929
2019-12-08 00:32:09.774 +01:00 [INF] Apl_Time: 269
2019-12-08 00:32:09.778 +01:00 [DBG] 
2019-12-08 00:32:09.780 +01:00 [INF] TimeStamp: 08.12.2019 00:32:07.434
2019-12-08 00:32:09.782 +01:00 [INF] TestParam: 0
2019-12-08 00:32:09.783 +01:00 [INF] TestId: 0
2019-12-08 00:32:09.785 +01:00 [INF] UserId: 44
2019-12-08 00:32:09.786 +01:00 [INF] EndpointId: 7
2019-12-08 00:32:09.789 +01:00 [INF] API_Time: 877
2019-12-08 00:32:09.791 +01:00 [INF] DB_Time: 872
2019-12-08 00:32:09.793 +01:00 [INF] Apl_Time: 271
2019-12-08 00:32:09.795 +01:00 [DBG] 
2019-12-08 00:32:09.796 +01:00 [INF] TimeStamp: 08.12.2019 00:32:07.438
2019-12-08 00:32:09.800 +01:00 [INF] TestParam: 0
2019-12-08 00:32:09.802 +01:00 [INF] TestId: 0
2019-12-08 00:32:09.804 +01:00 [INF] UserId: 44
2019-12-08 00:32:09.805 +01:00 [INF] EndpointId: 7
2019-12-08 00:32:09.807 +01:00 [INF] API_Time: 850
2019-12-08 00:32:09.811 +01:00 [INF] DB_Time: 845
2019-12-08 00:32:09.813 +01:00 [INF] Apl_Time: 273
2019-12-08 00:32:09.815 +01:00 [DBG] 
2019-12-08 00:32:09.816 +01:00 [INF] TimeStamp: 08.12.2019 00:32:07.452
2019-12-08 00:32:09.818 +01:00 [INF] TestParam: 0
2019-12-08 00:32:09.821 +01:00 [INF] TestId: 0
2019-12-08 00:32:09.823 +01:00 [INF] UserId: 44
2019-12-08 00:32:09.825 +01:00 [INF] EndpointId: 7
2019-12-08 00:32:09.827 +01:00 [INF] API_Time: 880
2019-12-08 00:32:09.828 +01:00 [INF] DB_Time: 875
2019-12-08 00:32:09.832 +01:00 [INF] Apl_Time: 287
2019-12-08 00:32:09.834 +01:00 [DBG] 
2019-12-08 00:32:09.835 +01:00 [INF] TimeStamp: 08.12.2019 00:32:07.454
2019-12-08 00:32:09.836 +01:00 [INF] TestParam: 0
2019-12-08 00:32:09.838 +01:00 [INF] TestId: 0
2019-12-08 00:32:09.842 +01:00 [INF] UserId: 44
2019-12-08 00:32:09.844 +01:00 [INF] EndpointId: 7
2019-12-08 00:32:09.846 +01:00 [INF] API_Time: 880
2019-12-08 00:32:09.847 +01:00 [INF] DB_Time: 876
2019-12-08 00:32:09.848 +01:00 [INF] Apl_Time: 289
2019-12-08 00:32:09.852 +01:00 [DBG] 
2019-12-08 00:32:09.854 +01:00 [INF] TimeStamp: 08.12.2019 00:32:07.466
2019-12-08 00:32:09.855 +01:00 [INF] TestParam: 0
2019-12-08 00:32:09.856 +01:00 [INF] TestId: 0
2019-12-08 00:32:09.858 +01:00 [INF] UserId: 44
2019-12-08 00:32:09.862 +01:00 [INF] EndpointId: 7
2019-12-08 00:32:09.864 +01:00 [INF] API_Time: 919
2019-12-08 00:32:09.866 +01:00 [INF] DB_Time: 908
2019-12-08 00:32:09.867 +01:00 [INF] Apl_Time: 300
2019-12-08 00:32:09.869 +01:00 [DBG] 
2019-12-08 00:32:09.873 +01:00 [INF] TimeStamp: 08.12.2019 00:32:07.475
2019-12-08 00:32:09.875 +01:00 [INF] TestParam: 0
2019-12-08 00:32:09.877 +01:00 [INF] TestId: 0
2019-12-08 00:32:09.878 +01:00 [INF] UserId: 44
2019-12-08 00:32:09.880 +01:00 [INF] EndpointId: 7
2019-12-08 00:32:09.883 +01:00 [INF] API_Time: 884
2019-12-08 00:32:09.885 +01:00 [INF] DB_Time: 879
2019-12-08 00:32:09.887 +01:00 [INF] Apl_Time: 309
2019-12-08 00:32:09.888 +01:00 [DBG] 
2019-12-08 00:32:09.889 +01:00 [INF] TimeStamp: 08.12.2019 00:32:07.479
2019-12-08 00:32:09.893 +01:00 [INF] TestParam: 0
2019-12-08 00:32:09.895 +01:00 [INF] TestId: 0
2019-12-08 00:32:09.897 +01:00 [INF] UserId: 44
2019-12-08 00:32:09.898 +01:00 [INF] EndpointId: 7
2019-12-08 00:32:09.900 +01:00 [INF] API_Time: 1142
2019-12-08 00:32:09.903 +01:00 [INF] DB_Time: 1137
2019-12-08 00:32:09.905 +01:00 [INF] Apl_Time: 313
2019-12-08 00:32:09.907 +01:00 [DBG] 
2019-12-08 00:32:09.908 +01:00 [INF] TimeStamp: 08.12.2019 00:32:07.486
2019-12-08 00:32:09.910 +01:00 [INF] TestParam: 0
2019-12-08 00:32:09.914 +01:00 [INF] TestId: 0
2019-12-08 00:32:09.916 +01:00 [INF] UserId: 44
2019-12-08 00:32:09.917 +01:00 [INF] EndpointId: 7
2019-12-08 00:32:09.919 +01:00 [INF] API_Time: 1212
2019-12-08 00:32:09.920 +01:00 [INF] DB_Time: 1207
2019-12-08 00:32:09.924 +01:00 [INF] Apl_Time: 320
2019-12-08 00:32:09.928 +01:00 [DBG] 
2019-12-08 00:32:09.929 +01:00 [INF] TimeStamp: 08.12.2019 00:32:07.494
2019-12-08 00:32:09.931 +01:00 [INF] TestParam: 0
2019-12-08 00:32:09.932 +01:00 [INF] TestId: 0
2019-12-08 00:32:09.936 +01:00 [INF] UserId: 44
2019-12-08 00:32:09.939 +01:00 [INF] EndpointId: 7
2019-12-08 00:32:09.940 +01:00 [INF] API_Time: 913
2019-12-08 00:32:09.942 +01:00 [INF] DB_Time: 908
2019-12-08 00:32:09.944 +01:00 [INF] Apl_Time: 327
2019-12-08 00:32:09.947 +01:00 [DBG] 
2019-12-08 00:32:09.949 +01:00 [INF] TimeStamp: 08.12.2019 00:32:07.506
2019-12-08 00:32:09.951 +01:00 [INF] TestParam: 0
2019-12-08 00:32:09.952 +01:00 [INF] TestId: 0
2019-12-08 00:32:09.956 +01:00 [INF] UserId: 44
2019-12-08 00:32:09.959 +01:00 [INF] EndpointId: 7
2019-12-08 00:32:09.961 +01:00 [INF] API_Time: 1019
2019-12-08 00:32:09.962 +01:00 [INF] DB_Time: 1013
2019-12-08 00:32:09.964 +01:00 [INF] Apl_Time: 338
2019-12-08 00:32:09.967 +01:00 [DBG] 
2019-12-08 00:32:09.969 +01:00 [INF] TimeStamp: 08.12.2019 00:32:07.513
2019-12-08 00:32:09.971 +01:00 [INF] TestParam: 0
2019-12-08 00:32:09.972 +01:00 [INF] TestId: 0
2019-12-08 00:32:09.974 +01:00 [INF] UserId: 44
2019-12-08 00:32:09.975 +01:00 [INF] EndpointId: 7
2019-12-08 00:32:09.979 +01:00 [INF] API_Time: 1014
2019-12-08 00:32:09.981 +01:00 [INF] DB_Time: 1009
2019-12-08 00:32:09.983 +01:00 [INF] Apl_Time: 344
2019-12-08 00:32:09.985 +01:00 [DBG] 
2019-12-08 00:32:09.988 +01:00 [INF] TimeStamp: 08.12.2019 00:32:07.514
2019-12-08 00:32:09.990 +01:00 [INF] TestParam: 0
2019-12-08 00:32:09.992 +01:00 [INF] TestId: 0
2019-12-08 00:32:09.994 +01:00 [INF] UserId: 44
2019-12-08 00:32:09.995 +01:00 [INF] EndpointId: 7
2019-12-08 00:32:10.000 +01:00 [INF] API_Time: 903
2019-12-08 00:32:10.002 +01:00 [INF] DB_Time: 898
2019-12-08 00:32:10.003 +01:00 [INF] Apl_Time: 343
2019-12-08 00:32:10.005 +01:00 [DBG] 
2019-12-08 00:32:10.006 +01:00 [INF] TimeStamp: 08.12.2019 00:32:07.525
2019-12-08 00:32:10.010 +01:00 [INF] TestParam: 0
2019-12-08 00:32:10.012 +01:00 [INF] TestId: 0
2019-12-08 00:32:10.013 +01:00 [INF] UserId: 44
2019-12-08 00:32:10.015 +01:00 [INF] EndpointId: 7
2019-12-08 00:32:10.017 +01:00 [INF] API_Time: 1092
2019-12-08 00:32:10.020 +01:00 [INF] DB_Time: 1087
2019-12-08 00:32:10.023 +01:00 [INF] Apl_Time: 354
2019-12-08 00:32:10.024 +01:00 [DBG] 
2019-12-08 00:32:10.026 +01:00 [INF] TimeStamp: 08.12.2019 00:32:07.532
2019-12-08 00:32:10.028 +01:00 [INF] TestParam: 0
2019-12-08 00:32:10.031 +01:00 [INF] TestId: 0
2019-12-08 00:32:10.033 +01:00 [INF] UserId: 44
2019-12-08 00:32:10.035 +01:00 [INF] EndpointId: 7
2019-12-08 00:32:10.036 +01:00 [INF] API_Time: 836
2019-12-08 00:32:10.038 +01:00 [INF] DB_Time: 831
2019-12-08 00:32:10.039 +01:00 [INF] Apl_Time: 362
2019-12-08 00:32:10.043 +01:00 [DBG] 
2019-12-08 00:32:10.045 +01:00 [INF] TimeStamp: 08.12.2019 00:32:07.534
2019-12-08 00:32:10.046 +01:00 [INF] TestParam: 0
2019-12-08 00:32:10.048 +01:00 [INF] TestId: 0
2019-12-08 00:32:10.050 +01:00 [INF] UserId: 44
2019-12-08 00:32:10.053 +01:00 [INF] EndpointId: 7
2019-12-08 00:32:10.055 +01:00 [INF] API_Time: 857
2019-12-08 00:32:10.057 +01:00 [INF] DB_Time: 853
2019-12-08 00:32:10.058 +01:00 [INF] Apl_Time: 362
2019-12-08 00:32:10.062 +01:00 [DBG] 
2019-12-08 00:32:10.065 +01:00 [INF] TimeStamp: 08.12.2019 00:32:07.556
2019-12-08 00:32:10.066 +01:00 [INF] TestParam: 0
2019-12-08 00:32:10.068 +01:00 [INF] TestId: 0
2019-12-08 00:32:10.069 +01:00 [INF] UserId: 44
2019-12-08 00:32:10.072 +01:00 [INF] EndpointId: 7
2019-12-08 00:32:10.074 +01:00 [INF] API_Time: 940
2019-12-08 00:32:10.076 +01:00 [INF] DB_Time: 936
2019-12-08 00:32:10.078 +01:00 [INF] Apl_Time: 384
2019-12-08 00:32:10.079 +01:00 [DBG] 
2019-12-08 00:32:10.083 +01:00 [INF] TimeStamp: 08.12.2019 00:32:07.725
2019-12-08 00:32:10.085 +01:00 [INF] TestParam: 0
2019-12-08 00:32:10.087 +01:00 [INF] TestId: 0
2019-12-08 00:32:10.088 +01:00 [INF] UserId: 44
2019-12-08 00:32:10.090 +01:00 [INF] EndpointId: 8
2019-12-08 00:32:10.096 +01:00 [INF] API_Time: 914
2019-12-08 00:32:10.099 +01:00 [INF] DB_Time: 909
2019-12-08 00:32:10.100 +01:00 [INF] Apl_Time: 396
2019-12-08 00:32:10.102 +01:00 [DBG] 
2019-12-08 00:32:10.103 +01:00 [ERR] NULL
2019-12-08 00:32:10.107 +01:00 [ERR] NULL
2019-12-08 00:32:10.111 +01:00 [ERR] NULL
2019-12-08 00:32:10.112 +01:00 [INF] TimeStamp: 08.12.2019 00:32:07.734
2019-12-08 00:32:10.114 +01:00 [INF] TestParam: 0
2019-12-08 00:32:10.115 +01:00 [INF] TestId: 0
2019-12-08 00:32:10.119 +01:00 [INF] UserId: 44
2019-12-08 00:32:10.121 +01:00 [INF] EndpointId: 8
2019-12-08 00:32:10.123 +01:00 [INF] API_Time: 1000
2019-12-08 00:32:10.124 +01:00 [INF] DB_Time: 994
2019-12-08 00:32:10.128 +01:00 [INF] Apl_Time: 405
2019-12-08 00:32:10.130 +01:00 [DBG] 
2019-12-08 00:32:10.131 +01:00 [INF] TimeStamp: 08.12.2019 00:32:07.749
2019-12-08 00:32:10.133 +01:00 [INF] TestParam: 0
2019-12-08 00:32:10.134 +01:00 [INF] TestId: 0
2019-12-08 00:32:10.138 +01:00 [INF] UserId: 44
2019-12-08 00:32:10.140 +01:00 [INF] EndpointId: 8
2019-12-08 00:32:10.141 +01:00 [INF] API_Time: 952
2019-12-08 00:32:10.144 +01:00 [INF] DB_Time: 946
2019-12-08 00:32:10.145 +01:00 [INF] Apl_Time: 405
2019-12-08 00:32:10.148 +01:00 [DBG] 
2019-12-08 00:32:10.150 +01:00 [INF] TimeStamp: 08.12.2019 00:32:07.755
2019-12-08 00:32:10.152 +01:00 [INF] TestParam: 0
2019-12-08 00:32:10.153 +01:00 [INF] TestId: 0
2019-12-08 00:32:10.157 +01:00 [INF] UserId: 44
2019-12-08 00:32:10.161 +01:00 [INF] EndpointId: 8
2019-12-08 00:32:10.163 +01:00 [INF] API_Time: 1009
2019-12-08 00:32:10.164 +01:00 [INF] DB_Time: 996
2019-12-08 00:32:10.167 +01:00 [INF] Apl_Time: 404
2019-12-08 00:32:10.169 +01:00 [DBG] 
2019-12-08 00:32:10.171 +01:00 [INF] TimeStamp: 08.12.2019 00:32:07.763
2019-12-08 00:32:10.172 +01:00 [INF] TestParam: 0
2019-12-08 00:32:10.173 +01:00 [INF] TestId: 0
2019-12-08 00:32:10.175 +01:00 [INF] UserId: 44
2019-12-08 00:32:10.179 +01:00 [INF] EndpointId: 8
2019-12-08 00:32:10.181 +01:00 [INF] API_Time: 891
2019-12-08 00:32:10.183 +01:00 [INF] DB_Time: 887
2019-12-08 00:32:10.184 +01:00 [INF] Apl_Time: 408
2019-12-08 00:32:10.186 +01:00 [DBG] 
2019-12-08 00:32:10.189 +01:00 [INF] TimeStamp: 08.12.2019 00:32:07.769
2019-12-08 00:32:10.191 +01:00 [INF] TestParam: 0
2019-12-08 00:32:10.193 +01:00 [INF] TestId: 0
2019-12-08 00:32:10.195 +01:00 [INF] UserId: 44
2019-12-08 00:32:10.196 +01:00 [INF] EndpointId: 8
2019-12-08 00:32:10.200 +01:00 [INF] API_Time: 965
2019-12-08 00:32:10.203 +01:00 [INF] DB_Time: 960
2019-12-08 00:32:10.205 +01:00 [INF] Apl_Time: 435
2019-12-08 00:32:10.206 +01:00 [DBG] 
2019-12-08 00:32:10.210 +01:00 [INF] TimeStamp: 08.12.2019 00:32:07.774
2019-12-08 00:32:10.212 +01:00 [INF] TestParam: 0
2019-12-08 00:32:10.214 +01:00 [INF] TestId: 0
2019-12-08 00:32:10.215 +01:00 [INF] UserId: 44
2019-12-08 00:32:10.216 +01:00 [INF] EndpointId: 8
2019-12-08 00:32:10.220 +01:00 [INF] API_Time: 873
2019-12-08 00:32:10.222 +01:00 [INF] DB_Time: 868
2019-12-08 00:32:10.223 +01:00 [INF] Apl_Time: 440
2019-12-08 00:32:10.225 +01:00 [DBG] 
2019-12-08 00:32:10.227 +01:00 [INF] TimeStamp: 08.12.2019 00:32:07.796
2019-12-08 00:32:10.230 +01:00 [INF] TestParam: 0
2019-12-08 00:32:10.232 +01:00 [INF] TestId: 0
2019-12-08 00:32:10.235 +01:00 [INF] UserId: 44
2019-12-08 00:32:10.237 +01:00 [INF] EndpointId: 8
2019-12-08 00:32:10.240 +01:00 [INF] API_Time: 922
2019-12-08 00:32:10.242 +01:00 [INF] DB_Time: 916
2019-12-08 00:32:10.244 +01:00 [INF] Apl_Time: 431
2019-12-08 00:32:10.246 +01:00 [DBG] 
2019-12-08 00:32:10.249 +01:00 [INF] TimeStamp: 08.12.2019 00:32:07.803
2019-12-08 00:32:10.252 +01:00 [INF] TestParam: 0
2019-12-08 00:32:10.253 +01:00 [INF] TestId: 0
2019-12-08 00:32:10.254 +01:00 [INF] UserId: 44
2019-12-08 00:32:10.256 +01:00 [INF] EndpointId: 8
2019-12-08 00:32:10.260 +01:00 [INF] API_Time: 931
2019-12-08 00:32:10.262 +01:00 [INF] DB_Time: 926
2019-12-08 00:32:10.263 +01:00 [INF] Apl_Time: 395
2019-12-08 00:32:10.265 +01:00 [DBG] 
2019-12-08 00:32:10.266 +01:00 [INF] TimeStamp: 08.12.2019 00:32:07.804
2019-12-08 00:32:10.270 +01:00 [INF] TestParam: 0
2019-12-08 00:32:10.273 +01:00 [INF] TestId: 0
2019-12-08 00:32:10.274 +01:00 [INF] UserId: 44
2019-12-08 00:32:10.276 +01:00 [INF] EndpointId: 8
2019-12-08 00:32:10.280 +01:00 [INF] API_Time: 926
2019-12-08 00:32:10.282 +01:00 [INF] DB_Time: 921
2019-12-08 00:32:10.284 +01:00 [INF] Apl_Time: 430
2019-12-08 00:32:10.285 +01:00 [DBG] 
2019-12-08 00:32:10.287 +01:00 [INF] TimeStamp: 08.12.2019 00:32:07.816
2019-12-08 00:32:10.288 +01:00 [INF] TestParam: 0
2019-12-08 00:32:10.293 +01:00 [INF] TestId: 0
2019-12-08 00:32:10.294 +01:00 [INF] UserId: 44
2019-12-08 00:32:10.295 +01:00 [INF] EndpointId: 8
2019-12-08 00:32:10.297 +01:00 [INF] API_Time: 959
2019-12-08 00:32:10.300 +01:00 [INF] DB_Time: 955
2019-12-08 00:32:10.302 +01:00 [INF] Apl_Time: 404
2019-12-08 00:32:10.304 +01:00 [DBG] 
2019-12-08 00:32:10.305 +01:00 [INF] TimeStamp: 08.12.2019 00:32:07.825
2019-12-08 00:32:10.307 +01:00 [INF] TestParam: 0
2019-12-08 00:32:10.311 +01:00 [INF] TestId: 0
2019-12-08 00:32:10.313 +01:00 [INF] UserId: 44
2019-12-08 00:32:10.315 +01:00 [INF] EndpointId: 8
2019-12-08 00:32:10.317 +01:00 [INF] API_Time: 1006
2019-12-08 00:32:10.318 +01:00 [INF] DB_Time: 1001
2019-12-08 00:32:10.322 +01:00 [INF] Apl_Time: 418
2019-12-08 00:32:10.324 +01:00 [DBG] 
2019-12-08 00:32:10.326 +01:00 [INF] TimeStamp: 08.12.2019 00:32:07.840
2019-12-08 00:32:10.327 +01:00 [INF] TestParam: 0
2019-12-08 00:32:10.329 +01:00 [INF] TestId: 0
2019-12-08 00:32:10.332 +01:00 [INF] UserId: 44
2019-12-08 00:32:10.335 +01:00 [INF] EndpointId: 8
2019-12-08 00:32:10.336 +01:00 [INF] API_Time: 952
2019-12-08 00:32:10.338 +01:00 [INF] DB_Time: 946
2019-12-08 00:32:10.339 +01:00 [INF] Apl_Time: 407
2019-12-08 00:32:10.343 +01:00 [DBG] 
2019-12-08 00:32:10.345 +01:00 [INF] TimeStamp: 08.12.2019 00:32:07.844
2019-12-08 00:32:10.347 +01:00 [INF] TestParam: 0
2019-12-08 00:32:10.348 +01:00 [INF] TestId: 0
2019-12-08 00:32:10.350 +01:00 [INF] UserId: 44
2019-12-08 00:32:10.351 +01:00 [INF] EndpointId: 8
2019-12-08 00:32:10.354 +01:00 [INF] API_Time: 885
2019-12-08 00:32:10.356 +01:00 [INF] DB_Time: 881
2019-12-08 00:32:10.358 +01:00 [INF] Apl_Time: 418
2019-12-08 00:32:10.360 +01:00 [DBG] 
2019-12-08 00:32:10.361 +01:00 [INF] TimeStamp: 08.12.2019 00:32:07.855
2019-12-08 00:32:10.364 +01:00 [INF] TestParam: 0
2019-12-08 00:32:10.367 +01:00 [INF] TestId: 0
2019-12-08 00:32:10.368 +01:00 [INF] UserId: 44
2019-12-08 00:32:10.370 +01:00 [INF] EndpointId: 8
2019-12-08 00:32:10.371 +01:00 [INF] API_Time: 927
2019-12-08 00:32:10.376 +01:00 [INF] DB_Time: 917
2019-12-08 00:32:10.378 +01:00 [INF] Apl_Time: 420
2019-12-08 00:32:10.380 +01:00 [DBG] 
2019-12-08 00:32:10.381 +01:00 [INF] TimeStamp: 08.12.2019 00:32:07.864
2019-12-08 00:32:10.383 +01:00 [INF] TestParam: 0
2019-12-08 00:32:10.386 +01:00 [INF] TestId: 0
2019-12-08 00:32:10.388 +01:00 [INF] UserId: 44
2019-12-08 00:32:10.390 +01:00 [INF] EndpointId: 8
2019-12-08 00:32:10.391 +01:00 [INF] API_Time: 975
2019-12-08 00:32:10.395 +01:00 [INF] DB_Time: 965
2019-12-08 00:32:10.397 +01:00 [INF] Apl_Time: 447
2019-12-08 00:32:10.398 +01:00 [DBG] 
2019-12-08 00:32:10.400 +01:00 [INF] TimeStamp: 08.12.2019 00:32:07.877
2019-12-08 00:32:10.401 +01:00 [INF] TestParam: 0
2019-12-08 00:32:10.403 +01:00 [INF] TestId: 0
2019-12-08 00:32:10.406 +01:00 [INF] UserId: 44
2019-12-08 00:32:10.409 +01:00 [INF] EndpointId: 8
2019-12-08 00:32:10.410 +01:00 [INF] API_Time: 996
2019-12-08 00:32:10.412 +01:00 [INF] DB_Time: 991
2019-12-08 00:32:10.413 +01:00 [INF] Apl_Time: 425
2019-12-08 00:32:10.416 +01:00 [DBG] 
2019-12-08 00:32:10.419 +01:00 [INF] TimeStamp: 08.12.2019 00:32:07.884
2019-12-08 00:32:10.422 +01:00 [INF] TestParam: 0
2019-12-08 00:32:10.423 +01:00 [INF] TestId: 0
2019-12-08 00:32:10.427 +01:00 [INF] UserId: 44
2019-12-08 00:32:10.429 +01:00 [INF] EndpointId: 8
2019-12-08 00:32:10.431 +01:00 [INF] API_Time: 886
2019-12-08 00:32:10.432 +01:00 [INF] DB_Time: 881
2019-12-08 00:32:10.435 +01:00 [INF] Apl_Time: 430
2019-12-08 00:32:10.438 +01:00 [DBG] 
2019-12-08 00:32:10.440 +01:00 [INF] TimeStamp: 08.12.2019 00:32:07.893
2019-12-08 00:32:10.441 +01:00 [INF] TestParam: 0
2019-12-08 00:32:10.443 +01:00 [INF] TestId: 0
2019-12-08 00:32:10.445 +01:00 [INF] UserId: 44
2019-12-08 00:32:10.448 +01:00 [INF] EndpointId: 8
2019-12-08 00:32:10.450 +01:00 [INF] API_Time: 994
2019-12-08 00:32:10.451 +01:00 [INF] DB_Time: 987
2019-12-08 00:32:10.453 +01:00 [INF] Apl_Time: 427
2019-12-08 00:32:10.454 +01:00 [DBG] 
2019-12-08 00:32:10.457 +01:00 [INF] TimeStamp: 08.12.2019 00:32:07.904
2019-12-08 00:32:10.460 +01:00 [INF] TestParam: 0
2019-12-08 00:32:10.462 +01:00 [INF] TestId: 0
2019-12-08 00:32:10.463 +01:00 [INF] UserId: 44
2019-12-08 00:32:10.465 +01:00 [INF] EndpointId: 8
2019-12-08 00:32:10.468 +01:00 [INF] API_Time: 877
2019-12-08 00:32:10.470 +01:00 [INF] DB_Time: 872
2019-12-08 00:32:10.472 +01:00 [INF] Apl_Time: 466
2019-12-08 00:32:10.473 +01:00 [DBG] 
2019-12-08 00:32:10.475 +01:00 [INF] TimeStamp: 08.12.2019 00:32:07.914
2019-12-08 00:32:10.478 +01:00 [INF] TestParam: 0
2019-12-08 00:32:10.480 +01:00 [INF] TestId: 0
2019-12-08 00:32:10.482 +01:00 [INF] UserId: 44
2019-12-08 00:32:10.483 +01:00 [INF] EndpointId: 8
2019-12-08 00:32:10.485 +01:00 [INF] API_Time: 958
2019-12-08 00:32:10.488 +01:00 [INF] DB_Time: 949
2019-12-08 00:32:10.490 +01:00 [INF] Apl_Time: 428
2019-12-08 00:32:10.492 +01:00 [DBG] 
2019-12-08 00:32:10.494 +01:00 [INF] TimeStamp: 08.12.2019 00:32:07.921
2019-12-08 00:32:10.495 +01:00 [INF] TestParam: 0
2019-12-08 00:32:10.498 +01:00 [INF] TestId: 0
2019-12-08 00:32:10.501 +01:00 [INF] UserId: 44
2019-12-08 00:32:10.502 +01:00 [INF] EndpointId: 8
2019-12-08 00:32:10.503 +01:00 [INF] API_Time: 932
2019-12-08 00:32:10.505 +01:00 [INF] DB_Time: 927
2019-12-08 00:32:10.509 +01:00 [INF] Apl_Time: 441
2019-12-08 00:32:10.511 +01:00 [DBG] 
2019-12-08 00:32:10.512 +01:00 [INF] TimeStamp: 08.12.2019 00:32:07.924
2019-12-08 00:32:10.514 +01:00 [INF] TestParam: 0
2019-12-08 00:32:10.515 +01:00 [INF] TestId: 0
2019-12-08 00:32:10.519 +01:00 [INF] UserId: 44
2019-12-08 00:32:10.522 +01:00 [INF] EndpointId: 8
2019-12-08 00:32:10.523 +01:00 [INF] API_Time: 952
2019-12-08 00:32:10.525 +01:00 [INF] DB_Time: 948
2019-12-08 00:32:10.527 +01:00 [INF] Apl_Time: 449
2019-12-08 00:32:10.531 +01:00 [DBG] 
2019-12-08 00:32:10.533 +01:00 [INF] TimeStamp: 08.12.2019 00:32:07.944
2019-12-08 00:32:10.534 +01:00 [INF] TestParam: 0
2019-12-08 00:32:10.536 +01:00 [INF] TestId: 0
2019-12-08 00:32:10.537 +01:00 [INF] UserId: 44
2019-12-08 00:32:10.540 +01:00 [INF] EndpointId: 8
2019-12-08 00:32:10.544 +01:00 [INF] API_Time: 1029
2019-12-08 00:32:10.546 +01:00 [INF] DB_Time: 1024
2019-12-08 00:32:10.547 +01:00 [INF] Apl_Time: 449
2019-12-08 00:32:10.550 +01:00 [DBG] 
2019-12-08 00:32:10.552 +01:00 [INF] TimeStamp: 08.12.2019 00:32:07.944
2019-12-08 00:32:10.554 +01:00 [INF] TestParam: 0
2019-12-08 00:32:10.555 +01:00 [INF] TestId: 0
2019-12-08 00:32:10.557 +01:00 [INF] UserId: 44
2019-12-08 00:32:10.561 +01:00 [INF] EndpointId: 8
2019-12-08 00:32:10.563 +01:00 [INF] API_Time: 968
2019-12-08 00:32:10.565 +01:00 [INF] DB_Time: 963
2019-12-08 00:32:10.566 +01:00 [INF] Apl_Time: 430
2019-12-08 00:32:10.568 +01:00 [DBG] 
2019-12-08 00:32:10.569 +01:00 [INF] TimeStamp: 08.12.2019 00:32:07.964
2019-12-08 00:32:10.573 +01:00 [INF] TestParam: 0
2019-12-08 00:32:10.575 +01:00 [INF] TestId: 0
2019-12-08 00:32:10.577 +01:00 [INF] UserId: 44
2019-12-08 00:32:10.578 +01:00 [INF] EndpointId: 8
2019-12-08 00:32:10.579 +01:00 [INF] API_Time: 1130
2019-12-08 00:32:10.583 +01:00 [INF] DB_Time: 1124
2019-12-08 00:32:10.585 +01:00 [INF] Apl_Time: 439
2019-12-08 00:32:10.586 +01:00 [DBG] 
2019-12-08 00:32:10.588 +01:00 [INF] TimeStamp: 08.12.2019 00:32:07.964
2019-12-08 00:32:10.589 +01:00 [INF] TestParam: 0
2019-12-08 00:32:10.593 +01:00 [INF] TestId: 0
2019-12-08 00:32:10.595 +01:00 [INF] UserId: 44
2019-12-08 00:32:10.597 +01:00 [INF] EndpointId: 8
2019-12-08 00:32:10.598 +01:00 [INF] API_Time: 998
2019-12-08 00:32:10.600 +01:00 [INF] DB_Time: 992
2019-12-08 00:32:10.603 +01:00 [INF] Apl_Time: 451
2019-12-08 00:32:10.605 +01:00 [DBG] 
2019-12-08 00:32:10.607 +01:00 [INF] TimeStamp: 08.12.2019 00:32:07.977
2019-12-08 00:32:10.609 +01:00 [INF] TestParam: 0
2019-12-08 00:32:10.610 +01:00 [INF] TestId: 0
2019-12-08 00:32:10.614 +01:00 [INF] UserId: 44
2019-12-08 00:32:10.616 +01:00 [INF] EndpointId: 8
2019-12-08 00:32:10.617 +01:00 [INF] API_Time: 1022
2019-12-08 00:32:10.619 +01:00 [INF] DB_Time: 1017
2019-12-08 00:32:10.620 +01:00 [INF] Apl_Time: 470
2019-12-08 00:32:10.624 +01:00 [DBG] 
2019-12-08 00:32:10.627 +01:00 [INF] TimeStamp: 08.12.2019 00:32:07.983
2019-12-08 00:32:10.628 +01:00 [INF] TestParam: 0
2019-12-08 00:32:10.630 +01:00 [INF] TestId: 0
2019-12-08 00:32:10.633 +01:00 [INF] UserId: 44
2019-12-08 00:32:10.635 +01:00 [INF] EndpointId: 8
2019-12-08 00:32:10.638 +01:00 [INF] API_Time: 1256
2019-12-08 00:32:10.640 +01:00 [INF] DB_Time: 1249
2019-12-08 00:32:10.643 +01:00 [INF] Apl_Time: 449
2019-12-08 00:32:10.646 +01:00 [DBG] 
2019-12-08 00:32:10.647 +01:00 [INF] TimeStamp: 08.12.2019 00:32:07.984
2019-12-08 00:32:10.648 +01:00 [INF] TestParam: 0
2019-12-08 00:32:10.650 +01:00 [INF] TestId: 0
2019-12-08 00:32:10.651 +01:00 [INF] UserId: 44
2019-12-08 00:32:10.655 +01:00 [INF] EndpointId: 8
2019-12-08 00:32:10.657 +01:00 [INF] API_Time: 1023
2019-12-08 00:32:10.659 +01:00 [INF] DB_Time: 1013
2019-12-08 00:32:10.661 +01:00 [INF] Apl_Time: 451
2019-12-08 00:32:10.662 +01:00 [DBG] 
2019-12-08 00:32:10.665 +01:00 [INF] TimeStamp: 08.12.2019 00:32:08.4
2019-12-08 00:32:10.669 +01:00 [INF] TestParam: 0
2019-12-08 00:32:10.672 +01:00 [INF] TestId: 0
2019-12-08 00:32:10.678 +01:00 [INF] UserId: 44
2019-12-08 00:32:10.680 +01:00 [INF] EndpointId: 8
2019-12-08 00:32:10.682 +01:00 [INF] API_Time: 988
2019-12-08 00:32:10.683 +01:00 [INF] DB_Time: 982
2019-12-08 00:32:10.685 +01:00 [INF] Apl_Time: 447
2019-12-08 00:32:10.689 +01:00 [DBG] 
