2019-12-31 13:55:03.953 +01:00 [INF] 8013
2019-12-31 13:55:03.961 +01:00 [INF] Lista akcji:
2019-12-31 13:55:03.963 +01:00 [INF] Logowanie z pobraniem informacji o userze
2019-12-31 13:55:03.964 +01:00 [INF] WycofanieOfertyKupna
2019-12-31 13:55:03.966 +01:00 [INF] WyswietlanieTransakcji
2019-12-31 13:55:03.967 +01:00 [INF] NowaOfertaKupna
2019-12-31 13:55:03.969 +01:00 [INF] WyswietlanieOfertSprzedazy
2019-12-31 13:55:03.970 +01:00 [INF] Wylogowanie
2019-12-31 13:55:34.230 +01:00 [INF] 31.12.2019 13:54:53.61, 1, 0, 14, 3, 481, 0, 2289
2019-12-31 13:55:34.232 +01:00 [INF] 31.12.2019 13:54:55.548, 1, 0, 14, 1, 0, 0, 2481
2019-12-31 13:55:34.233 +01:00 [INF] 31.12.2019 13:54:53.61, 1, 0, 27, 3, 438, 0, 2222
2019-12-31 13:55:34.235 +01:00 [INF] 31.12.2019 13:54:55.547, 1, 0, 27, 1, 0, 0, 2481
2019-12-31 13:55:34.238 +01:00 [INF] 31.12.2019 13:54:54.230, 1, 0, 30, 3, 721, 0, 3376
2019-12-31 13:55:34.240 +01:00 [INF] 31.12.2019 13:54:55.547, 1, 0, 30, 1, 0, 0, 1311
2019-12-31 13:55:34.242 +01:00 [INF] 31.12.2019 13:54:53.8, 1, 0, 15, 3, 385, 0, 2235
2019-12-31 13:55:34.243 +01:00 [INF] 31.12.2019 13:54:55.548, 1, 0, 15, 1, 0, 0, 2512
2019-12-31 13:55:34.244 +01:00 [INF] 31.12.2019 13:54:54.283, 1, 0, 26, 3, 772, 0, 3445
2019-12-31 13:55:34.245 +01:00 [INF] 31.12.2019 13:54:55.549, 1, 0, 26, 1, 0, 0, 1265
2019-12-31 13:55:34.247 +01:00 [INF] 31.12.2019 13:54:54.271, 1, 0, 31, 3, 690, 0, 3416
2019-12-31 13:55:34.248 +01:00 [INF] 31.12.2019 13:54:55.549, 1, 0, 31, 1, 0, 0, 1278
2019-12-31 13:55:34.249 +01:00 [INF] 31.12.2019 13:54:54.270, 1, 0, 35, 3, 715, 0, 3415
2019-12-31 13:55:34.251 +01:00 [INF] 31.12.2019 13:54:55.549, 1, 0, 35, 1, 0, 0, 1278
2019-12-31 13:55:34.253 +01:00 [INF] 31.12.2019 13:54:54.253, 1, 0, 21, 3, 700, 0, 3436
2019-12-31 13:55:34.254 +01:00 [INF] 31.12.2019 13:54:55.549, 1, 0, 21, 1, 0, 0, 1295
2019-12-31 13:55:34.255 +01:00 [INF] 31.12.2019 13:54:53.8, 1, 0, 13, 3, 449, 0, 2236
2019-12-31 13:55:34.257 +01:00 [INF] 31.12.2019 13:54:55.550, 1, 0, 13, 1, 0, 0, 2514
2019-12-31 13:55:34.258 +01:00 [INF] 31.12.2019 13:54:53.8, 1, 0, 18, 3, 396, 0, 2234
2019-12-31 13:55:34.259 +01:00 [INF] 31.12.2019 13:54:55.552, 1, 0, 18, 1, 44, 44, 2517
2019-12-31 13:55:34.261 +01:00 [INF] 31.12.2019 13:54:53.8, 1, 0, 17, 3, 426, 0, 2234
2019-12-31 13:55:34.262 +01:00 [INF] 31.12.2019 13:54:55.556, 1, 0, 22, 1, 39, 39, 2521
2019-12-31 13:55:34.263 +01:00 [INF] 31.12.2019 13:54:55.556, 1, 0, 17, 1, 40, 40, 2521
2019-12-31 13:55:34.265 +01:00 [INF] 31.12.2019 13:54:54.278, 1, 0, 29, 3, 726, 0, 3438
2019-12-31 13:55:34.267 +01:00 [INF] 31.12.2019 13:54:55.560, 1, 0, 29, 1, 4, 4, 1281
2019-12-31 13:55:34.271 +01:00 [INF] 31.12.2019 13:54:54.298, 1, 0, 32, 3, 749, 0, 3444
2019-12-31 13:55:34.273 +01:00 [INF] 31.12.2019 13:54:55.562, 1, 0, 32, 1, 3, 3, 1262
2019-12-31 13:55:34.275 +01:00 [INF] 31.12.2019 13:54:54.246, 1, 0, 36, 3, 737, 0, 3390
2019-12-31 13:55:34.276 +01:00 [INF] 31.12.2019 13:54:55.564, 1, 0, 36, 1, 9, 9, 1318
2019-12-31 13:55:34.278 +01:00 [INF] 31.12.2019 13:54:54.270, 1, 0, 23, 3, 688, 0, 3450
2019-12-31 13:55:34.281 +01:00 [INF] 31.12.2019 13:54:55.564, 1, 0, 23, 1, 10, 10, 1293
2019-12-31 13:55:34.283 +01:00 [INF] 31.12.2019 13:54:53.65, 1, 0, 28, 3, 418, 0, 2226
2019-12-31 13:55:34.285 +01:00 [INF] 31.12.2019 13:54:55.569, 1, 0, 28, 1, 4, 4, 2504
2019-12-31 13:55:34.286 +01:00 [INF] 31.12.2019 13:54:54.278, 1, 0, 33, 3, 706, 0, 3423
2019-12-31 13:55:34.287 +01:00 [INF] 31.12.2019 13:54:55.569, 1, 0, 33, 1, 6, 6, 1290
2019-12-31 13:55:34.289 +01:00 [INF] 31.12.2019 13:54:53.61, 1, 0, 19, 3, 395, 0, 2272
2019-12-31 13:55:34.291 +01:00 [INF] 31.12.2019 13:54:55.570, 1, 0, 19, 1, 10, 10, 2508
2019-12-31 13:55:34.293 +01:00 [INF] 31.12.2019 13:54:53.61, 1, 0, 25, 3, 412, 0, 2223
2019-12-31 13:55:34.294 +01:00 [INF] 31.12.2019 13:54:55.577, 1, 0, 25, 1, 0, 0, 2515
2019-12-31 13:55:34.297 +01:00 [INF] 31.12.2019 13:54:55.544, 1, 0, 38, 3, 5, 0, 4688
2019-12-31 13:55:34.298 +01:00 [INF] 31.12.2019 13:54:55.708, 1, 0, 38, 1, 3, 3, 163
2019-12-31 13:55:34.301 +01:00 [INF] 31.12.2019 13:54:55.541, 1, 0, 34, 3, 997, 0, 4686
2019-12-31 13:55:34.303 +01:00 [INF] 31.12.2019 13:54:55.710, 1, 0, 34, 1, 3, 3, 168
2019-12-31 13:55:34.304 +01:00 [INF] 31.12.2019 13:54:55.544, 1, 0, 37, 3, 992, 0, 4688
2019-12-31 13:55:34.306 +01:00 [INF] 31.12.2019 13:54:55.711, 1, 0, 37, 1, 3, 3, 167
2019-12-31 13:55:34.307 +01:00 [INF] 31.12.2019 13:54:55.550, 1, 0, 41, 3, 33, 0, 4693
2019-12-31 13:55:34.308 +01:00 [INF] 31.12.2019 13:54:55.711, 1, 0, 41, 1, 1, 1, 161
2019-12-31 13:55:34.311 +01:00 [INF] 31.12.2019 13:54:55.557, 1, 0, 40, 3, 45, 0, 4701
2019-12-31 13:55:34.312 +01:00 [INF] 31.12.2019 13:54:55.724, 1, 0, 40, 1, 0, 0, 164
2019-12-31 13:55:34.314 +01:00 [INF] 31.12.2019 13:54:55.584, 1, 0, 39, 3, 58, 0, 4728
2019-12-31 13:55:34.315 +01:00 [INF] 31.12.2019 13:54:55.739, 1, 0, 39, 1, 1, 1, 155
2019-12-31 13:55:34.316 +01:00 [INF] 31.12.2019 13:54:55.581, 1, 0, 24, 3, 61, 0, 4743
2019-12-31 13:55:34.318 +01:00 [INF] 31.12.2019 13:54:55.742, 1, 0, 24, 1, 4, 4, 161
2019-12-31 13:55:34.319 +01:00 [INF] 31.12.2019 13:54:55.580, 1, 0, 12, 3, 52, 0, 5387
2019-12-31 13:55:34.322 +01:00 [INF] 31.12.2019 13:54:55.742, 1, 0, 12, 1, 1, 1, 161
2019-12-31 13:55:34.323 +01:00 [INF] 31.12.2019 13:54:55.576, 1, 0, 16, 3, 48, 0, 4804
2019-12-31 13:55:34.325 +01:00 [INF] 31.12.2019 13:54:55.742, 1, 0, 16, 1, 2, 2, 165
2019-12-31 13:55:34.327 +01:00 [INF] 31.12.2019 13:54:55.675, 1, 0, 20, 3, 32, 0, 4859
2019-12-31 13:55:34.328 +01:00 [INF] 31.12.2019 13:54:55.828, 1, 0, 20, 1, 0, 0, 152
2019-12-31 13:55:34.329 +01:00 [INF] 31.12.2019 13:54:56.282, 1, 0, 14, 11, 150, 149, 331
2019-12-31 13:55:34.332 +01:00 [INF] 31.12.2019 13:54:56.282, 1, 0, 19, 11, 149, 148, 320
2019-12-31 13:55:34.334 +01:00 [INF] 31.12.2019 13:54:56.293, 1, 0, 16, 11, 147, 147, 337
2019-12-31 13:55:34.335 +01:00 [INF] 31.12.2019 13:54:56.293, 1, 0, 17, 11, 148, 148, 335
2019-12-31 13:55:34.336 +01:00 [INF] 31.12.2019 13:54:56.293, 1, 0, 20, 11, 135, 135, 330
2019-12-31 13:55:34.338 +01:00 [INF] 31.12.2019 13:54:56.302, 1, 0, 12, 11, 202, 201, 358
2019-12-31 13:55:34.342 +01:00 [INF] 31.12.2019 13:54:56.330, 1, 0, 13, 11, 216, 215, 381
2019-12-31 13:55:34.344 +01:00 [INF] 31.12.2019 13:54:56.362, 1, 0, 35, 11, 84, 84, 371
2019-12-31 13:55:34.346 +01:00 [INF] 31.12.2019 13:54:56.364, 1, 0, 28, 11, 101, 100, 385
2019-12-31 13:55:34.348 +01:00 [INF] 31.12.2019 13:54:56.370, 1, 0, 31, 11, 105, 104, 386
2019-12-31 13:55:34.349 +01:00 [INF] 31.12.2019 13:54:56.382, 1, 0, 36, 11, 100, 100, 389
2019-12-31 13:55:34.354 +01:00 [INF] 31.12.2019 13:54:56.401, 1, 0, 24, 11, 133, 133, 430
2019-12-31 13:55:34.356 +01:00 [INF] 31.12.2019 13:54:56.401, 1, 0, 22, 11, 131, 131, 434
2019-12-31 13:55:34.358 +01:00 [INF] 31.12.2019 13:54:56.404, 1, 0, 33, 11, 118, 117, 416
2019-12-31 13:55:34.360 +01:00 [INF] 31.12.2019 13:54:56.404, 1, 0, 26, 11, 135, 134, 429
2019-12-31 13:55:34.363 +01:00 [INF] 31.12.2019 13:54:56.415, 1, 0, 39, 11, 110, 109, 416
2019-12-31 13:55:34.365 +01:00 [INF] 31.12.2019 13:54:56.449, 1, 0, 23, 11, 126, 125, 480
2019-12-31 13:55:34.367 +01:00 [INF] 31.12.2019 13:54:56.471, 1, 0, 37, 11, 99, 99, 476
2019-12-31 13:55:34.368 +01:00 [INF] 31.12.2019 13:54:56.475, 1, 0, 30, 11, 208, 207, 492
2019-12-31 13:55:34.372 +01:00 [INF] 31.12.2019 13:54:56.482, 1, 0, 41, 11, 157, 156, 480
2019-12-31 13:55:34.374 +01:00 [INF] 31.12.2019 13:54:56.500, 1, 0, 40, 11, 115, 115, 499
2019-12-31 13:55:34.376 +01:00 [INF] 31.12.2019 13:54:56.507, 1, 0, 20, 13, 23, 22, 213
2019-12-31 13:55:34.377 +01:00 [INF] 31.12.2019 13:54:56.507, 1, 0, 15, 13, 8, 7, 214
2019-12-31 13:55:34.379 +01:00 [INF] 31.12.2019 13:54:56.507, 1, 0, 17, 13, 1, 1, 213
2019-12-31 13:55:34.383 +01:00 [INF] 31.12.2019 13:54:56.534, 1, 0, 16, 13, 26, 26, 241
2019-12-31 13:55:34.385 +01:00 [INF] 31.12.2019 13:54:56.540, 1, 0, 12, 13, 30, 29, 237
2019-12-31 13:55:34.388 +01:00 [INF] 31.12.2019 13:54:56.540, 1, 0, 31, 13, 1, 0, 169
2019-12-31 13:55:34.390 +01:00 [INF] 31.12.2019 13:54:56.547, 1, 0, 28, 13, 1, 1, 182
2019-12-31 13:55:34.393 +01:00 [INF] 31.12.2019 13:54:56.547, 1, 0, 18, 13, 44, 44, 262
2019-12-31 13:55:34.396 +01:00 [INF] 31.12.2019 13:54:56.550, 1, 0, 21, 13, 52, 52, 265
2019-12-31 13:55:34.397 +01:00 [INF] 31.12.2019 13:54:56.551, 1, 0, 19, 13, 14, 13, 266
2019-12-31 13:55:34.398 +01:00 [INF] 31.12.2019 13:54:56.552, 1, 0, 13, 13, 10, 9, 222
2019-12-31 13:55:34.400 +01:00 [INF] 31.12.2019 13:54:56.562, 1, 0, 14, 13, 4, 3, 277
2019-12-31 13:55:34.401 +01:00 [INF] 31.12.2019 13:54:56.562, 1, 0, 27, 11, 124, 123, 585
2019-12-31 13:55:34.404 +01:00 [INF] 31.12.2019 13:54:56.563, 1, 0, 35, 13, 10, 10, 200
2019-12-31 13:55:34.406 +01:00 [INF] 31.12.2019 13:54:56.576, 1, 0, 36, 13, 2, 1, 193
2019-12-31 13:55:34.407 +01:00 [INF] 31.12.2019 13:54:56.579, 1, 0, 34, 11, 95, 95, 590
2019-12-31 13:55:34.409 +01:00 [INF] 31.12.2019 13:54:56.581, 1, 0, 38, 11, 134, 133, 584
2019-12-31 13:55:34.410 +01:00 [INF] 31.12.2019 13:54:56.582, 1, 0, 24, 13, 10, 10, 180
2019-12-31 13:55:34.413 +01:00 [INF] 31.12.2019 13:54:56.582, 1, 0, 32, 11, 166, 165, 596
2019-12-31 13:55:34.414 +01:00 [INF] 31.12.2019 13:54:56.585, 1, 0, 39, 13, 1, 0, 170
2019-12-31 13:55:34.416 +01:00 [INF] 31.12.2019 13:54:56.588, 1, 0, 25, 11, 98, 97, 615
2019-12-31 13:55:34.417 +01:00 [INF] 31.12.2019 13:54:56.589, 1, 0, 29, 11, 169, 169, 608
2019-12-31 13:55:34.420 +01:00 [INF] 31.12.2019 13:54:56.593, 1, 0, 33, 13, 7, 7, 188
2019-12-31 13:55:34.421 +01:00 [INF] 31.12.2019 13:54:56.593, 1, 0, 22, 13, 10, 9, 191
2019-12-31 13:55:34.424 +01:00 [INF] 31.12.2019 13:54:56.593, 1, 0, 26, 13, 7, 6, 188
2019-12-31 13:55:34.426 +01:00 [INF] 31.12.2019 13:54:56.616, 1, 0, 23, 13, 1, 1, 165
2019-12-31 13:55:34.427 +01:00 [INF] 31.12.2019 13:54:56.636, 1, 0, 30, 13, 5, 4, 161
2019-12-31 13:55:34.428 +01:00 [INF] 31.12.2019 13:54:56.643, 1, 0, 41, 13, 3, 3, 160
2019-12-31 13:55:34.429 +01:00 [INF] 31.12.2019 13:54:56.643, 1, 0, 37, 13, 8, 8, 172
2019-12-31 13:55:34.431 +01:00 [INF] 31.12.2019 13:54:56.699, 1, 0, 40, 13, 8, 7, 198
2019-12-31 13:55:34.434 +01:00 [INF] 31.12.2019 13:54:56.727, 1, 0, 17, 11, 28, 27, 220
2019-12-31 13:55:34.435 +01:00 [INF] 31.12.2019 13:54:56.727, 1, 0, 20, 11, 27, 26, 220
2019-12-31 13:55:34.437 +01:00 [INF] 31.12.2019 13:54:56.827, 1, 0, 28, 11, 87, 87, 279
2019-12-31 13:55:34.439 +01:00 [INF] 31.12.2019 13:54:56.847, 1, 0, 31, 11, 102, 102, 307
2019-12-31 13:55:34.440 +01:00 [INF] 31.12.2019 13:54:56.854, 1, 0, 18, 11, 114, 114, 306
2019-12-31 13:55:34.444 +01:00 [INF] 31.12.2019 13:54:56.860, 1, 0, 16, 11, 133, 132, 325
2019-12-31 13:55:34.448 +01:00 [INF] 31.12.2019 13:54:56.866, 1, 0, 14, 11, 123, 122, 304
2019-12-31 13:55:34.451 +01:00 [INF] 31.12.2019 13:54:56.866, 1, 0, 27, 13, 41, 41, 304
2019-12-31 13:55:34.457 +01:00 [INF] 31.12.2019 13:54:56.867, 1, 0, 15, 11, 140, 140, 359
2019-12-31 13:55:34.459 +01:00 [INF] 31.12.2019 13:54:56.877, 1, 0, 21, 11, 113, 112, 327
2019-12-31 13:55:34.467 +01:00 [INF] 31.12.2019 13:54:56.887, 1, 0, 38, 13, 33, 32, 305
2019-12-31 13:55:34.475 +01:00 [INF] 31.12.2019 13:54:56.889, 1, 0, 32, 13, 44, 43, 307
2019-12-31 13:55:34.477 +01:00 [INF] 31.12.2019 13:54:56.893, 1, 0, 19, 11, 133, 132, 341
2019-12-31 13:55:34.480 +01:00 [INF] 31.12.2019 13:54:56.894, 1, 0, 34, 13, 15, 14, 314
2019-12-31 13:55:34.482 +01:00 [INF] 31.12.2019 13:54:56.914, 1, 0, 13, 11, 173, 172, 362
2019-12-31 13:55:34.485 +01:00 [INF] 31.12.2019 13:54:56.930, 1, 0, 12, 11, 188, 188, 390
2019-12-31 13:55:34.489 +01:00 [INF] 31.12.2019 13:54:56.957, 1, 0, 37, 11, 87, 86, 313
2019-12-31 13:55:34.491 +01:00 [INF] 31.12.2019 13:54:56.968, 1, 0, 35, 11, 102, 101, 404
2019-12-31 13:55:34.492 +01:00 [INF] 31.12.2019 13:54:56.976, 1, 0, 39, 11, 117, 116, 390
2019-12-31 13:55:34.496 +01:00 [INF] 31.12.2019 13:54:56.982, 1, 0, 40, 11, 94, 94, 282
2019-12-31 13:55:34.498 +01:00 [INF] 31.12.2019 13:54:56.986, 1, 0, 36, 11, 127, 127, 410
2019-12-31 13:55:34.500 +01:00 [INF] 31.12.2019 13:54:56.990, 1, 0, 33, 11, 127, 126, 397
2019-12-31 13:55:34.501 +01:00 [INF] 31.12.2019 13:54:56.998, 1, 0, 29, 13, 103, 102, 409
2019-12-31 13:55:34.505 +01:00 [INF] 31.12.2019 13:54:57.13, 1, 0, 23, 11, 130, 129, 397
2019-12-31 13:55:34.507 +01:00 [INF] 31.12.2019 13:54:57.17, 1, 0, 25, 13, 33, 33, 429
2019-12-31 13:55:34.509 +01:00 [INF] 31.12.2019 13:54:57.30, 1, 0, 20, 14, 46, 45, 299
2019-12-31 13:55:34.511 +01:00 [INF] 31.12.2019 13:54:57.49, 1, 0, 30, 11, 128, 127, 412
2019-12-31 13:55:34.512 +01:00 [INF] 31.12.2019 13:54:57.56, 1, 0, 18, 14, 50, 50, 201
2019-12-31 13:55:34.516 +01:00 [INF] 31.12.2019 13:54:57.65, 1, 0, 22, 11, 92, 91, 471
2019-12-31 13:55:34.518 +01:00 [INF] 31.12.2019 13:54:57.84, 1, 0, 28, 14, 87, 87, 256
2019-12-31 13:55:34.520 +01:00 [INF] 31.12.2019 13:54:57.84, 1, 0, 31, 14, 86, 85, 236
2019-12-31 13:55:34.521 +01:00 [INF] 31.12.2019 13:54:57.88, 1, 0, 24, 11, 151, 150, 506
2019-12-31 13:55:34.523 +01:00 [INF] 31.12.2019 13:54:57.93, 1, 0, 17, 14, 81, 80, 362
2019-12-31 13:55:34.527 +01:00 [INF] 31.12.2019 13:54:57.99, 1, 0, 41, 11, 123, 122, 455
2019-12-31 13:55:34.529 +01:00 [INF] 31.12.2019 13:54:57.121, 1, 0, 16, 14, 100, 99, 261
2019-12-31 13:55:34.530 +01:00 [INF] 31.12.2019 13:54:57.124, 1, 0, 14, 14, 94, 93, 257
2019-12-31 13:55:34.532 +01:00 [INF] 31.12.2019 13:54:57.136, 1, 0, 15, 14, 83, 82, 269
2019-12-31 13:55:34.533 +01:00 [INF] 31.12.2019 13:54:57.145, 1, 0, 21, 14, 57, 56, 267
2019-12-31 13:55:34.537 +01:00 [INF] 31.12.2019 13:54:57.148, 1, 0, 13, 14, 50, 49, 234
2019-12-31 13:55:34.540 +01:00 [INF] 31.12.2019 13:54:57.153, 1, 0, 26, 11, 181, 180, 560
2019-12-31 13:55:34.541 +01:00 [INF] 31.12.2019 13:54:57.157, 1, 0, 19, 14, 68, 67, 264
2019-12-31 13:55:34.543 +01:00 [INF] 31.12.2019 13:54:57.182, 1, 0, 12, 14, 54, 54, 251
2019-12-31 13:55:34.546 +01:00 [INF] 31.12.2019 13:54:57.196, 1, 0, 40, 14, 44, 44, 214
2019-12-31 13:55:34.548 +01:00 [INF] 31.12.2019 13:54:57.213, 1, 0, 35, 14, 25, 24, 245
2019-12-31 13:55:34.550 +01:00 [INF] 31.12.2019 13:54:57.213, 1, 0, 39, 14, 59, 58, 236
2019-12-31 13:55:34.551 +01:00 [INF] 31.12.2019 13:54:57.217, 1, 0, 27, 11, 138, 138, 350
2019-12-31 13:55:34.553 +01:00 [INF] 31.12.2019 13:54:57.224, 1, 0, 33, 14, 66, 65, 233
2019-12-31 13:55:34.556 +01:00 [INF] 31.12.2019 13:54:57.237, 1, 0, 37, 14, 73, 72, 279
2019-12-31 13:55:34.559 +01:00 [INF] 31.12.2019 13:54:57.243, 1, 0, 36, 14, 97, 97, 256
2019-12-31 13:55:34.560 +01:00 [INF] 31.12.2019 13:54:57.246, 1, 0, 23, 14, 49, 48, 233
2019-12-31 13:55:34.562 +01:00 [INF] 31.12.2019 13:54:57.253, 1, 0, 32, 11, 155, 154, 363
2019-12-31 13:55:34.563 +01:00 [INF] 31.12.2019 13:54:57.293, 1, 0, 34, 11, 197, 196, 399
2019-12-31 13:55:34.566 +01:00 [INF] 31.12.2019 13:54:57.327, 1, 0, 38, 11, 218, 218, 440
2019-12-31 13:55:34.568 +01:00 [INF] 31.12.2019 13:54:57.329, 1, 0, 22, 14, 79, 79, 264
2019-12-31 13:55:34.570 +01:00 [INF] 31.12.2019 13:54:57.372, 1, 0, 30, 14, 137, 137, 323
2019-12-31 13:55:34.572 +01:00 [INF] 31.12.2019 13:54:57.381, 1, 0, 24, 14, 46, 45, 292
2019-12-31 13:55:34.574 +01:00 [INF] 31.12.2019 13:54:57.432, 1, 0, 41, 14, 51, 50, 333
2019-12-31 13:55:34.576 +01:00 [INF] 31.12.2019 13:54:57.469, 1, 0, 29, 11, 247, 247, 470
2019-12-31 13:55:34.578 +01:00 [INF] 31.12.2019 13:54:57.493, 1, 0, 25, 11, 258, 258, 475
2019-12-31 13:55:34.579 +01:00 [INF] 31.12.2019 13:54:57.531, 1, 0, 27, 14, 138, 137, 313
2019-12-31 13:55:34.580 +01:00 [INF] 31.12.2019 13:54:59.136, 1, 0, 26, 14, 94, 94, 1982
2019-12-31 13:55:34.582 +01:00 [INF] 31.12.2019 13:54:59.261, 1, 0, 29, 14, 114, 113, 1791
2019-12-31 13:55:34.583 +01:00 [INF] 31.12.2019 13:54:59.273, 1, 0, 32, 14, 14, 14, 2020
2019-12-31 13:55:34.584 +01:00 [INF] 31.12.2019 13:54:59.313, 1, 0, 38, 14, 37, 37, 1986
2019-12-31 13:55:34.588 +01:00 [INF] 31.12.2019 13:54:59.325, 1, 0, 18, 5, 765, 765, 2268
2019-12-31 13:55:34.589 +01:00 [INF] 31.12.2019 13:54:59.420, 1, 0, 31, 12, 0, 0, 0
2019-12-31 13:55:34.591 +01:00 [INF] 31.12.2019 13:54:59.421, 1, 0, 28, 5, 735, 735, 2337
2019-12-31 13:55:34.592 +01:00 [INF] 31.12.2019 13:54:59.440, 1, 0, 18, 5, 0, 0, 0
2019-12-31 13:55:34.593 +01:00 [INF] 31.12.2019 13:54:59.447, 1, 0, 17, 5, 757, 757, 2354
2019-12-31 13:55:34.594 +01:00 [INF] 31.12.2019 13:54:59.462, 1, 0, 20, 5, 812, 812, 2429
2019-12-31 13:55:34.597 +01:00 [INF] 31.12.2019 13:54:59.464, 1, 0, 16, 5, 700, 700, 2342
2019-12-31 13:55:34.599 +01:00 [INF] 31.12.2019 13:54:59.469, 1, 0, 12, 5, 600, 600, 2286
2019-12-31 13:55:34.600 +01:00 [INF] 31.12.2019 13:54:59.471, 1, 0, 19, 5, 681, 681, 2313
2019-12-31 13:55:34.601 +01:00 [INF] 31.12.2019 13:54:59.532, 1, 0, 35, 5, 601, 601, 2318
2019-12-31 13:55:34.602 +01:00 [INF] 31.12.2019 13:54:59.673, 1, 0, 40, 5, 586, 586, 2476
2019-12-31 13:55:34.604 +01:00 [INF] 31.12.2019 13:55:00.748, 1, 0, 25, 14, 4, 3, 3255
2019-12-31 13:55:34.605 +01:00 [INF] 31.12.2019 13:55:00.878, 1, 0, 34, 14, 45, 45, 3584
2019-12-31 13:55:34.608 +01:00 [INF] 31.12.2019 13:55:00.896, 1, 0, 28, 2, 87, 62, 1474
2019-12-31 13:55:34.610 +01:00 [INF] 31.12.2019 13:55:00.896, 1, 0, 19, 2, 82, 58, 1425
2019-12-31 13:55:34.612 +01:00 [INF] 31.12.2019 13:55:00.896, 1, 0, 17, 2, 91, 67, 1448
2019-12-31 13:55:34.613 +01:00 [INF] 31.12.2019 13:55:00.897, 1, 0, 16, 2, 87, 64, 1432
2019-12-31 13:55:34.615 +01:00 [INF] 31.12.2019 13:55:00.942, 1, 0, 18, 2, 45, 35, 1502
2019-12-31 13:55:34.618 +01:00 [INF] 31.12.2019 13:55:00.947, 1, 0, 20, 2, 51, 43, 1484
2019-12-31 13:55:34.621 +01:00 [INF] 31.12.2019 13:55:00.947, 1, 0, 35, 2, 53, 52, 1415
2019-12-31 13:55:34.623 +01:00 [INF] 31.12.2019 13:55:00.999, 1, 0, 31, 8, 83, 83, 1549
2019-12-31 13:55:34.625 +01:00 [INF] 31.12.2019 13:55:01.31, 1, 0, 23, 5, 691, 691, 3785
2019-12-31 13:55:34.628 +01:00 [INF] 31.12.2019 13:55:01.42, 1, 0, 33, 5, 716, 716, 3817
2019-12-31 13:55:34.630 +01:00 [INF] 31.12.2019 13:55:01.51, 1, 0, 30, 5, 654, 654, 3679
2019-12-31 13:55:34.632 +01:00 [INF] 31.12.2019 13:55:01.93, 1, 0, 41, 5, 616, 616, 3660
2019-12-31 13:55:34.634 +01:00 [INF] 31.12.2019 13:55:01.111, 1, 0, 37, 5, 743, 743, 3873
2019-12-31 13:55:34.638 +01:00 [INF] 31.12.2019 13:55:01.156, 1, 0, 15, 5, 697, 697, 4020
2019-12-31 13:55:34.640 +01:00 [INF] 31.12.2019 13:55:01.168, 1, 0, 14, 5, 708, 708, 4043
2019-12-31 13:55:34.642 +01:00 [INF] 31.12.2019 13:55:01.173, 1, 0, 27, 5, 637, 637, 3641
2019-12-31 13:55:34.644 +01:00 [INF] 31.12.2019 13:55:01.200, 1, 0, 40, 2, 373, 296, 1527
2019-12-31 13:55:34.646 +01:00 [INF] 31.12.2019 13:55:01.224, 1, 0, 12, 2, 418, 403, 1755
2019-12-31 13:55:34.650 +01:00 [INF] 31.12.2019 13:55:01.237, 1, 0, 39, 5, 672, 672, 4024
2019-12-31 13:55:34.653 +01:00 [INF] 31.12.2019 13:55:01.253, 1, 0, 28, 8, 6, 6, 356
2019-12-31 13:55:34.655 +01:00 [INF] 31.12.2019 13:55:01.265, 1, 0, 19, 8, 9, 8, 369
2019-12-31 13:55:34.656 +01:00 [INF] 31.12.2019 13:55:01.297, 1, 0, 21, 5, 678, 678, 4152
2019-12-31 13:55:34.663 +01:00 [INF] 31.12.2019 13:55:01.331, 1, 0, 35, 8, 6, 6, 383
2019-12-31 13:55:34.670 +01:00 [INF] 31.12.2019 13:55:01.352, 1, 0, 23, 2, 38, 18, 320
2019-12-31 13:55:34.673 +01:00 [INF] 31.12.2019 13:55:01.356, 1, 0, 18, 8, 11, 10, 413
2019-12-31 13:55:34.674 +01:00 [INF] 31.12.2019 13:55:01.370, 1, 0, 17, 8, 29, 28, 473
2019-12-31 13:55:34.677 +01:00 [INF] 31.12.2019 13:55:01.385, 1, 0, 30, 2, 20, 4, 333
2019-12-31 13:55:34.678 +01:00 [INF] 31.12.2019 13:55:02.645, 1, 0, 37, 2, 76, 55, 1534
2019-12-31 13:55:34.681 +01:00 [INF] 31.12.2019 13:55:02.650, 1, 0, 31, 4, 0, 0, 1646
2019-12-31 13:55:34.685 +01:00 [INF] 31.12.2019 13:55:02.677, 1, 0, 19, 4, 0, 0, 1412
2019-12-31 13:55:34.687 +01:00 [INF] 31.12.2019 13:55:02.690, 1, 0, 18, 4, 0, 0, 1333
2019-12-31 13:55:34.690 +01:00 [INF] 31.12.2019 13:55:02.690, 1, 0, 17, 4, 0, 0, 1320
2019-12-31 13:55:34.692 +01:00 [INF] 31.12.2019 13:55:02.695, 1, 0, 15, 2, 49, 3, 1538
2019-12-31 13:55:34.694 +01:00 [INF] 31.12.2019 13:55:02.718, 1, 0, 21, 2, 31, 7, 1420
2019-12-31 13:55:34.696 +01:00 [INF] 31.12.2019 13:55:02.725, 1, 0, 30, 8, 10, 10, 1340
2019-12-31 13:55:34.698 +01:00 [INF] 31.12.2019 13:55:02.730, 1, 0, 41, 2, 57, 15, 1637
2019-12-31 13:55:34.702 +01:00 [INF] 31.12.2019 13:55:02.748, 1, 0, 14, 2, 95, 7, 1580
2019-12-31 13:55:34.705 +01:00 [INF] 31.12.2019 13:55:02.750, 1, 0, 35, 4, 0, 0, 1419
2019-12-31 13:55:34.706 +01:00 [INF] 31.12.2019 13:55:02.751, 1, 0, 28, 4, 0, 0, 1498
2019-12-31 13:55:34.708 +01:00 [INF] 31.12.2019 13:55:02.797, 1, 0, 20, 8, 26, 26, 1850
2019-12-31 13:55:34.711 +01:00 [INF] 31.12.2019 13:55:02.798, 1, 0, 27, 2, 86, 4, 1625
2019-12-31 13:55:34.713 +01:00 [INF] 31.12.2019 13:55:02.809, 1, 0, 23, 8, 100, 100, 1457
2019-12-31 13:55:34.715 +01:00 [INF] 31.12.2019 13:55:02.819, 1, 0, 16, 8, 11, 10, 1921
2019-12-31 13:55:34.716 +01:00 [INF] 31.12.2019 13:55:02.829, 1, 0, 33, 2, 122, 3, 1787
2019-12-31 13:55:34.718 +01:00 [INF] 31.12.2019 13:55:02.849, 1, 0, 39, 2, 46, 9, 1611
2019-12-31 13:55:34.721 +01:00 [INF] 31.12.2019 13:55:02.852, 1, 0, 40, 8, 109, 108, 1651
2019-12-31 13:55:34.723 +01:00 [INF] 31.12.2019 13:55:02.891, 1, 0, 30, 4, 0, 0, 165
2019-12-31 13:55:34.724 +01:00 [INF] 31.12.2019 13:55:02.932, 1, 0, 36, 5, 805, 805, 5688
2019-12-31 13:55:34.726 +01:00 [INF] 31.12.2019 13:55:02.944, 1, 0, 24, 5, 853, 853, 5562
2019-12-31 13:55:34.727 +01:00 [INF] 31.12.2019 13:55:02.954, 1, 0, 41, 8, 48, 48, 224
2019-12-31 13:55:34.729 +01:00 [INF] 31.12.2019 13:55:02.956, 1, 0, 20, 4, 0, 0, 159
2019-12-31 13:55:34.732 +01:00 [INF] 31.12.2019 13:55:02.958, 1, 0, 37, 8, 59, 58, 312
2019-12-31 13:55:34.733 +01:00 [INF] 31.12.2019 13:55:02.961, 1, 0, 21, 8, 52, 51, 242
2019-12-31 13:55:34.735 +01:00 [INF] 31.12.2019 13:55:02.968, 1, 0, 23, 4, 0, 0, 158
2019-12-31 13:55:34.737 +01:00 [INF] 31.12.2019 13:55:02.968, 1, 0, 22, 5, 868, 868, 5638
2019-12-31 13:55:34.738 +01:00 [INF] 31.12.2019 13:55:02.971, 1, 0, 29, 5, 846, 846, 3709
2019-12-31 13:55:34.742 +01:00 [INF] 31.12.2019 13:55:02.976, 1, 0, 27, 8, 14, 13, 175
2019-12-31 13:55:34.744 +01:00 [INF] 31.12.2019 13:55:02.977, 1, 0, 16, 4, 0, 0, 158
2019-12-31 13:55:34.745 +01:00 [INF] 31.12.2019 13:55:03.6, 1, 0, 40, 4, 0, 0, 153
2019-12-31 13:55:34.746 +01:00 [INF] 31.12.2019 13:55:03.14, 1, 0, 33, 8, 30, 29, 185
2019-12-31 13:55:34.747 +01:00 [INF] 31.12.2019 13:55:03.22, 1, 0, 39, 8, 10, 10, 172
2019-12-31 13:55:34.749 +01:00 [INF] 31.12.2019 13:55:03.27, 1, 0, 15, 8, 68, 67, 331
2019-12-31 13:55:34.751 +01:00 [INF] 31.12.2019 13:55:03.42, 1, 0, 14, 8, 36, 35, 293
2019-12-31 13:55:34.753 +01:00 [INF] 31.12.2019 13:55:03.58, 1, 0, 12, 8, 98, 98, 1834
2019-12-31 13:55:34.754 +01:00 [INF] 31.12.2019 13:55:03.69, 1, 0, 25, 5, 772, 772, 2320
2019-12-31 13:55:34.755 +01:00 [INF] 31.12.2019 13:55:03.113, 1, 0, 24, 2, 9, 7, 168
2019-12-31 13:55:34.757 +01:00 [INF] 31.12.2019 13:55:03.128, 1, 0, 21, 4, 0, 0, 166
2019-12-31 13:55:34.758 +01:00 [INF] 31.12.2019 13:55:03.128, 1, 0, 41, 4, 0, 0, 173
2019-12-31 13:55:34.761 +01:00 [INF] 31.12.2019 13:55:03.128, 1, 0, 37, 4, 0, 0, 170
2019-12-31 13:55:34.762 +01:00 [INF] 31.12.2019 13:55:03.131, 1, 0, 36, 2, 18, 7, 198
2019-12-31 13:55:34.763 +01:00 [INF] 31.12.2019 13:55:03.136, 1, 0, 27, 4, 0, 0, 159
2019-12-31 13:55:34.765 +01:00 [INF] 31.12.2019 13:55:03.139, 1, 0, 32, 5, 948, 948, 3865
2019-12-31 13:55:34.767 +01:00 [INF] 31.12.2019 13:55:03.141, 1, 0, 29, 2, 11, 5, 170
2019-12-31 13:55:34.768 +01:00 [INF] 31.12.2019 13:55:03.151, 1, 0, 22, 2, 17, 8, 182
2019-12-31 13:55:34.770 +01:00 [INF] 31.12.2019 13:55:03.168, 1, 0, 33, 4, 0, 0, 153
2019-12-31 13:55:34.772 +01:00 [INF] 31.12.2019 13:55:03.173, 1, 0, 39, 4, 0, 0, 151
2019-12-31 13:55:34.773 +01:00 [INF] 31.12.2019 13:55:03.189, 1, 0, 15, 4, 0, 0, 162
2019-12-31 13:55:34.774 +01:00 [INF] 31.12.2019 13:55:03.203, 1, 0, 34, 5, 839, 839, 2325
2019-12-31 13:55:34.776 +01:00 [INF] 31.12.2019 13:55:03.203, 1, 0, 13, 5, 57, 57, 6054
2019-12-31 13:55:34.778 +01:00 [INF] 31.12.2019 13:55:03.213, 1, 0, 12, 4, 0, 0, 154
2019-12-31 13:55:34.779 +01:00 [INF] 31.12.2019 13:55:03.213, 1, 0, 14, 4, 0, 0, 171
2019-12-31 13:55:34.781 +01:00 [INF] 31.12.2019 13:55:03.230, 1, 0, 25, 2, 6, 3, 160
2019-12-31 13:55:34.783 +01:00 [INF] 31.12.2019 13:55:03.278, 1, 0, 24, 8, 10, 10, 165
2019-12-31 13:55:34.784 +01:00 [INF] 31.12.2019 13:55:03.326, 1, 0, 32, 2, 28, 20, 187
2019-12-31 13:55:34.785 +01:00 [INF] 31.12.2019 13:55:03.328, 1, 0, 29, 8, 22, 21, 186
2019-12-31 13:55:34.787 +01:00 [INF] 31.12.2019 13:55:03.329, 1, 0, 22, 8, 12, 11, 177
2019-12-31 13:55:34.788 +01:00 [INF] 31.12.2019 13:55:03.334, 1, 0, 36, 8, 31, 31, 203
2019-12-31 13:55:34.789 +01:00 [INF] 31.12.2019 13:55:03.366, 1, 0, 13, 2, 9, 6, 162
2019-12-31 13:55:34.792 +01:00 [INF] 31.12.2019 13:55:03.372, 1, 0, 34, 2, 15, 6, 168
2019-12-31 13:55:34.793 +01:00 [INF] 31.12.2019 13:55:03.376, 1, 0, 38, 5, 874, 874, 4062
2019-12-31 13:55:34.795 +01:00 [INF] 31.12.2019 13:55:03.408, 1, 0, 26, 5, 934, 934, 4272
2019-12-31 13:55:34.796 +01:00 [INF] 31.12.2019 13:55:03.419, 1, 0, 25, 8, 8, 7, 188
2019-12-31 13:55:34.798 +01:00 [INF] 31.12.2019 13:55:03.431, 1, 0, 24, 4, 0, 0, 152
2019-12-31 13:55:34.799 +01:00 [INF] 31.12.2019 13:55:03.480, 1, 0, 29, 4, 0, 0, 151
2019-12-31 13:55:34.801 +01:00 [INF] 31.12.2019 13:55:03.493, 1, 0, 36, 4, 0, 0, 158
2019-12-31 13:55:34.803 +01:00 [INF] 31.12.2019 13:55:03.493, 1, 0, 22, 4, 0, 0, 164
2019-12-31 13:55:34.804 +01:00 [INF] 31.12.2019 13:55:03.538, 1, 0, 38, 2, 9, 3, 162
2019-12-31 13:55:34.806 +01:00 [INF] 31.12.2019 13:55:03.539, 1, 0, 34, 8, 12, 10, 166
2019-12-31 13:55:34.807 +01:00 [INF] 31.12.2019 13:55:03.562, 1, 0, 26, 2, 4, 3, 154
2019-12-31 13:55:34.812 +01:00 [INF] 31.12.2019 13:55:03.569, 1, 0, 25, 4, 0, 0, 150
2019-12-31 13:55:34.814 +01:00 [INF] 31.12.2019 13:55:03.574, 1, 0, 32, 8, 5, 4, 247
2019-12-31 13:55:34.816 +01:00 [INF] 31.12.2019 13:55:03.695, 1, 0, 13, 8, 23, 22, 329
2019-12-31 13:55:34.817 +01:00 [INF] 31.12.2019 13:55:03.700, 1, 0, 34, 4, 0, 0, 161
2019-12-31 13:55:34.818 +01:00 [INF] 31.12.2019 13:55:03.723, 1, 0, 26, 8, 6, 6, 161
2019-12-31 13:55:34.821 +01:00 [INF] 31.12.2019 13:55:03.726, 1, 0, 32, 4, 0, 0, 151
2019-12-31 13:55:34.822 +01:00 [INF] 31.12.2019 13:55:03.798, 1, 0, 38, 8, 7, 7, 259
2019-12-31 13:55:34.824 +01:00 [INF] 31.12.2019 13:55:03.845, 1, 0, 13, 4, 0, 0, 150
2019-12-31 13:55:34.825 +01:00 [INF] 31.12.2019 13:55:03.889, 1, 0, 26, 4, 0, 0, 165
2019-12-31 13:55:34.826 +01:00 [INF] 31.12.2019 13:55:03.952, 1, 0, 38, 4, 0, 0, 154
