2019-12-31 13:50:26.745 +01:00 [INF] 5931
2019-12-31 13:50:29.843 +01:00 [INF] 2981
2019-12-31 13:50:29.845 +01:00 [INF] Lista akcji:
2019-12-31 13:50:29.847 +01:00 [INF] Logowanie z pobraniem informacji o userze
2019-12-31 13:50:29.848 +01:00 [INF] WyswietlanieOfertKupna
2019-12-31 13:50:29.849 +01:00 [INF] DodanieFirmy
2019-12-31 13:50:29.851 +01:00 [INF] WyswietlanieOfertSprzedazy
2019-12-31 13:50:29.853 +01:00 [INF] NowaOfertaSprzedazy
2019-12-31 13:50:29.854 +01:00 [INF] Wylogowanie
2019-12-31 13:50:49.057 +01:00 [INF] 31.12.2019 13:50:23.586, 1, 0, 13, 3, 258, 0, 2058
2019-12-31 13:50:49.059 +01:00 [INF] 31.12.2019 13:50:26.396, 1, 0, 13, 1, 0, 0, 2790
2019-12-31 13:50:49.061 +01:00 [INF] 31.12.2019 13:50:23.821, 1, 0, 27, 3, 542, 0, 2249
2019-12-31 13:50:49.062 +01:00 [INF] 31.12.2019 13:50:26.396, 1, 0, 27, 1, 0, 0, 2575
2019-12-31 13:50:49.063 +01:00 [INF] 31.12.2019 13:50:23.837, 1, 0, 28, 3, 515, 0, 2253
2019-12-31 13:50:49.065 +01:00 [INF] 31.12.2019 13:50:26.396, 1, 0, 28, 1, 0, 0, 2558
2019-12-31 13:50:49.066 +01:00 [INF] 31.12.2019 13:50:23.810, 1, 0, 30, 3, 457, 0, 2226
2019-12-31 13:50:49.068 +01:00 [INF] 31.12.2019 13:50:26.396, 1, 0, 30, 1, 0, 0, 2585
2019-12-31 13:50:49.069 +01:00 [INF] 31.12.2019 13:50:23.829, 1, 0, 22, 3, 482, 0, 2260
2019-12-31 13:50:49.070 +01:00 [INF] 31.12.2019 13:50:26.397, 1, 0, 22, 1, 0, 0, 2568
2019-12-31 13:50:49.071 +01:00 [INF] 31.12.2019 13:50:25.1, 1, 0, 33, 3, 708, 0, 3416
2019-12-31 13:50:49.072 +01:00 [INF] 31.12.2019 13:50:26.397, 1, 0, 33, 1, 0, 0, 1395
2019-12-31 13:50:49.073 +01:00 [INF] 31.12.2019 13:50:25.265, 1, 0, 31, 3, 899, 0, 3681
2019-12-31 13:50:49.074 +01:00 [INF] 31.12.2019 13:50:26.398, 1, 0, 31, 1, 0, 0, 1132
2019-12-31 13:50:49.075 +01:00 [INF] 31.12.2019 13:50:25.242, 1, 0, 36, 3, 936, 0, 3656
2019-12-31 13:50:49.078 +01:00 [INF] 31.12.2019 13:50:26.398, 1, 0, 36, 1, 0, 0, 1155
2019-12-31 13:50:49.079 +01:00 [INF] 31.12.2019 13:50:23.832, 1, 0, 24, 3, 485, 0, 2263
2019-12-31 13:50:49.080 +01:00 [INF] 31.12.2019 13:50:26.398, 1, 0, 24, 1, 0, 0, 2565
2019-12-31 13:50:49.081 +01:00 [INF] 31.12.2019 13:50:23.816, 1, 0, 20, 3, 467, 0, 2263
2019-12-31 13:50:49.082 +01:00 [INF] 31.12.2019 13:50:26.398, 1, 0, 20, 1, 0, 0, 2581
2019-12-31 13:50:49.083 +01:00 [INF] 31.12.2019 13:50:25.285, 1, 0, 17, 3, 955, 0, 3745
2019-12-31 13:50:49.084 +01:00 [INF] 31.12.2019 13:50:26.398, 1, 0, 17, 1, 0, 0, 1112
2019-12-31 13:50:49.088 +01:00 [INF] 31.12.2019 13:50:25.235, 1, 0, 34, 3, 901, 0, 3649
2019-12-31 13:50:49.090 +01:00 [INF] 31.12.2019 13:50:26.398, 1, 0, 34, 1, 0, 0, 1163
2019-12-31 13:50:49.091 +01:00 [INF] 31.12.2019 13:50:25.261, 1, 0, 40, 3, 915, 0, 3674
2019-12-31 13:50:49.093 +01:00 [INF] 31.12.2019 13:50:26.398, 1, 0, 40, 1, 12, 12, 1136
2019-12-31 13:50:49.094 +01:00 [INF] 31.12.2019 13:50:25.223, 1, 0, 35, 3, 922, 0, 3637
2019-12-31 13:50:49.096 +01:00 [INF] 31.12.2019 13:50:26.398, 1, 0, 35, 1, 0, 0, 1174
2019-12-31 13:50:49.099 +01:00 [INF] 31.12.2019 13:50:25.253, 1, 0, 37, 3, 888, 0, 3667
2019-12-31 13:50:49.100 +01:00 [INF] 31.12.2019 13:50:26.398, 1, 0, 37, 1, 0, 0, 1144
2019-12-31 13:50:49.102 +01:00 [INF] 31.12.2019 13:50:23.802, 1, 0, 16, 3, 516, 0, 2273
2019-12-31 13:50:49.103 +01:00 [INF] 31.12.2019 13:50:26.398, 1, 0, 16, 1, 0, 0, 2596
2019-12-31 13:50:49.105 +01:00 [INF] 31.12.2019 13:50:23.910, 1, 0, 21, 3, 500, 0, 2342
2019-12-31 13:50:49.108 +01:00 [INF] 31.12.2019 13:50:26.398, 1, 0, 21, 1, 0, 0, 2487
2019-12-31 13:50:49.110 +01:00 [INF] 31.12.2019 13:50:25.277, 1, 0, 41, 3, 941, 0, 3689
2019-12-31 13:50:49.112 +01:00 [INF] 31.12.2019 13:50:26.400, 1, 0, 41, 1, 0, 0, 1122
2019-12-31 13:50:49.113 +01:00 [INF] 31.12.2019 13:50:25.238, 1, 0, 38, 3, 930, 0, 3652
2019-12-31 13:50:49.115 +01:00 [INF] 31.12.2019 13:50:26.403, 1, 0, 38, 1, 0, 0, 1164
2019-12-31 13:50:49.118 +01:00 [INF] 31.12.2019 13:50:23.826, 1, 0, 29, 3, 490, 0, 2242
2019-12-31 13:50:49.120 +01:00 [INF] 31.12.2019 13:50:26.403, 1, 0, 29, 1, 0, 0, 2576
2019-12-31 13:50:49.121 +01:00 [INF] 31.12.2019 13:50:26.403, 1, 0, 14, 3, 40, 0, 4875
2019-12-31 13:50:49.123 +01:00 [INF] 31.12.2019 13:50:26.555, 1, 0, 14, 1, 0, 0, 152
2019-12-31 13:50:49.124 +01:00 [INF] 31.12.2019 13:50:26.569, 1, 0, 39, 3, 245, 0, 4982
2019-12-31 13:50:49.125 +01:00 [INF] 31.12.2019 13:50:26.728, 1, 0, 39, 1, 3, 3, 158
2019-12-31 13:50:49.128 +01:00 [INF] 31.12.2019 13:50:26.570, 1, 0, 12, 3, 246, 0, 5659
2019-12-31 13:50:49.130 +01:00 [INF] 31.12.2019 13:50:26.728, 1, 0, 12, 1, 5, 5, 157
2019-12-31 13:50:49.131 +01:00 [INF] 31.12.2019 13:50:26.573, 1, 0, 23, 3, 239, 0, 5004
2019-12-31 13:50:49.132 +01:00 [INF] 31.12.2019 13:50:26.728, 1, 0, 23, 1, 2, 2, 155
2019-12-31 13:50:49.134 +01:00 [INF] 31.12.2019 13:50:26.577, 1, 0, 32, 3, 279, 0, 4992
2019-12-31 13:50:49.135 +01:00 [INF] 31.12.2019 13:50:26.731, 1, 0, 32, 1, 0, 0, 153
2019-12-31 13:50:49.138 +01:00 [INF] 31.12.2019 13:50:26.580, 1, 0, 18, 3, 219, 0, 5040
2019-12-31 13:50:49.139 +01:00 [INF] 31.12.2019 13:50:26.733, 1, 0, 18, 1, 0, 0, 152
2019-12-31 13:50:49.141 +01:00 [INF] 31.12.2019 13:50:26.566, 1, 0, 15, 3, 248, 0, 5037
2019-12-31 13:50:49.142 +01:00 [INF] 31.12.2019 13:50:26.733, 1, 0, 15, 1, 0, 0, 166
2019-12-31 13:50:49.143 +01:00 [INF] 31.12.2019 13:50:26.584, 1, 0, 19, 3, 248, 0, 5042
2019-12-31 13:50:49.145 +01:00 [INF] 31.12.2019 13:50:26.735, 1, 0, 19, 1, 0, 0, 151
2019-12-31 13:50:49.146 +01:00 [INF] 31.12.2019 13:50:26.585, 1, 0, 25, 3, 244, 0, 5016
2019-12-31 13:50:49.149 +01:00 [INF] 31.12.2019 13:50:26.743, 1, 0, 25, 1, 0, 0, 157
2019-12-31 13:50:49.150 +01:00 [INF] 31.12.2019 13:50:26.584, 1, 0, 26, 3, 250, 0, 5014
2019-12-31 13:50:49.152 +01:00 [INF] 31.12.2019 13:50:26.743, 1, 0, 26, 1, 1, 1, 159
2019-12-31 13:50:49.153 +01:00 [INF] 31.12.2019 13:50:27.193, 1, 0, 14, 11, 130, 129, 316
2019-12-31 13:50:49.155 +01:00 [INF] 31.12.2019 13:50:27.193, 1, 0, 18, 11, 109, 109, 308
2019-12-31 13:50:49.159 +01:00 [INF] 31.12.2019 13:50:27.211, 1, 0, 16, 11, 119, 118, 330
2019-12-31 13:50:49.161 +01:00 [INF] 31.12.2019 13:50:27.211, 1, 0, 19, 11, 130, 129, 323
2019-12-31 13:50:49.163 +01:00 [INF] 31.12.2019 13:50:27.216, 1, 0, 15, 11, 124, 123, 336
2019-12-31 13:50:49.164 +01:00 [INF] 31.12.2019 13:50:27.216, 1, 0, 13, 11, 183, 182, 341
2019-12-31 13:50:49.168 +01:00 [INF] 31.12.2019 13:50:27.227, 1, 0, 12, 11, 195, 194, 358
2019-12-31 13:50:49.170 +01:00 [INF] 31.12.2019 13:50:27.242, 1, 0, 21, 11, 107, 107, 351
2019-12-31 13:50:49.171 +01:00 [INF] 31.12.2019 13:50:27.261, 1, 0, 28, 11, 102, 101, 352
2019-12-31 13:50:49.172 +01:00 [INF] 31.12.2019 13:50:27.271, 1, 0, 32, 11, 105, 105, 354
2019-12-31 13:50:49.174 +01:00 [INF] 31.12.2019 13:50:27.271, 1, 0, 34, 11, 84, 83, 349
2019-12-31 13:50:49.175 +01:00 [INF] 31.12.2019 13:50:27.294, 1, 0, 26, 11, 130, 129, 389
2019-12-31 13:50:49.178 +01:00 [INF] 31.12.2019 13:50:27.318, 1, 0, 23, 11, 138, 133, 421
2019-12-31 13:50:49.180 +01:00 [INF] 31.12.2019 13:50:27.319, 1, 0, 22, 11, 128, 127, 426
2019-12-31 13:50:49.182 +01:00 [INF] 31.12.2019 13:50:27.320, 1, 0, 36, 11, 111, 111, 394
2019-12-31 13:50:49.184 +01:00 [INF] 31.12.2019 13:50:27.324, 1, 0, 40, 11, 90, 90, 389
2019-12-31 13:50:49.186 +01:00 [INF] 31.12.2019 13:50:27.353, 1, 0, 30, 11, 97, 96, 440
2019-12-31 13:50:49.188 +01:00 [INF] 31.12.2019 13:50:27.354, 1, 0, 38, 11, 116, 116, 424
2019-12-31 13:50:49.190 +01:00 [INF] 31.12.2019 13:50:27.361, 1, 0, 35, 11, 88, 88, 437
2019-12-31 13:50:49.191 +01:00 [INF] 31.12.2019 13:50:27.387, 1, 0, 39, 11, 92, 92, 455
2019-12-31 13:50:49.192 +01:00 [INF] 31.12.2019 13:50:27.390, 1, 0, 25, 11, 115, 114, 487
2019-12-31 13:50:49.193 +01:00 [INF] 31.12.2019 13:50:27.410, 1, 0, 41, 11, 112, 111, 474
2019-12-31 13:50:49.195 +01:00 [INF] 31.12.2019 13:50:27.421, 1, 0, 31, 11, 109, 108, 505
2019-12-31 13:50:49.197 +01:00 [INF] 31.12.2019 13:50:27.453, 1, 0, 37, 11, 117, 117, 525
2019-12-31 13:50:49.199 +01:00 [INF] 31.12.2019 13:50:27.456, 1, 0, 17, 6, 58, 39, 259
2019-12-31 13:50:49.201 +01:00 [INF] 31.12.2019 13:50:27.456, 1, 0, 16, 6, 36, 15, 245
2019-12-31 13:50:49.203 +01:00 [INF] 31.12.2019 13:50:27.456, 1, 0, 14, 6, 47, 39, 260
2019-12-31 13:50:49.204 +01:00 [INF] 31.12.2019 13:50:27.470, 1, 0, 18, 6, 46, 39, 273
2019-12-31 13:50:49.206 +01:00 [INF] 31.12.2019 13:50:27.481, 1, 0, 20, 6, 50, 36, 274
2019-12-31 13:50:49.209 +01:00 [INF] 31.12.2019 13:50:27.482, 1, 0, 12, 6, 28, 13, 254
2019-12-31 13:50:49.210 +01:00 [INF] 31.12.2019 13:50:27.483, 1, 0, 28, 6, 18, 13, 222
2019-12-31 13:50:49.212 +01:00 [INF] 31.12.2019 13:50:27.484, 1, 0, 15, 6, 23, 11, 268
2019-12-31 13:50:49.213 +01:00 [INF] 31.12.2019 13:50:27.485, 1, 0, 34, 6, 18, 8, 213
2019-12-31 13:50:49.214 +01:00 [INF] 31.12.2019 13:50:27.490, 1, 0, 32, 6, 13, 7, 218
2019-12-31 13:50:49.217 +01:00 [INF] 31.12.2019 13:50:27.496, 1, 0, 26, 6, 2, 1, 201
2019-12-31 13:50:49.219 +01:00 [INF] 31.12.2019 13:50:27.502, 1, 0, 27, 11, 163, 163, 595
2019-12-31 13:50:49.220 +01:00 [INF] 31.12.2019 13:50:27.512, 1, 0, 33, 11, 118, 118, 593
2019-12-31 13:50:49.221 +01:00 [INF] 31.12.2019 13:50:27.527, 1, 0, 36, 6, 10, 7, 207
2019-12-31 13:50:49.223 +01:00 [INF] 31.12.2019 13:50:27.527, 1, 0, 30, 6, 13, 9, 173
2019-12-31 13:50:49.224 +01:00 [INF] 31.12.2019 13:50:27.532, 1, 0, 40, 6, 10, 8, 207
2019-12-31 13:50:49.225 +01:00 [INF] 31.12.2019 13:50:27.532, 1, 0, 38, 6, 11, 7, 178
2019-12-31 13:50:49.228 +01:00 [INF] 31.12.2019 13:50:27.533, 1, 0, 23, 6, 11, 6, 215
2019-12-31 13:50:49.230 +01:00 [INF] 31.12.2019 13:50:27.533, 1, 0, 22, 6, 17, 6, 213
2019-12-31 13:50:49.231 +01:00 [INF] 31.12.2019 13:50:27.534, 1, 0, 35, 6, 2, 0, 172
2019-12-31 13:50:49.233 +01:00 [INF] 31.12.2019 13:50:27.551, 1, 0, 24, 11, 109, 109, 651
2019-12-31 13:50:49.235 +01:00 [INF] 31.12.2019 13:50:27.556, 1, 0, 39, 6, 2, 1, 168
2019-12-31 13:50:49.238 +01:00 [INF] 31.12.2019 13:50:27.564, 1, 0, 25, 6, 2, 1, 173
2019-12-31 13:50:49.241 +01:00 [INF] 31.12.2019 13:50:27.584, 1, 0, 31, 6, 2, 1, 162
2019-12-31 13:50:49.243 +01:00 [INF] 31.12.2019 13:50:27.589, 1, 0, 41, 6, 6, 5, 178
2019-12-31 13:50:49.245 +01:00 [INF] 31.12.2019 13:50:27.625, 1, 0, 37, 6, 2, 1, 171
2019-12-31 13:50:49.249 +01:00 [INF] 31.12.2019 13:50:27.735, 1, 0, 29, 11, 96, 96, 824
2019-12-31 13:50:49.251 +01:00 [INF] 31.12.2019 13:50:27.785, 1, 0, 27, 6, 2, 1, 282
2019-12-31 13:50:49.252 +01:00 [INF] 31.12.2019 13:50:27.811, 1, 0, 28, 7, 134, 133, 323
2019-12-31 13:50:49.255 +01:00 [INF] 31.12.2019 13:50:27.821, 1, 0, 34, 7, 134, 133, 332
2019-12-31 13:50:49.259 +01:00 [INF] 31.12.2019 13:50:27.821, 1, 0, 32, 7, 153, 152, 330
2019-12-31 13:50:49.272 +01:00 [INF] 31.12.2019 13:50:27.832, 1, 0, 15, 7, 168, 168, 345
2019-12-31 13:50:49.275 +01:00 [INF] 31.12.2019 13:50:27.841, 1, 0, 21, 7, 178, 177, 353
2019-12-31 13:50:49.281 +01:00 [INF] 31.12.2019 13:50:27.848, 1, 0, 24, 6, 2, 1, 297
2019-12-31 13:50:49.286 +01:00 [INF] 31.12.2019 13:50:27.872, 1, 0, 26, 7, 206, 205, 376
2019-12-31 13:50:49.290 +01:00 [INF] 31.12.2019 13:50:27.883, 1, 0, 17, 7, 180, 179, 395
2019-12-31 13:50:49.292 +01:00 [INF] 31.12.2019 13:50:27.891, 1, 0, 16, 7, 186, 185, 403
2019-12-31 13:50:49.294 +01:00 [INF] 31.12.2019 13:50:27.897, 1, 0, 19, 7, 198, 198, 409
2019-12-31 13:50:49.297 +01:00 [INF] 31.12.2019 13:50:27.913, 1, 0, 36, 7, 112, 112, 385
2019-12-31 13:50:49.300 +01:00 [INF] 31.12.2019 13:50:27.934, 1, 0, 38, 7, 123, 122, 402
2019-12-31 13:50:49.302 +01:00 [INF] 31.12.2019 13:50:27.952, 1, 0, 35, 7, 118, 117, 417
2019-12-31 13:50:49.304 +01:00 [INF] 31.12.2019 13:50:27.964, 1, 0, 33, 6, 96, 1, 451
2019-12-31 13:50:49.305 +01:00 [INF] 31.12.2019 13:50:27.969, 1, 0, 29, 6, 2, 0, 233
2019-12-31 13:50:49.309 +01:00 [INF] 31.12.2019 13:50:28.3, 1, 0, 18, 7, 160, 159, 515
2019-12-31 13:50:49.311 +01:00 [INF] 31.12.2019 13:50:28.18, 1, 0, 41, 7, 102, 102, 428
2019-12-31 13:50:49.312 +01:00 [INF] 31.12.2019 13:50:28.52, 1, 0, 25, 7, 137, 137, 488
2019-12-31 13:50:49.314 +01:00 [INF] 31.12.2019 13:50:28.52, 1, 0, 12, 7, 322, 321, 565
2019-12-31 13:50:49.316 +01:00 [INF] 31.12.2019 13:50:28.58, 1, 0, 20, 7, 212, 211, 540
2019-12-31 13:50:49.319 +01:00 [INF] 31.12.2019 13:50:28.59, 1, 0, 14, 7, 172, 172, 572
2019-12-31 13:50:49.321 +01:00 [INF] 31.12.2019 13:50:28.61, 1, 0, 13, 7, 242, 241, 573
2019-12-31 13:50:49.322 +01:00 [INF] 31.12.2019 13:50:28.120, 1, 0, 39, 7, 133, 132, 564
2019-12-31 13:50:49.324 +01:00 [INF] 31.12.2019 13:50:28.132, 1, 0, 37, 7, 145, 145, 507
2019-12-31 13:50:49.326 +01:00 [INF] 31.12.2019 13:50:28.151, 1, 0, 34, 8, 5, 4, 330
2019-12-31 13:50:49.329 +01:00 [INF] 31.12.2019 13:50:28.151, 1, 0, 32, 8, 26, 26, 330
2019-12-31 13:50:49.331 +01:00 [INF] 31.12.2019 13:50:28.151, 1, 0, 36, 8, 5, 5, 238
2019-12-31 13:50:49.333 +01:00 [INF] 31.12.2019 13:50:28.152, 1, 0, 22, 7, 168, 167, 618
2019-12-31 13:50:49.334 +01:00 [INF] 31.12.2019 13:50:28.161, 1, 0, 26, 8, 6, 6, 288
2019-12-31 13:50:49.336 +01:00 [INF] 31.12.2019 13:50:28.163, 1, 0, 19, 8, 7, 7, 265
2019-12-31 13:50:49.340 +01:00 [INF] 31.12.2019 13:50:28.169, 1, 0, 40, 7, 150, 150, 636
2019-12-31 13:50:49.341 +01:00 [INF] 31.12.2019 13:50:28.172, 1, 0, 28, 8, 114, 113, 357
2019-12-31 13:50:49.343 +01:00 [INF] 31.12.2019 13:50:28.182, 1, 0, 31, 7, 206, 205, 597
2019-12-31 13:50:49.344 +01:00 [INF] 31.12.2019 13:50:28.186, 1, 0, 21, 8, 124, 124, 344
2019-12-31 13:50:49.346 +01:00 [INF] 31.12.2019 13:50:28.186, 1, 0, 30, 7, 193, 192, 658
2019-12-31 13:50:49.350 +01:00 [INF] 31.12.2019 13:50:28.196, 1, 0, 35, 8, 44, 43, 244
2019-12-31 13:50:49.351 +01:00 [INF] 31.12.2019 13:50:28.200, 1, 0, 23, 7, 260, 260, 666
2019-12-31 13:50:49.353 +01:00 [INF] 31.12.2019 13:50:28.206, 1, 0, 27, 7, 203, 203, 420
2019-12-31 13:50:49.355 +01:00 [INF] 31.12.2019 13:50:28.206, 1, 0, 24, 7, 170, 169, 358
2019-12-31 13:50:49.356 +01:00 [INF] 31.12.2019 13:50:28.213, 1, 0, 16, 8, 6, 5, 321
2019-12-31 13:50:49.360 +01:00 [INF] 31.12.2019 13:50:28.217, 1, 0, 33, 7, 66, 65, 253
2019-12-31 13:50:49.361 +01:00 [INF] 31.12.2019 13:50:28.217, 1, 0, 15, 8, 55, 55, 384
2019-12-31 13:50:49.363 +01:00 [INF] 31.12.2019 13:50:28.217, 1, 0, 29, 7, 47, 47, 248
2019-12-31 13:50:49.366 +01:00 [INF] 31.12.2019 13:50:28.282, 1, 0, 38, 8, 64, 63, 347
2019-12-31 13:50:49.367 +01:00 [INF] 31.12.2019 13:50:28.285, 1, 0, 17, 8, 67, 66, 402
2019-12-31 13:50:49.370 +01:00 [INF] 31.12.2019 13:50:28.314, 1, 0, 37, 8, 6, 6, 182
2019-12-31 13:50:49.372 +01:00 [INF] 31.12.2019 13:50:28.314, 1, 0, 39, 8, 16, 15, 193
2019-12-31 13:50:49.374 +01:00 [INF] 31.12.2019 13:50:28.319, 1, 0, 20, 8, 33, 33, 261
2019-12-31 13:50:49.375 +01:00 [INF] 31.12.2019 13:50:28.322, 1, 0, 18, 8, 34, 34, 318
2019-12-31 13:50:49.377 +01:00 [INF] 31.12.2019 13:50:28.325, 1, 0, 41, 8, 27, 27, 307
2019-12-31 13:50:49.381 +01:00 [INF] 31.12.2019 13:50:28.334, 1, 0, 12, 8, 32, 32, 281
2019-12-31 13:50:49.383 +01:00 [INF] 31.12.2019 13:50:28.339, 1, 0, 25, 8, 31, 30, 287
2019-12-31 13:50:49.384 +01:00 [INF] 31.12.2019 13:50:28.365, 1, 0, 40, 8, 36, 35, 195
2019-12-31 13:50:49.386 +01:00 [INF] 31.12.2019 13:50:28.397, 1, 0, 22, 8, 63, 62, 245
2019-12-31 13:50:49.388 +01:00 [INF] 31.12.2019 13:50:28.418, 1, 0, 24, 8, 9, 9, 211
2019-12-31 13:50:49.391 +01:00 [INF] 31.12.2019 13:50:28.428, 1, 0, 33, 8, 5, 4, 211
2019-12-31 13:50:49.393 +01:00 [INF] 31.12.2019 13:50:28.447, 1, 0, 31, 8, 33, 32, 265
2019-12-31 13:50:49.395 +01:00 [INF] 31.12.2019 13:50:28.454, 1, 0, 30, 8, 6, 5, 266
2019-12-31 13:50:49.397 +01:00 [INF] 31.12.2019 13:50:28.466, 1, 0, 27, 8, 5, 4, 259
2019-12-31 13:50:49.400 +01:00 [INF] 31.12.2019 13:50:28.474, 1, 0, 14, 8, 60, 59, 414
2019-12-31 13:50:49.402 +01:00 [INF] 31.12.2019 13:50:28.476, 1, 0, 29, 8, 6, 5, 259
2019-12-31 13:50:49.405 +01:00 [INF] 31.12.2019 13:50:28.484, 1, 0, 23, 8, 40, 40, 284
2019-12-31 13:50:49.406 +01:00 [INF] 31.12.2019 13:50:28.515, 1, 0, 13, 8, 115, 115, 454
2019-12-31 13:50:49.410 +01:00 [INF] 31.12.2019 13:50:28.531, 1, 0, 34, 7, 180, 180, 377
2019-12-31 13:50:49.413 +01:00 [INF] 31.12.2019 13:50:28.543, 1, 0, 36, 7, 189, 188, 388
2019-12-31 13:50:49.415 +01:00 [INF] 31.12.2019 13:50:28.554, 1, 0, 32, 7, 216, 216, 400
2019-12-31 13:50:49.417 +01:00 [INF] 31.12.2019 13:50:28.558, 1, 0, 28, 7, 190, 189, 385
2019-12-31 13:50:49.419 +01:00 [INF] 31.12.2019 13:50:28.565, 1, 0, 35, 7, 149, 148, 368
2019-12-31 13:50:49.421 +01:00 [INF] 31.12.2019 13:50:28.582, 1, 0, 19, 7, 256, 256, 419
2019-12-31 13:50:49.423 +01:00 [INF] 31.12.2019 13:50:28.591, 1, 0, 26, 7, 266, 266, 430
2019-12-31 13:50:49.425 +01:00 [INF] 31.12.2019 13:50:28.642, 1, 0, 15, 7, 146, 146, 424
2019-12-31 13:50:49.427 +01:00 [INF] 31.12.2019 13:50:28.644, 1, 0, 21, 7, 178, 178, 458
2019-12-31 13:50:49.430 +01:00 [INF] 31.12.2019 13:50:28.653, 1, 0, 16, 7, 222, 221, 439
2019-12-31 13:50:49.433 +01:00 [INF] 31.12.2019 13:50:28.655, 1, 0, 39, 7, 113, 113, 340
2019-12-31 13:50:49.434 +01:00 [INF] 31.12.2019 13:50:28.682, 1, 0, 41, 7, 129, 128, 357
2019-12-31 13:50:49.436 +01:00 [INF] 31.12.2019 13:50:28.703, 1, 0, 37, 7, 122, 122, 388
2019-12-31 13:50:49.440 +01:00 [INF] 31.12.2019 13:50:28.707, 1, 0, 20, 7, 181, 181, 388
2019-12-31 13:50:49.444 +01:00 [INF] 31.12.2019 13:50:28.725, 1, 0, 17, 7, 219, 218, 440
2019-12-31 13:50:49.447 +01:00 [INF] 31.12.2019 13:50:28.748, 1, 0, 18, 7, 161, 160, 426
2019-12-31 13:50:49.451 +01:00 [INF] 31.12.2019 13:50:28.759, 1, 0, 40, 7, 98, 97, 393
2019-12-31 13:50:49.454 +01:00 [INF] 31.12.2019 13:50:28.766, 1, 0, 22, 7, 147, 147, 369
2019-12-31 13:50:49.474 +01:00 [INF] 31.12.2019 13:50:28.785, 1, 0, 31, 7, 124, 123, 337
2019-12-31 13:50:49.476 +01:00 [INF] 31.12.2019 13:50:28.805, 1, 0, 38, 7, 124, 123, 522
2019-12-31 13:50:49.478 +01:00 [INF] 31.12.2019 13:50:28.809, 1, 0, 25, 7, 162, 161, 469
2019-12-31 13:50:49.480 +01:00 [INF] 31.12.2019 13:50:28.815, 1, 0, 28, 9, 63, 8, 257
2019-12-31 13:50:49.483 +01:00 [INF] 31.12.2019 13:50:28.822, 1, 0, 24, 7, 179, 179, 404
2019-12-31 13:50:49.485 +01:00 [INF] 31.12.2019 13:50:28.834, 1, 0, 36, 9, 84, 60, 291
2019-12-31 13:50:49.487 +01:00 [INF] 31.12.2019 13:50:28.848, 1, 0, 26, 9, 57, 2, 257
2019-12-31 13:50:49.490 +01:00 [INF] 31.12.2019 13:50:28.857, 1, 0, 27, 7, 130, 130, 391
2019-12-31 13:50:49.492 +01:00 [INF] 31.12.2019 13:50:28.871, 1, 0, 30, 7, 84, 84, 417
2019-12-31 13:50:49.493 +01:00 [INF] 31.12.2019 13:50:28.875, 1, 0, 19, 9, 102, 2, 293
2019-12-31 13:50:49.494 +01:00 [INF] 31.12.2019 13:50:28.893, 1, 0, 33, 7, 180, 179, 465
2019-12-31 13:50:49.496 +01:00 [INF] 31.12.2019 13:50:28.901, 1, 0, 14, 7, 148, 148, 427
2019-12-31 13:50:49.497 +01:00 [INF] 31.12.2019 13:50:28.902, 1, 0, 39, 9, 22, 2, 246
2019-12-31 13:50:49.500 +01:00 [INF] 31.12.2019 13:50:28.905, 1, 0, 29, 7, 164, 163, 428
2019-12-31 13:50:49.502 +01:00 [INF] 31.12.2019 13:50:28.916, 1, 0, 23, 7, 94, 93, 431
2019-12-31 13:50:49.503 +01:00 [INF] 31.12.2019 13:50:28.921, 1, 0, 21, 9, 49, 2, 276
2019-12-31 13:50:49.504 +01:00 [INF] 31.12.2019 13:50:28.925, 1, 0, 34, 9, 181, 117, 390
2019-12-31 13:50:49.506 +01:00 [INF] 31.12.2019 13:50:28.934, 1, 0, 32, 9, 84, 4, 380
2019-12-31 13:50:49.507 +01:00 [INF] 31.12.2019 13:50:28.946, 1, 0, 35, 9, 181, 70, 380
2019-12-31 13:50:49.509 +01:00 [INF] 31.12.2019 13:50:28.950, 1, 0, 20, 9, 60, 52, 242
2019-12-31 13:50:49.511 +01:00 [INF] 31.12.2019 13:50:28.969, 1, 0, 18, 9, 43, 2, 220
2019-12-31 13:50:49.513 +01:00 [INF] 31.12.2019 13:50:28.981, 1, 0, 37, 9, 91, 29, 278
2019-12-31 13:50:49.515 +01:00 [INF] 31.12.2019 13:50:28.994, 1, 0, 17, 9, 92, 2, 268
2019-12-31 13:50:49.516 +01:00 [INF] 31.12.2019 13:50:29.11, 1, 0, 16, 9, 120, 2, 358
2019-12-31 13:50:49.518 +01:00 [INF] 31.12.2019 13:50:29.14, 1, 0, 15, 9, 129, 3, 372
2019-12-31 13:50:49.520 +01:00 [INF] 31.12.2019 13:50:29.14, 1, 0, 13, 7, 84, 83, 499
2019-12-31 13:50:49.522 +01:00 [INF] 31.12.2019 13:50:29.18, 1, 0, 41, 9, 138, 2, 335
2019-12-31 13:50:49.523 +01:00 [INF] 31.12.2019 13:50:29.21, 1, 0, 12, 7, 212, 212, 686
2019-12-31 13:50:49.525 +01:00 [INF] 31.12.2019 13:50:29.23, 1, 0, 38, 9, 53, 33, 218
2019-12-31 13:50:49.526 +01:00 [INF] 31.12.2019 13:50:29.27, 1, 0, 24, 9, 39, 3, 204
2019-12-31 13:50:49.527 +01:00 [INF] 31.12.2019 13:50:29.27, 1, 0, 40, 9, 36, 5, 268
2019-12-31 13:50:49.530 +01:00 [INF] 31.12.2019 13:50:29.30, 1, 0, 25, 9, 65, 2, 219
2019-12-31 13:50:49.532 +01:00 [INF] 31.12.2019 13:50:29.34, 1, 0, 31, 9, 81, 10, 249
2019-12-31 13:50:49.534 +01:00 [INF] 31.12.2019 13:50:29.42, 1, 0, 22, 9, 92, 10, 275
2019-12-31 13:50:49.535 +01:00 [INF] 31.12.2019 13:50:29.142, 1, 0, 36, 8, 100, 99, 307
2019-12-31 13:50:49.537 +01:00 [INF] 31.12.2019 13:50:29.149, 1, 0, 28, 8, 53, 52, 334
2019-12-31 13:50:49.539 +01:00 [INF] 31.12.2019 13:50:29.153, 1, 0, 26, 8, 104, 104, 304
2019-12-31 13:50:49.542 +01:00 [INF] 31.12.2019 13:50:29.193, 1, 0, 34, 8, 43, 42, 267
2019-12-31 13:50:49.543 +01:00 [INF] 31.12.2019 13:50:29.196, 1, 0, 35, 8, 53, 53, 250
2019-12-31 13:50:49.544 +01:00 [INF] 31.12.2019 13:50:29.206, 1, 0, 32, 8, 51, 50, 272
2019-12-31 13:50:49.546 +01:00 [INF] 31.12.2019 13:50:29.234, 1, 0, 30, 9, 175, 65, 362
2019-12-31 13:50:49.547 +01:00 [INF] 31.12.2019 13:50:29.237, 1, 0, 19, 8, 92, 92, 362
2019-12-31 13:50:49.550 +01:00 [INF] 31.12.2019 13:50:29.238, 1, 0, 40, 8, 6, 5, 210
2019-12-31 13:50:49.552 +01:00 [INF] 31.12.2019 13:50:29.241, 1, 0, 41, 8, 6, 5, 222
2019-12-31 13:50:49.553 +01:00 [INF] 31.12.2019 13:50:29.241, 1, 0, 20, 8, 30, 29, 291
2019-12-31 13:50:49.554 +01:00 [INF] 31.12.2019 13:50:29.243, 1, 0, 12, 9, 31, 2, 221
2019-12-31 13:50:49.556 +01:00 [INF] 31.12.2019 13:50:29.251, 1, 0, 39, 8, 45, 44, 348
2019-12-31 13:50:49.558 +01:00 [INF] 31.12.2019 13:50:29.251, 1, 0, 21, 8, 24, 23, 329
2019-12-31 13:50:49.560 +01:00 [INF] 31.12.2019 13:50:29.275, 1, 0, 31, 8, 6, 5, 240
2019-12-31 13:50:49.562 +01:00 [INF] 31.12.2019 13:50:29.279, 1, 0, 18, 8, 73, 72, 309
2019-12-31 13:50:49.563 +01:00 [INF] 31.12.2019 13:50:29.289, 1, 0, 38, 8, 68, 67, 265
2019-12-31 13:50:49.565 +01:00 [INF] 31.12.2019 13:50:29.297, 1, 0, 22, 8, 5, 5, 255
2019-12-31 13:50:49.566 +01:00 [INF] 31.12.2019 13:50:29.301, 1, 0, 33, 9, 215, 99, 407
2019-12-31 13:50:49.567 +01:00 [INF] 31.12.2019 13:50:29.305, 1, 0, 24, 8, 11, 10, 277
2019-12-31 13:50:49.570 +01:00 [INF] 31.12.2019 13:50:29.312, 1, 0, 23, 9, 190, 37, 395
2019-12-31 13:50:49.571 +01:00 [INF] 31.12.2019 13:50:29.312, 1, 0, 27, 9, 184, 41, 454
2019-12-31 13:50:49.572 +01:00 [INF] 31.12.2019 13:50:29.316, 1, 0, 29, 9, 202, 30, 411
2019-12-31 13:50:49.574 +01:00 [INF] 31.12.2019 13:50:29.316, 1, 0, 25, 8, 56, 55, 286
2019-12-31 13:50:49.576 +01:00 [INF] 31.12.2019 13:50:29.321, 1, 0, 28, 4, 0, 0, 171
2019-12-31 13:50:49.577 +01:00 [INF] 31.12.2019 13:50:29.321, 1, 0, 36, 4, 0, 0, 175
2019-12-31 13:50:49.579 +01:00 [INF] 31.12.2019 13:50:29.343, 1, 0, 26, 4, 0, 0, 190
2019-12-31 13:50:49.581 +01:00 [INF] 31.12.2019 13:50:29.344, 1, 0, 13, 9, 41, 2, 329
2019-12-31 13:50:49.582 +01:00 [INF] 31.12.2019 13:50:29.344, 1, 0, 14, 9, 237, 45, 442
2019-12-31 13:50:49.584 +01:00 [INF] 31.12.2019 13:50:29.345, 1, 0, 37, 8, 5, 4, 362
2019-12-31 13:50:49.585 +01:00 [INF] 31.12.2019 13:50:29.349, 1, 0, 34, 4, 0, 0, 156
2019-12-31 13:50:49.586 +01:00 [INF] 31.12.2019 13:50:29.353, 1, 0, 35, 4, 0, 0, 156
2019-12-31 13:50:49.588 +01:00 [INF] 31.12.2019 13:50:29.369, 1, 0, 32, 4, 0, 0, 162
2019-12-31 13:50:49.592 +01:00 [INF] 31.12.2019 13:50:29.369, 1, 0, 17, 8, 43, 42, 374
2019-12-31 13:50:49.593 +01:00 [INF] 31.12.2019 13:50:29.385, 1, 0, 15, 8, 32, 31, 370
2019-12-31 13:50:49.595 +01:00 [INF] 31.12.2019 13:50:29.423, 1, 0, 16, 8, 28, 27, 412
2019-12-31 13:50:49.596 +01:00 [INF] 31.12.2019 13:50:29.426, 1, 0, 21, 4, 0, 0, 175
2019-12-31 13:50:49.598 +01:00 [INF] 31.12.2019 13:50:29.428, 1, 0, 40, 4, 0, 0, 190
2019-12-31 13:50:49.601 +01:00 [INF] 31.12.2019 13:50:29.428, 1, 0, 20, 4, 0, 0, 186
2019-12-31 13:50:49.603 +01:00 [INF] 31.12.2019 13:50:29.428, 1, 0, 19, 4, 0, 0, 190
2019-12-31 13:50:49.604 +01:00 [INF] 31.12.2019 13:50:29.429, 1, 0, 41, 4, 0, 0, 187
2019-12-31 13:50:49.606 +01:00 [INF] 31.12.2019 13:50:29.437, 1, 0, 18, 4, 0, 0, 158
2019-12-31 13:50:49.607 +01:00 [INF] 31.12.2019 13:50:29.443, 1, 0, 31, 4, 0, 0, 167
2019-12-31 13:50:49.609 +01:00 [INF] 31.12.2019 13:50:29.444, 1, 0, 38, 4, 0, 0, 154
2019-12-31 13:50:49.613 +01:00 [INF] 31.12.2019 13:50:29.444, 1, 0, 30, 8, 26, 25, 209
2019-12-31 13:50:49.615 +01:00 [INF] 31.12.2019 13:50:29.449, 1, 0, 22, 4, 0, 0, 151
2019-12-31 13:50:49.617 +01:00 [INF] 31.12.2019 13:50:29.458, 1, 0, 24, 4, 0, 0, 153
2019-12-31 13:50:49.619 +01:00 [INF] 31.12.2019 13:50:29.462, 1, 0, 33, 8, 5, 4, 160
2019-12-31 13:50:49.623 +01:00 [INF] 31.12.2019 13:50:29.495, 1, 0, 25, 4, 0, 0, 178
2019-12-31 13:50:49.624 +01:00 [INF] 31.12.2019 13:50:29.512, 1, 0, 37, 4, 0, 0, 167
2019-12-31 13:50:49.626 +01:00 [INF] 31.12.2019 13:50:29.524, 1, 0, 12, 8, 22, 22, 281
2019-12-31 13:50:49.628 +01:00 [INF] 31.12.2019 13:50:29.528, 1, 0, 17, 4, 0, 0, 158
2019-12-31 13:50:49.629 +01:00 [INF] 31.12.2019 13:50:29.539, 1, 0, 15, 4, 0, 0, 153
2019-12-31 13:50:49.630 +01:00 [INF] 31.12.2019 13:50:29.541, 1, 0, 29, 8, 36, 35, 224
2019-12-31 13:50:49.633 +01:00 [INF] 31.12.2019 13:50:29.546, 1, 0, 23, 8, 37, 37, 233
2019-12-31 13:50:49.635 +01:00 [INF] 31.12.2019 13:50:29.579, 1, 0, 16, 4, 0, 0, 154
2019-12-31 13:50:49.636 +01:00 [INF] 31.12.2019 13:50:29.598, 1, 0, 30, 4, 0, 0, 154
2019-12-31 13:50:49.637 +01:00 [INF] 31.12.2019 13:50:29.608, 1, 0, 27, 8, 34, 34, 296
2019-12-31 13:50:49.638 +01:00 [INF] 31.12.2019 13:50:29.616, 1, 0, 33, 4, 0, 0, 154
2019-12-31 13:50:49.640 +01:00 [INF] 31.12.2019 13:50:29.621, 1, 0, 14, 8, 25, 24, 276
2019-12-31 13:50:49.643 +01:00 [INF] 31.12.2019 13:50:29.675, 1, 0, 12, 4, 0, 0, 150
2019-12-31 13:50:49.646 +01:00 [INF] 31.12.2019 13:50:29.690, 1, 0, 13, 8, 32, 31, 346
2019-12-31 13:50:49.647 +01:00 [INF] 31.12.2019 13:50:29.700, 1, 0, 29, 4, 0, 0, 159
2019-12-31 13:50:49.649 +01:00 [INF] 31.12.2019 13:50:29.701, 1, 0, 23, 4, 0, 0, 154
2019-12-31 13:50:49.650 +01:00 [INF] 31.12.2019 13:50:29.759, 1, 0, 27, 4, 0, 0, 150
2019-12-31 13:50:49.653 +01:00 [INF] 31.12.2019 13:50:29.774, 1, 0, 14, 4, 0, 0, 153
2019-12-31 13:50:49.654 +01:00 [INF] 31.12.2019 13:50:29.842, 1, 0, 13, 4, 0, 0, 151
2019-12-31 13:50:59.542 +01:00 [INF] 6190
