2019-12-31 13:41:21.798 +01:00 [INF] 31.12.2019 13:40:16.762, 1, 0, 16, 3, 446, 0, 2249
2019-12-31 13:41:21.804 +01:00 [INF] 31.12.2019 13:40:19.513, 1, 0, 16, 1, 0, 0, 2723
2019-12-31 13:41:21.805 +01:00 [INF] 31.12.2019 13:40:16.762, 1, 0, 22, 3, 398, 0, 2247
2019-12-31 13:41:21.810 +01:00 [INF] 31.12.2019 13:40:19.513, 1, 0, 22, 1, 0, 0, 2723
2019-12-31 13:41:21.811 +01:00 [INF] 31.12.2019 13:40:18.133, 1, 0, 28, 3, 809, 0, 3617
2019-12-31 13:41:21.812 +01:00 [INF] 31.12.2019 13:40:19.513, 1, 0, 28, 1, 0, 0, 1379
2019-12-31 13:41:21.812 +01:00 [INF] 31.12.2019 13:40:16.762, 1, 0, 24, 3, 404, 0, 2246
2019-12-31 13:41:21.813 +01:00 [INF] 31.12.2019 13:40:19.513, 1, 0, 24, 1, 0, 0, 2723
2019-12-31 13:41:21.814 +01:00 [INF] 31.12.2019 13:40:16.972, 1, 0, 14, 3, 684, 0, 2472
2019-12-31 13:41:21.814 +01:00 [INF] 31.12.2019 13:40:19.514, 1, 0, 25, 1, 0, 0, 2605
2019-12-31 13:41:21.815 +01:00 [INF] 31.12.2019 13:40:19.514, 1, 0, 14, 1, 0, 0, 2541
2019-12-31 13:41:21.816 +01:00 [INF] 31.12.2019 13:40:18.411, 1, 0, 17, 3, 44, 0, 3899
2019-12-31 13:41:21.818 +01:00 [INF] 31.12.2019 13:40:19.517, 1, 0, 26, 1, 0, 0, 1176
2019-12-31 13:41:21.819 +01:00 [INF] 31.12.2019 13:40:19.517, 1, 0, 17, 1, 0, 0, 1105
2019-12-31 13:41:21.822 +01:00 [INF] 31.12.2019 13:40:16.839, 1, 0, 13, 3, 559, 0, 2339
2019-12-31 13:41:21.824 +01:00 [INF] 31.12.2019 13:40:16.762, 1, 0, 21, 3, 414, 0, 2247
2019-12-31 13:41:21.825 +01:00 [INF] 31.12.2019 13:40:19.517, 1, 0, 13, 1, 0, 0, 2678
2019-12-31 13:41:21.826 +01:00 [INF] 31.12.2019 13:40:18.157, 1, 0, 19, 3, 803, 0, 3643
2019-12-31 13:41:21.827 +01:00 [INF] 31.12.2019 13:40:18.370, 1, 0, 31, 3, 990, 0, 3854
2019-12-31 13:41:21.829 +01:00 [INF] 31.12.2019 13:40:19.517, 1, 0, 19, 1, 0, 0, 1360
2019-12-31 13:41:21.831 +01:00 [INF] 31.12.2019 13:40:19.517, 1, 0, 31, 1, 0, 0, 1146
2019-12-31 13:41:21.833 +01:00 [INF] 31.12.2019 13:40:18.151, 1, 0, 30, 3, 824, 0, 3635
2019-12-31 13:41:21.835 +01:00 [INF] 31.12.2019 13:40:19.513, 1, 0, 30, 1, 0, 0, 1360
2019-12-31 13:41:21.837 +01:00 [INF] 31.12.2019 13:40:18.169, 1, 0, 23, 3, 837, 0, 3654
2019-12-31 13:41:21.839 +01:00 [INF] 31.12.2019 13:40:19.517, 1, 0, 23, 1, 0, 0, 1348
2019-12-31 13:41:21.843 +01:00 [INF] 31.12.2019 13:40:16.916, 1, 0, 33, 3, 634, 0, 2399
2019-12-31 13:41:21.845 +01:00 [INF] 31.12.2019 13:40:19.517, 1, 0, 33, 1, 0, 0, 2601
2019-12-31 13:41:21.847 +01:00 [INF] 31.12.2019 13:40:18.139, 1, 0, 12, 3, 812, 0, 4362
2019-12-31 13:41:21.848 +01:00 [INF] 31.12.2019 13:40:19.517, 1, 0, 12, 1, 0, 0, 1377
2019-12-31 13:41:21.857 +01:00 [INF] 31.12.2019 13:40:18.293, 1, 0, 20, 3, 923, 0, 3780
2019-12-31 13:41:21.858 +01:00 [INF] 31.12.2019 13:40:19.517, 1, 0, 20, 1, 0, 0, 1224
2019-12-31 13:41:21.860 +01:00 [INF] 31.12.2019 13:40:18.611, 1, 0, 32, 3, 237, 0, 4094
2019-12-31 13:41:21.862 +01:00 [INF] 31.12.2019 13:40:19.518, 1, 0, 32, 1, 0, 0, 907
2019-12-31 13:41:21.863 +01:00 [INF] 31.12.2019 13:40:16.762, 1, 0, 18, 3, 387, 0, 2248
2019-12-31 13:41:21.867 +01:00 [INF] 31.12.2019 13:40:19.519, 1, 0, 18, 1, 5, 5, 2729
2019-12-31 13:41:21.869 +01:00 [INF] 31.12.2019 13:40:17.129, 1, 0, 27, 3, 834, 0, 2613
2019-12-31 13:41:21.872 +01:00 [INF] 31.12.2019 13:40:19.597, 1, 0, 27, 1, 0, 0, 2467
2019-12-31 13:41:21.876 +01:00 [INF] 31.12.2019 13:40:19.521, 1, 0, 38, 3, 149, 0, 5003
2019-12-31 13:41:21.878 +01:00 [INF] 31.12.2019 13:40:19.673, 1, 0, 38, 1, 0, 0, 151
2019-12-31 13:41:21.880 +01:00 [INF] 31.12.2019 13:40:19.531, 1, 0, 37, 3, 125, 0, 5013
2019-12-31 13:41:21.882 +01:00 [INF] 31.12.2019 13:40:19.687, 1, 0, 37, 1, 3, 3, 156
2019-12-31 13:41:21.883 +01:00 [INF] 31.12.2019 13:40:19.534, 1, 0, 41, 3, 102, 0, 5015
2019-12-31 13:41:21.887 +01:00 [INF] 31.12.2019 13:40:19.687, 1, 0, 41, 1, 1, 1, 152
2019-12-31 13:41:21.889 +01:00 [INF] 31.12.2019 13:40:19.531, 1, 0, 39, 3, 116, 0, 5012
2019-12-31 13:41:21.890 +01:00 [INF] 31.12.2019 13:40:19.688, 1, 0, 39, 1, 1, 1, 156
2019-12-31 13:41:21.892 +01:00 [INF] 31.12.2019 13:40:19.538, 1, 0, 29, 3, 182, 0, 5022
2019-12-31 13:41:21.895 +01:00 [INF] 31.12.2019 13:40:19.690, 1, 0, 29, 1, 0, 0, 152
2019-12-31 13:41:21.898 +01:00 [INF] 31.12.2019 13:40:19.601, 1, 0, 35, 3, 225, 0, 5083
2019-12-31 13:41:21.899 +01:00 [INF] 31.12.2019 13:40:19.752, 1, 0, 35, 1, 0, 0, 151
2019-12-31 13:41:21.902 +01:00 [INF] 31.12.2019 13:40:19.624, 1, 0, 34, 3, 239, 0, 5107
2019-12-31 13:41:21.904 +01:00 [INF] 31.12.2019 13:40:19.780, 1, 0, 34, 1, 0, 0, 155
2019-12-31 13:41:21.907 +01:00 [INF] 31.12.2019 13:40:19.646, 1, 0, 36, 3, 218, 0, 5128
2019-12-31 13:41:21.909 +01:00 [INF] 31.12.2019 13:40:19.801, 1, 0, 40, 1, 1, 1, 153
2019-12-31 13:41:21.911 +01:00 [INF] 31.12.2019 13:40:19.801, 1, 0, 36, 1, 1, 1, 154
2019-12-31 13:41:21.912 +01:00 [INF] 31.12.2019 13:40:19.692, 1, 0, 15, 3, 386, 0, 5181
2019-12-31 13:41:21.914 +01:00 [INF] 31.12.2019 13:40:19.844, 1, 0, 15, 1, 0, 0, 151
2019-12-31 13:41:21.918 +01:00 [INF] 31.12.2019 13:40:20.198, 1, 0, 14, 11, 31, 30, 227
2019-12-31 13:41:21.920 +01:00 [INF] 31.12.2019 13:40:20.198, 1, 0, 12, 11, 43, 42, 234
2019-12-31 13:41:21.922 +01:00 [INF] 31.12.2019 13:40:20.332, 1, 0, 20, 11, 106, 104, 349
2019-12-31 13:41:21.924 +01:00 [INF] 31.12.2019 13:40:20.332, 1, 0, 18, 11, 103, 102, 353
2019-12-31 13:41:21.927 +01:00 [INF] 31.12.2019 13:40:20.334, 1, 0, 17, 11, 106, 106, 357
2019-12-31 13:41:21.929 +01:00 [INF] 31.12.2019 13:40:20.338, 1, 0, 19, 11, 122, 121, 357
2019-12-31 13:41:21.932 +01:00 [INF] 31.12.2019 13:40:20.357, 1, 0, 15, 11, 133, 132, 384
2019-12-31 13:41:21.933 +01:00 [INF] 31.12.2019 13:40:20.361, 1, 0, 23, 11, 151, 151, 369
2019-12-31 13:41:21.937 +01:00 [INF] 31.12.2019 13:40:20.371, 1, 0, 16, 11, 135, 134, 396
2019-12-31 13:41:21.939 +01:00 [INF] 31.12.2019 13:40:20.382, 1, 0, 24, 11, 175, 174, 389
2019-12-31 13:41:21.941 +01:00 [INF] 31.12.2019 13:40:20.390, 1, 0, 21, 11, 109, 108, 406
2019-12-31 13:41:21.942 +01:00 [INF] 31.12.2019 13:40:20.419, 1, 0, 39, 11, 95, 94, 392
2019-12-31 13:41:21.944 +01:00 [INF] 31.12.2019 13:40:20.428, 1, 0, 22, 11, 215, 214, 441
2019-12-31 13:41:21.947 +01:00 [INF] 31.12.2019 13:40:20.433, 1, 0, 35, 11, 109, 108, 414
2019-12-31 13:41:21.950 +01:00 [INF] 31.12.2019 13:40:20.444, 1, 0, 37, 11, 97, 97, 421
2019-12-31 13:41:21.952 +01:00 [INF] 31.12.2019 13:40:20.450, 1, 0, 41, 11, 105, 104, 418
2019-12-31 13:41:21.953 +01:00 [INF] 31.12.2019 13:40:20.468, 1, 0, 29, 11, 113, 113, 463
2019-12-31 13:41:21.957 +01:00 [INF] 31.12.2019 13:40:20.475, 1, 0, 32, 11, 114, 114, 464
2019-12-31 13:41:21.959 +01:00 [INF] 31.12.2019 13:40:20.490, 1, 0, 26, 11, 148, 147, 491
2019-12-31 13:41:21.961 +01:00 [INF] 31.12.2019 13:40:20.519, 1, 0, 36, 11, 116, 115, 498
2019-12-31 13:41:21.963 +01:00 [INF] 31.12.2019 13:40:20.545, 1, 0, 33, 11, 130, 129, 531
2019-12-31 13:41:21.964 +01:00 [INF] 31.12.2019 13:40:20.557, 1, 0, 30, 11, 122, 121, 550
2019-12-31 13:41:21.968 +01:00 [INF] 31.12.2019 13:40:20.558, 1, 0, 27, 11, 132, 131, 558
2019-12-31 13:41:21.970 +01:00 [INF] 31.12.2019 13:40:20.564, 1, 0, 38, 11, 140, 136, 539
2019-12-31 13:41:21.972 +01:00 [INF] 31.12.2019 13:40:20.589, 1, 0, 40, 11, 109, 109, 560
2019-12-31 13:41:21.973 +01:00 [INF] 31.12.2019 13:40:20.597, 1, 0, 28, 11, 120, 119, 595
2019-12-31 13:41:21.975 +01:00 [INF] 31.12.2019 13:40:20.613, 1, 0, 31, 11, 123, 122, 603
2019-12-31 13:41:21.978 +01:00 [INF] 31.12.2019 13:40:20.636, 1, 0, 34, 11, 93, 92, 620
2019-12-31 13:41:21.980 +01:00 [INF] 31.12.2019 13:40:20.663, 1, 0, 20, 8, 89, 89, 330
2019-12-31 13:41:21.981 +01:00 [INF] 31.12.2019 13:40:20.687, 1, 0, 35, 8, 17, 16, 254
2019-12-31 13:41:21.983 +01:00 [INF] 31.12.2019 13:40:20.690, 1, 0, 22, 8, 61, 61, 262
2019-12-31 13:41:21.984 +01:00 [INF] 31.12.2019 13:40:20.703, 1, 0, 18, 8, 131, 130, 370
2019-12-31 13:41:21.988 +01:00 [INF] 31.12.2019 13:40:20.706, 1, 0, 14, 8, 85, 85, 504
2019-12-31 13:41:21.989 +01:00 [INF] 31.12.2019 13:40:20.706, 1, 0, 19, 8, 89, 89, 367
2019-12-31 13:41:21.991 +01:00 [INF] 31.12.2019 13:40:20.722, 1, 0, 39, 8, 76, 75, 302
2019-12-31 13:41:21.992 +01:00 [INF] 31.12.2019 13:40:20.727, 1, 0, 21, 8, 44, 44, 336
2019-12-31 13:41:21.994 +01:00 [INF] 31.12.2019 13:40:20.732, 1, 0, 41, 8, 57, 56, 282
2019-12-31 13:41:21.996 +01:00 [INF] 31.12.2019 13:40:20.745, 1, 0, 23, 8, 73, 72, 384
2019-12-31 13:41:22.000 +01:00 [INF] 31.12.2019 13:40:20.749, 1, 0, 13, 8, 98, 98, 548
2019-12-31 13:41:22.004 +01:00 [INF] 31.12.2019 13:40:20.761, 1, 0, 30, 8, 6, 5, 204
2019-12-31 13:41:22.006 +01:00 [INF] 31.12.2019 13:40:20.765, 1, 0, 27, 8, 6, 5, 206
2019-12-31 13:41:22.008 +01:00 [INF] 31.12.2019 13:40:20.769, 1, 0, 25, 11, 242, 242, 773
2019-12-31 13:41:22.011 +01:00 [INF] 31.12.2019 13:40:20.770, 1, 0, 37, 8, 15, 15, 326
2019-12-31 13:41:22.013 +01:00 [INF] 31.12.2019 13:40:20.776, 1, 0, 26, 8, 54, 53, 286
2019-12-31 13:41:22.019 +01:00 [INF] 31.12.2019 13:40:20.786, 1, 0, 38, 8, 27, 26, 221
2019-12-31 13:41:22.024 +01:00 [INF] 31.12.2019 13:40:20.788, 1, 0, 24, 8, 157, 156, 405
2019-12-31 13:41:22.038 +01:00 [INF] 31.12.2019 13:40:20.790, 1, 0, 16, 8, 66, 65, 419
2019-12-31 13:41:22.042 +01:00 [INF] 31.12.2019 13:40:20.805, 1, 0, 12, 8, 134, 134, 603
2019-12-31 13:41:22.046 +01:00 [INF] 31.12.2019 13:40:20.808, 1, 0, 29, 8, 59, 58, 339
2019-12-31 13:41:22.048 +01:00 [INF] 31.12.2019 13:40:20.818, 1, 0, 36, 8, 101, 101, 298
2019-12-31 13:41:22.053 +01:00 [INF] 31.12.2019 13:40:20.824, 1, 0, 31, 8, 33, 33, 210
2019-12-31 13:41:22.060 +01:00 [INF] 31.12.2019 13:40:20.832, 1, 0, 33, 8, 60, 59, 287
2019-12-31 13:41:22.064 +01:00 [INF] 31.12.2019 13:40:20.833, 1, 0, 28, 8, 52, 51, 235
2019-12-31 13:41:22.067 +01:00 [INF] 31.12.2019 13:40:20.843, 1, 0, 40, 8, 35, 35, 253
2019-12-31 13:41:22.069 +01:00 [INF] 31.12.2019 13:40:20.843, 1, 0, 34, 8, 31, 30, 206
2019-12-31 13:41:22.073 +01:00 [INF] 31.12.2019 13:40:20.849, 1, 0, 20, 8, 7, 7, 184
2019-12-31 13:41:22.076 +01:00 [INF] 31.12.2019 13:40:20.853, 1, 0, 32, 8, 71, 71, 377
2019-12-31 13:41:22.077 +01:00 [INF] 31.12.2019 13:40:20.868, 1, 0, 17, 8, 196, 195, 532
2019-12-31 13:41:22.079 +01:00 [INF] 31.12.2019 13:40:20.887, 1, 0, 35, 8, 34, 34, 200
2019-12-31 13:41:22.080 +01:00 [INF] 31.12.2019 13:40:20.894, 1, 0, 19, 8, 28, 27, 187
2019-12-31 13:41:22.083 +01:00 [INF] 31.12.2019 13:40:20.903, 1, 0, 18, 8, 34, 33, 200
2019-12-31 13:41:22.086 +01:00 [INF] 31.12.2019 13:40:20.908, 1, 0, 22, 8, 42, 42, 217
2019-12-31 13:41:22.088 +01:00 [INF] 31.12.2019 13:40:20.915, 1, 0, 15, 8, 156, 156, 558
2019-12-31 13:41:22.089 +01:00 [INF] 31.12.2019 13:40:20.966, 1, 0, 37, 8, 30, 29, 195
2019-12-31 13:41:22.091 +01:00 [INF] 31.12.2019 13:40:20.979, 1, 0, 39, 8, 84, 83, 257
2019-12-31 13:41:22.094 +01:00 [INF] 31.12.2019 13:40:20.984, 1, 0, 14, 8, 37, 37, 277
2019-12-31 13:41:22.096 +01:00 [INF] 31.12.2019 13:40:21.18, 1, 0, 41, 8, 109, 95, 285
2019-12-31 13:41:22.097 +01:00 [INF] 31.12.2019 13:40:21.30, 1, 0, 40, 8, 5, 4, 186
2019-12-31 13:41:22.099 +01:00 [INF] 31.12.2019 13:40:21.34, 1, 0, 25, 8, 103, 103, 264
2019-12-31 13:41:22.100 +01:00 [INF] 31.12.2019 13:40:21.39, 1, 0, 20, 10, 2, 1, 186
2019-12-31 13:41:22.102 +01:00 [INF] 31.12.2019 13:40:21.44, 1, 0, 27, 8, 51, 50, 278
2019-12-31 13:41:22.107 +01:00 [INF] 31.12.2019 13:40:21.53, 1, 0, 30, 8, 73, 72, 291
2019-12-31 13:41:22.108 +01:00 [INF] 31.12.2019 13:40:21.69, 1, 0, 22, 10, 2, 1, 161
2019-12-31 13:41:22.110 +01:00 [INF] 31.12.2019 13:40:21.77, 1, 0, 35, 10, 13, 12, 189
2019-12-31 13:41:22.111 +01:00 [INF] 31.12.2019 13:40:21.89, 1, 0, 19, 10, 2, 2, 194
2019-12-31 13:41:22.112 +01:00 [INF] 31.12.2019 13:40:21.93, 1, 0, 18, 10, 9, 8, 189
2019-12-31 13:41:22.116 +01:00 [INF] 31.12.2019 13:40:21.97, 1, 0, 38, 8, 32, 31, 311
2019-12-31 13:41:22.118 +01:00 [INF] 31.12.2019 13:40:21.99, 1, 0, 28, 8, 5, 5, 265
2019-12-31 13:41:22.120 +01:00 [INF] 31.12.2019 13:40:21.100, 1, 0, 26, 8, 65, 65, 324
2019-12-31 13:41:22.122 +01:00 [INF] 31.12.2019 13:40:21.106, 1, 0, 23, 8, 95, 94, 361
2019-12-31 13:41:22.125 +01:00 [INF] 31.12.2019 13:40:21.106, 1, 0, 31, 8, 94, 94, 282
2019-12-31 13:41:22.128 +01:00 [INF] 31.12.2019 13:40:21.117, 1, 0, 32, 8, 6, 5, 264
2019-12-31 13:41:22.129 +01:00 [INF] 31.12.2019 13:40:21.118, 1, 0, 24, 8, 79, 78, 329
2019-12-31 13:41:22.131 +01:00 [INF] 31.12.2019 13:40:21.149, 1, 0, 21, 8, 204, 204, 421
2019-12-31 13:41:22.132 +01:00 [INF] 31.12.2019 13:40:21.163, 1, 0, 33, 8, 27, 26, 330
2019-12-31 13:41:22.135 +01:00 [INF] 31.12.2019 13:40:21.177, 1, 0, 39, 10, 2, 1, 197
2019-12-31 13:41:22.139 +01:00 [INF] 31.12.2019 13:40:21.177, 1, 0, 14, 10, 2, 2, 193
2019-12-31 13:41:22.141 +01:00 [INF] 31.12.2019 13:40:21.183, 1, 0, 37, 10, 2, 1, 216
2019-12-31 13:41:22.143 +01:00 [INF] 31.12.2019 13:40:21.187, 1, 0, 41, 10, 2, 1, 169
2019-12-31 13:41:22.145 +01:00 [INF] 31.12.2019 13:40:21.192, 1, 0, 29, 8, 120, 119, 384
2019-12-31 13:41:22.147 +01:00 [INF] 31.12.2019 13:40:21.205, 1, 0, 40, 10, 2, 1, 174
2019-12-31 13:41:22.149 +01:00 [INF] 31.12.2019 13:40:21.218, 1, 0, 25, 8, 10, 10, 184
2019-12-31 13:41:22.151 +01:00 [INF] 31.12.2019 13:40:21.219, 1, 0, 34, 8, 102, 102, 376
2019-12-31 13:41:22.155 +01:00 [INF] 31.12.2019 13:40:21.219, 1, 0, 16, 8, 115, 114, 429
2019-12-31 13:41:22.157 +01:00 [INF] 31.12.2019 13:40:21.219, 1, 0, 36, 8, 120, 120, 401
2019-12-31 13:41:22.159 +01:00 [INF] 31.12.2019 13:40:21.251, 1, 0, 12, 8, 94, 94, 446
2019-12-31 13:41:22.161 +01:00 [INF] 31.12.2019 13:40:21.262, 1, 0, 15, 8, 49, 48, 346
2019-12-31 13:41:22.162 +01:00 [INF] 31.12.2019 13:40:21.285, 1, 0, 38, 10, 24, 23, 188
2019-12-31 13:41:22.166 +01:00 [INF] 31.12.2019 13:40:21.285, 1, 0, 28, 10, 19, 18, 186
2019-12-31 13:41:22.168 +01:00 [INF] 31.12.2019 13:40:21.286, 1, 0, 23, 10, 11, 10, 179
2019-12-31 13:41:22.172 +01:00 [INF] 31.12.2019 13:40:21.286, 1, 0, 26, 10, 20, 20, 186
2019-12-31 13:41:22.176 +01:00 [INF] 31.12.2019 13:40:21.288, 1, 0, 27, 10, 10, 9, 231
2019-12-31 13:41:22.178 +01:00 [INF] 31.12.2019 13:40:21.289, 1, 0, 31, 10, 12, 11, 182
2019-12-31 13:41:22.182 +01:00 [INF] 31.12.2019 13:40:21.289, 1, 0, 13, 8, 193, 193, 539
2019-12-31 13:41:22.185 +01:00 [INF] 31.12.2019 13:40:21.302, 1, 0, 30, 10, 9, 9, 249
2019-12-31 13:41:22.187 +01:00 [INF] 31.12.2019 13:40:21.304, 1, 0, 17, 8, 48, 47, 436
2019-12-31 13:41:22.189 +01:00 [INF] 31.12.2019 13:40:21.318, 1, 0, 35, 11, 63, 62, 240
2019-12-31 13:41:22.191 +01:00 [INF] 31.12.2019 13:40:21.336, 1, 0, 32, 10, 17, 16, 217
2019-12-31 13:41:22.193 +01:00 [INF] 31.12.2019 13:40:21.338, 1, 0, 20, 11, 92, 91, 297
2019-12-31 13:41:22.196 +01:00 [INF] 31.12.2019 13:40:21.338, 1, 0, 22, 11, 84, 84, 269
2019-12-31 13:41:22.198 +01:00 [INF] 31.12.2019 13:40:21.351, 1, 0, 18, 11, 65, 64, 258
2019-12-31 13:41:22.200 +01:00 [INF] 31.12.2019 13:40:21.352, 1, 0, 19, 11, 65, 64, 262
2019-12-31 13:41:22.205 +01:00 [INF] 31.12.2019 13:40:21.354, 1, 0, 24, 10, 2, 1, 235
2019-12-31 13:41:22.209 +01:00 [INF] 31.12.2019 13:40:21.384, 1, 0, 33, 10, 9, 9, 220
2019-12-31 13:41:22.211 +01:00 [INF] 31.12.2019 13:40:21.387, 1, 0, 29, 10, 4, 3, 195
2019-12-31 13:41:22.214 +01:00 [INF] 31.12.2019 13:40:21.388, 1, 0, 34, 10, 1, 1, 169
2019-12-31 13:41:22.223 +01:00 [INF] 31.12.2019 13:40:21.391, 1, 0, 21, 10, 1, 0, 242
2019-12-31 13:41:22.226 +01:00 [INF] 31.12.2019 13:40:21.402, 1, 0, 39, 11, 55, 55, 225
2019-12-31 13:41:22.234 +01:00 [INF] 31.12.2019 13:40:21.410, 1, 0, 14, 11, 65, 65, 232
2019-12-31 13:41:22.237 +01:00 [INF] 31.12.2019 13:40:21.417, 1, 0, 37, 11, 37, 36, 234
2019-12-31 13:41:22.239 +01:00 [INF] 31.12.2019 13:40:21.422, 1, 0, 40, 11, 39, 39, 216
2019-12-31 13:41:22.241 +01:00 [INF] 31.12.2019 13:40:21.433, 1, 0, 15, 10, 4, 3, 170
2019-12-31 13:41:22.250 +01:00 [INF] 31.12.2019 13:40:21.435, 1, 0, 16, 10, 12, 12, 215
2019-12-31 13:41:22.252 +01:00 [INF] 31.12.2019 13:40:21.437, 1, 0, 25, 10, 13, 12, 219
2019-12-31 13:41:22.255 +01:00 [INF] 31.12.2019 13:40:21.438, 1, 0, 36, 10, 15, 15, 208
2019-12-31 13:41:22.257 +01:00 [INF] 31.12.2019 13:40:21.438, 1, 0, 12, 10, 5, 5, 186
2019-12-31 13:41:22.260 +01:00 [INF] 31.12.2019 13:40:21.478, 1, 0, 13, 10, 17, 17, 189
2019-12-31 13:41:22.261 +01:00 [INF] 31.12.2019 13:40:21.480, 1, 0, 17, 10, 17, 17, 176
2019-12-31 13:41:22.263 +01:00 [INF] 31.12.2019 13:40:21.492, 1, 0, 41, 11, 40, 40, 304
2019-12-31 13:41:22.265 +01:00 [INF] 31.12.2019 13:40:21.541, 1, 0, 30, 11, 76, 76, 239
2019-12-31 13:41:22.268 +01:00 [INF] 31.12.2019 13:40:21.549, 1, 0, 38, 11, 85, 85, 263
2019-12-31 13:41:22.271 +01:00 [INF] 31.12.2019 13:40:21.553, 1, 0, 28, 11, 95, 94, 267
2019-12-31 13:41:22.273 +01:00 [INF] 31.12.2019 13:40:21.560, 1, 0, 27, 11, 91, 91, 271
2019-12-31 13:41:22.274 +01:00 [INF] 31.12.2019 13:40:21.571, 1, 0, 35, 13, 48, 47, 248
2019-12-31 13:41:22.276 +01:00 [INF] 31.12.2019 13:40:21.571, 1, 0, 23, 11, 116, 116, 285
2019-12-31 13:41:22.279 +01:00 [INF] 31.12.2019 13:40:21.571, 1, 0, 22, 13, 52, 49, 232
2019-12-31 13:41:22.282 +01:00 [INF] 31.12.2019 13:40:21.582, 1, 0, 20, 13, 58, 57, 243
2019-12-31 13:41:22.283 +01:00 [INF] 31.12.2019 13:40:21.586, 1, 0, 18, 13, 22, 21, 234
2019-12-31 13:41:22.285 +01:00 [INF] 31.12.2019 13:40:21.593, 1, 0, 19, 13, 52, 51, 239
2019-12-31 13:41:22.286 +01:00 [INF] 31.12.2019 13:40:21.597, 1, 0, 26, 11, 116, 115, 310
2019-12-31 13:41:22.289 +01:00 [INF] 31.12.2019 13:40:21.601, 1, 0, 37, 13, 4, 3, 184
2019-12-31 13:41:22.291 +01:00 [INF] 31.12.2019 13:40:21.609, 1, 0, 14, 13, 34, 34, 199
2019-12-31 13:41:22.293 +01:00 [INF] 31.12.2019 13:40:21.616, 1, 0, 39, 13, 56, 56, 213
2019-12-31 13:41:22.294 +01:00 [INF] 31.12.2019 13:40:21.620, 1, 0, 40, 13, 23, 22, 197
2019-12-31 13:41:22.298 +01:00 [INF] 31.12.2019 13:40:21.648, 1, 0, 32, 11, 138, 138, 311
2019-12-31 13:41:22.300 +01:00 [INF] 31.12.2019 13:40:21.656, 1, 0, 31, 11, 147, 146, 367
2019-12-31 13:41:22.302 +01:00 [INF] 31.12.2019 13:40:21.686, 1, 0, 24, 11, 169, 168, 332
2019-12-31 13:41:22.303 +01:00 [INF] 31.12.2019 13:40:21.698, 1, 0, 34, 11, 131, 130, 309
2019-12-31 13:41:22.306 +01:00 [INF] 31.12.2019 13:40:21.719, 1, 0, 21, 11, 139, 138, 327
2019-12-31 13:41:22.309 +01:00 [INF] 31.12.2019 13:40:21.724, 1, 0, 29, 11, 141, 141, 336
2019-12-31 13:41:22.312 +01:00 [INF] 31.12.2019 13:40:21.728, 1, 0, 41, 13, 8, 7, 236
2019-12-31 13:41:22.314 +01:00 [INF] 31.12.2019 13:40:21.735, 1, 0, 15, 11, 124, 123, 301
2019-12-31 13:41:22.315 +01:00 [INF] 31.12.2019 13:40:21.739, 1, 0, 33, 11, 135, 135, 355
2019-12-31 13:41:22.320 +01:00 [INF] 31.12.2019 13:40:21.744, 1, 0, 38, 13, 18, 17, 195
2019-12-31 13:41:22.324 +01:00 [INF] 31.12.2019 13:40:21.751, 1, 0, 16, 11, 111, 110, 316
2019-12-31 13:41:22.325 +01:00 [INF] 31.12.2019 13:40:21.760, 1, 0, 23, 13, 2, 2, 188
2019-12-31 13:41:22.327 +01:00 [INF] 31.12.2019 13:40:21.789, 1, 0, 36, 11, 185, 184, 350
2019-12-31 13:41:22.330 +01:00 [INF] 31.12.2019 13:40:21.819, 1, 0, 13, 11, 159, 158, 340
2019-12-31 13:41:22.332 +01:00 [INF] 31.12.2019 13:40:21.846, 1, 0, 17, 11, 184, 183, 365
2019-12-31 13:41:22.333 +01:00 [INF] 31.12.2019 13:40:21.857, 1, 0, 39, 11, 10, 10, 241
2019-12-31 13:41:22.335 +01:00 [INF] 31.12.2019 13:40:21.862, 1, 0, 35, 11, 90, 89, 291
2019-12-31 13:41:22.337 +01:00 [INF] 31.12.2019 13:40:21.870, 1, 0, 26, 13, 3, 3, 272
2019-12-31 13:41:22.341 +01:00 [INF] 31.12.2019 13:40:21.887, 1, 0, 25, 11, 143, 143, 449
2019-12-31 13:41:22.343 +01:00 [INF] 31.12.2019 13:40:21.895, 1, 0, 31, 13, 24, 24, 238
2019-12-31 13:41:22.345 +01:00 [INF] 31.12.2019 13:40:21.898, 1, 0, 34, 13, 1, 1, 199
2019-12-31 13:41:22.346 +01:00 [INF] 31.12.2019 13:40:21.900, 1, 0, 29, 13, 2, 1, 176
2019-12-31 13:41:22.348 +01:00 [INF] 31.12.2019 13:40:21.904, 1, 0, 32, 13, 20, 19, 256
2019-12-31 13:41:22.351 +01:00 [INF] 31.12.2019 13:40:21.908, 1, 0, 33, 13, 1, 0, 168
2019-12-31 13:41:22.355 +01:00 [INF] 31.12.2019 13:40:21.908, 1, 0, 15, 13, 1, 0, 173
2019-12-31 13:41:22.357 +01:00 [INF] 31.12.2019 13:40:21.913, 1, 0, 24, 13, 38, 37, 226
2019-12-31 13:41:22.360 +01:00 [INF] 31.12.2019 13:40:21.923, 1, 0, 21, 13, 2, 1, 203
2019-12-31 13:41:22.362 +01:00 [INF] 31.12.2019 13:40:21.928, 1, 0, 12, 11, 201, 201, 490
2019-12-31 13:41:22.363 +01:00 [INF] 31.12.2019 13:40:21.942, 1, 0, 37, 11, 29, 28, 340
2019-12-31 13:41:22.365 +01:00 [INF] 31.12.2019 13:40:21.946, 1, 0, 27, 13, 74, 73, 386
2019-12-31 13:41:22.366 +01:00 [INF] 31.12.2019 13:40:21.952, 1, 0, 30, 13, 213, 213, 410
2019-12-31 13:41:22.368 +01:00 [INF] 31.12.2019 13:40:21.955, 1, 0, 40, 11, 10, 9, 334
2019-12-31 13:41:22.373 +01:00 [INF] 31.12.2019 13:40:21.955, 1, 0, 28, 13, 229, 229, 402
2019-12-31 13:41:22.375 +01:00 [INF] 31.12.2019 13:40:21.958, 1, 0, 22, 11, 178, 177, 386
2019-12-31 13:41:22.377 +01:00 [INF] 31.12.2019 13:40:21.961, 1, 0, 16, 13, 2, 1, 209
2019-12-31 13:41:22.378 +01:00 [INF] 31.12.2019 13:40:21.961, 1, 0, 20, 11, 197, 196, 378
2019-12-31 13:41:22.380 +01:00 [INF] 31.12.2019 13:40:21.969, 1, 0, 19, 11, 169, 168, 375
2019-12-31 13:41:22.384 +01:00 [INF] 31.12.2019 13:40:21.969, 1, 0, 18, 11, 109, 108, 382
2019-12-31 13:41:22.387 +01:00 [INF] 31.12.2019 13:40:21.974, 1, 0, 13, 13, 1, 1, 154
2019-12-31 13:41:22.388 +01:00 [INF] 31.12.2019 13:40:21.979, 1, 0, 36, 13, 19, 19, 190
2019-12-31 13:41:22.390 +01:00 [INF] 31.12.2019 13:40:21.980, 1, 0, 14, 11, 81, 80, 371
2019-12-31 13:41:22.394 +01:00 [INF] 31.12.2019 13:40:21.982, 1, 0, 23, 11, 53, 52, 222
2019-12-31 13:41:22.398 +01:00 [INF] 31.12.2019 13:40:21.986, 1, 0, 38, 11, 39, 38, 241
2019-12-31 13:41:22.404 +01:00 [INF] 31.12.2019 13:40:22.0, 1, 0, 17, 13, 2, 1, 153
2019-12-31 13:41:22.406 +01:00 [INF] 31.12.2019 13:40:22.22, 1, 0, 39, 4, 0, 0, 162
2019-12-31 13:41:22.408 +01:00 [INF] 31.12.2019 13:40:22.39, 1, 0, 26, 11, 15, 14, 169
2019-12-31 13:41:22.410 +01:00 [INF] 31.12.2019 13:40:22.43, 1, 0, 25, 13, 2, 2, 156
2019-12-31 13:41:22.412 +01:00 [INF] 31.12.2019 13:40:22.51, 1, 0, 41, 11, 49, 49, 323
2019-12-31 13:41:22.415 +01:00 [INF] 31.12.2019 13:40:22.82, 1, 0, 12, 13, 2, 2, 153
2019-12-31 13:41:22.418 +01:00 [INF] 31.12.2019 13:40:22.98, 1, 0, 37, 4, 0, 0, 156
2019-12-31 13:41:22.422 +01:00 [INF] 31.12.2019 13:40:22.107, 1, 0, 40, 4, 0, 0, 152
2019-12-31 13:41:22.427 +01:00 [INF] 31.12.2019 13:40:22.154, 1, 0, 20, 4, 0, 0, 193
2019-12-31 13:41:22.438 +01:00 [INF] 31.12.2019 13:40:22.155, 1, 0, 19, 4, 0, 0, 185
2019-12-31 13:41:22.440 +01:00 [INF] 31.12.2019 13:40:22.155, 1, 0, 23, 4, 0, 0, 172
2019-12-31 13:41:22.445 +01:00 [INF] 31.12.2019 13:40:22.155, 1, 0, 22, 4, 0, 0, 194
2019-12-31 13:41:22.449 +01:00 [INF] 31.12.2019 13:40:22.155, 1, 0, 18, 4, 0, 0, 185
2019-12-31 13:41:22.451 +01:00 [INF] 31.12.2019 13:40:22.155, 1, 0, 38, 4, 0, 0, 168
2019-12-31 13:41:22.455 +01:00 [INF] 31.12.2019 13:40:22.160, 1, 0, 34, 11, 97, 96, 262
2019-12-31 13:41:22.457 +01:00 [INF] 31.12.2019 13:40:22.172, 1, 0, 28, 11, 56, 55, 217
2019-12-31 13:41:22.459 +01:00 [INF] 31.12.2019 13:40:22.178, 1, 0, 29, 11, 121, 120, 278
2019-12-31 13:41:22.461 +01:00 [INF] 31.12.2019 13:40:22.186, 1, 0, 30, 11, 81, 80, 233
2019-12-31 13:41:22.463 +01:00 [INF] 31.12.2019 13:40:22.197, 1, 0, 24, 11, 127, 127, 283
2019-12-31 13:41:22.466 +01:00 [INF] 31.12.2019 13:40:22.200, 1, 0, 26, 4, 0, 0, 160
2019-12-31 13:41:22.470 +01:00 [INF] 31.12.2019 13:40:22.202, 1, 0, 41, 4, 0, 0, 151
2019-12-31 13:41:22.472 +01:00 [INF] 31.12.2019 13:40:22.212, 1, 0, 31, 11, 161, 160, 317
2019-12-31 13:41:22.474 +01:00 [INF] 31.12.2019 13:40:22.217, 1, 0, 27, 11, 115, 114, 270
2019-12-31 13:41:22.477 +01:00 [INF] 31.12.2019 13:40:22.217, 1, 0, 21, 11, 137, 137, 293
2019-12-31 13:41:22.480 +01:00 [INF] 31.12.2019 13:40:22.233, 1, 0, 32, 11, 144, 144, 328
2019-12-31 13:41:22.481 +01:00 [INF] 31.12.2019 13:40:22.233, 1, 0, 15, 11, 157, 157, 324
2019-12-31 13:41:22.483 +01:00 [INF] 31.12.2019 13:40:22.238, 1, 0, 16, 11, 77, 77, 277
2019-12-31 13:41:22.487 +01:00 [INF] 31.12.2019 13:40:22.238, 1, 0, 17, 11, 61, 60, 238
2019-12-31 13:41:22.489 +01:00 [INF] 31.12.2019 13:40:22.252, 1, 0, 25, 11, 46, 45, 209
2019-12-31 13:41:22.491 +01:00 [INF] 31.12.2019 13:40:22.252, 1, 0, 13, 11, 91, 91, 278
2019-12-31 13:41:22.492 +01:00 [INF] 31.12.2019 13:40:22.263, 1, 0, 12, 11, 22, 22, 181
2019-12-31 13:41:22.496 +01:00 [INF] 31.12.2019 13:40:22.313, 1, 0, 34, 4, 0, 0, 152
2019-12-31 13:41:22.498 +01:00 [INF] 31.12.2019 13:40:22.327, 1, 0, 28, 4, 0, 0, 154
2019-12-31 13:41:22.500 +01:00 [INF] 31.12.2019 13:40:22.330, 1, 0, 29, 4, 0, 0, 151
2019-12-31 13:41:22.501 +01:00 [INF] 31.12.2019 13:40:22.341, 1, 0, 30, 4, 0, 0, 155
2019-12-31 13:41:22.503 +01:00 [INF] 31.12.2019 13:40:22.346, 1, 0, 24, 4, 0, 0, 149
2019-12-31 13:41:22.507 +01:00 [INF] 31.12.2019 13:40:22.375, 1, 0, 27, 4, 0, 0, 158
2019-12-31 13:41:22.509 +01:00 [INF] 31.12.2019 13:40:22.376, 1, 0, 21, 4, 0, 0, 158
2019-12-31 13:41:22.512 +01:00 [INF] 31.12.2019 13:40:22.381, 1, 0, 31, 4, 0, 0, 169
2019-12-31 13:41:22.513 +01:00 [INF] 31.12.2019 13:40:22.400, 1, 0, 36, 4, 0, 0, 166
2019-12-31 13:41:22.517 +01:00 [INF] 31.12.2019 13:40:22.400, 1, 0, 16, 4, 0, 0, 162
2019-12-31 13:41:22.519 +01:00 [INF] 31.12.2019 13:40:22.400, 1, 0, 15, 4, 0, 0, 167
2019-12-31 13:41:22.521 +01:00 [INF] 31.12.2019 13:40:22.400, 1, 0, 17, 4, 0, 0, 162
2019-12-31 13:41:22.522 +01:00 [INF] 31.12.2019 13:40:22.400, 1, 0, 32, 4, 0, 0, 167
2019-12-31 13:41:22.524 +01:00 [INF] 31.12.2019 13:40:22.401, 1, 0, 33, 11, 21, 20, 492
2019-12-31 13:41:22.527 +01:00 [INF] 31.12.2019 13:40:22.410, 1, 0, 25, 4, 0, 0, 157
2019-12-31 13:41:22.529 +01:00 [INF] 31.12.2019 13:40:22.410, 1, 0, 13, 4, 0, 0, 157
2019-12-31 13:41:22.531 +01:00 [INF] 31.12.2019 13:40:22.414, 1, 0, 12, 4, 0, 0, 150
2019-12-31 13:41:22.532 +01:00 [INF] 31.12.2019 13:40:22.551, 1, 0, 33, 4, 0, 0, 150
2019-12-31 13:41:22.534 +01:00 [INF] 31.12.2019 13:40:23.144, 1, 0, 14, 4, 0, 0, 1164
