2019-12-31 13:54:15.273 +01:00 [INF] 31.12.2019 13:53:49.969, 1, 0, 20, 3, 365, 0, 2141
2019-12-31 13:54:15.285 +01:00 [INF] 31.12.2019 13:53:52.462, 1, 0, 20, 1, 0, 0, 2491
2019-12-31 13:54:15.286 +01:00 [INF] 31.12.2019 13:53:49.869, 1, 0, 13, 3, 267, 0, 2046
2019-12-31 13:54:15.287 +01:00 [INF] 31.12.2019 13:53:52.462, 1, 0, 13, 1, 0, 0, 2570
2019-12-31 13:54:15.288 +01:00 [INF] 31.12.2019 13:53:49.969, 1, 0, 23, 3, 401, 0, 2081
2019-12-31 13:54:15.290 +01:00 [INF] 31.12.2019 13:53:52.462, 1, 0, 23, 1, 0, 0, 2492
2019-12-31 13:54:15.291 +01:00 [INF] 31.12.2019 13:53:49.961, 1, 0, 15, 3, 391, 0, 2138
2019-12-31 13:54:15.293 +01:00 [INF] 31.12.2019 13:53:52.462, 1, 0, 15, 1, 0, 0, 2499
2019-12-31 13:54:15.294 +01:00 [INF] 31.12.2019 13:53:50.65, 1, 0, 18, 3, 368, 0, 2241
2019-12-31 13:54:15.295 +01:00 [INF] 31.12.2019 13:53:52.463, 1, 0, 18, 1, 0, 0, 2397
2019-12-31 13:54:15.297 +01:00 [INF] 31.12.2019 13:53:51.231, 1, 0, 30, 3, 677, 0, 3340
2019-12-31 13:54:15.298 +01:00 [INF] 31.12.2019 13:53:52.467, 1, 0, 30, 1, 0, 0, 1236
2019-12-31 13:54:15.300 +01:00 [INF] 31.12.2019 13:53:51.260, 1, 0, 36, 3, 658, 0, 3352
2019-12-31 13:54:15.302 +01:00 [INF] 31.12.2019 13:53:52.467, 1, 0, 36, 1, 0, 0, 1207
2019-12-31 13:54:15.303 +01:00 [INF] 31.12.2019 13:53:51.211, 1, 0, 16, 3, 659, 0, 3387
2019-12-31 13:54:15.304 +01:00 [INF] 31.12.2019 13:53:52.467, 1, 0, 16, 1, 0, 0, 1256
2019-12-31 13:54:15.305 +01:00 [INF] 31.12.2019 13:53:49.969, 1, 0, 26, 3, 410, 0, 2080
2019-12-31 13:54:15.306 +01:00 [INF] 31.12.2019 13:53:52.467, 1, 0, 26, 1, 0, 0, 2497
2019-12-31 13:54:15.307 +01:00 [INF] 31.12.2019 13:53:51.297, 1, 0, 32, 3, 697, 0, 3406
2019-12-31 13:54:15.309 +01:00 [INF] 31.12.2019 13:53:52.467, 1, 0, 32, 1, 0, 0, 1169
2019-12-31 13:54:15.311 +01:00 [INF] 31.12.2019 13:53:51.280, 1, 0, 33, 3, 719, 0, 3389
2019-12-31 13:54:15.312 +01:00 [INF] 31.12.2019 13:53:52.467, 1, 0, 33, 1, 0, 0, 1186
2019-12-31 13:54:15.314 +01:00 [INF] 31.12.2019 13:53:51.250, 1, 0, 34, 3, 683, 0, 3358
2019-12-31 13:54:15.316 +01:00 [INF] 31.12.2019 13:53:52.467, 1, 0, 34, 1, 0, 0, 1217
2019-12-31 13:54:15.318 +01:00 [INF] 31.12.2019 13:53:51.289, 1, 0, 35, 3, 707, 0, 3382
2019-12-31 13:54:15.321 +01:00 [INF] 31.12.2019 13:53:52.467, 1, 0, 35, 1, 0, 0, 1178
2019-12-31 13:54:15.323 +01:00 [INF] 31.12.2019 13:53:49.949, 1, 0, 21, 3, 408, 0, 2061
2019-12-31 13:54:15.324 +01:00 [INF] 31.12.2019 13:53:52.467, 1, 0, 21, 1, 20, 20, 2518
2019-12-31 13:54:15.326 +01:00 [INF] 31.12.2019 13:53:49.974, 1, 0, 17, 3, 367, 0, 2150
2019-12-31 13:54:15.328 +01:00 [INF] 31.12.2019 13:53:52.467, 1, 0, 17, 1, 0, 0, 2493
2019-12-31 13:54:15.332 +01:00 [INF] 31.12.2019 13:53:51.266, 1, 0, 31, 3, 679, 0, 3376
2019-12-31 13:54:15.335 +01:00 [INF] 31.12.2019 13:53:52.467, 1, 0, 31, 1, 0, 0, 1201
2019-12-31 13:54:15.337 +01:00 [INF] 31.12.2019 13:53:51.221, 1, 0, 29, 3, 670, 0, 3331
2019-12-31 13:54:15.339 +01:00 [INF] 31.12.2019 13:53:52.468, 1, 0, 29, 1, 0, 0, 1246
2019-12-31 13:54:15.343 +01:00 [INF] 31.12.2019 13:53:49.970, 1, 0, 24, 3, 377, 0, 2082
2019-12-31 13:54:15.345 +01:00 [INF] 31.12.2019 13:53:52.468, 1, 0, 24, 1, 0, 0, 2497
2019-12-31 13:54:15.347 +01:00 [INF] 31.12.2019 13:53:49.936, 1, 0, 22, 3, 383, 0, 2048
2019-12-31 13:54:15.349 +01:00 [INF] 31.12.2019 13:53:52.468, 1, 0, 22, 1, 0, 0, 2531
2019-12-31 13:54:15.350 +01:00 [INF] 31.12.2019 13:53:51.118, 1, 0, 25, 3, 545, 0, 3229
2019-12-31 13:54:15.354 +01:00 [INF] 31.12.2019 13:53:52.468, 1, 0, 25, 1, 0, 0, 1349
2019-12-31 13:54:15.357 +01:00 [INF] 31.12.2019 13:53:52.469, 1, 0, 38, 3, 848, 0, 4561
2019-12-31 13:54:15.359 +01:00 [INF] 31.12.2019 13:53:52.628, 1, 0, 38, 1, 0, 0, 159
2019-12-31 13:54:15.361 +01:00 [INF] 31.12.2019 13:53:52.553, 1, 0, 37, 3, 976, 0, 4645
2019-12-31 13:54:15.364 +01:00 [INF] 31.12.2019 13:53:52.705, 1, 0, 37, 1, 0, 0, 152
2019-12-31 13:54:15.366 +01:00 [INF] 31.12.2019 13:53:52.560, 1, 0, 39, 3, 972, 0, 4649
2019-12-31 13:54:15.368 +01:00 [INF] 31.12.2019 13:53:52.715, 1, 0, 39, 1, 1, 1, 154
2019-12-31 13:54:15.370 +01:00 [INF] 31.12.2019 13:53:52.557, 1, 0, 28, 3, 982, 0, 4667
2019-12-31 13:54:15.372 +01:00 [INF] 31.12.2019 13:53:52.718, 1, 0, 28, 1, 4, 4, 161
2019-12-31 13:54:15.375 +01:00 [INF] 31.12.2019 13:53:52.567, 1, 0, 14, 3, 983, 0, 4744
2019-12-31 13:54:15.377 +01:00 [INF] 31.12.2019 13:53:52.722, 1, 0, 14, 1, 0, 0, 155
2019-12-31 13:54:15.379 +01:00 [INF] 31.12.2019 13:53:52.571, 1, 0, 41, 3, 993, 0, 4661
2019-12-31 13:54:15.381 +01:00 [INF] 31.12.2019 13:53:52.723, 1, 0, 41, 1, 1, 1, 151
2019-12-31 13:54:15.385 +01:00 [INF] 31.12.2019 13:53:52.563, 1, 0, 12, 3, 983, 0, 5358
2019-12-31 13:54:15.387 +01:00 [INF] 31.12.2019 13:53:52.724, 1, 0, 12, 1, 1, 1, 161
2019-12-31 13:54:15.389 +01:00 [INF] 31.12.2019 13:53:52.567, 1, 0, 27, 3, 15, 0, 4677
2019-12-31 13:54:15.391 +01:00 [INF] 31.12.2019 13:53:52.725, 1, 0, 27, 1, 4, 4, 158
2019-12-31 13:54:15.392 +01:00 [INF] 31.12.2019 13:53:52.557, 1, 0, 40, 3, 969, 0, 4648
2019-12-31 13:54:15.395 +01:00 [INF] 31.12.2019 13:53:52.726, 1, 0, 40, 1, 13, 13, 169
2019-12-31 13:54:15.397 +01:00 [INF] 31.12.2019 13:53:52.562, 1, 0, 19, 3, 979, 0, 4738
2019-12-31 13:54:15.398 +01:00 [INF] 31.12.2019 13:53:52.726, 1, 0, 19, 1, 6, 6, 163
2019-12-31 13:54:15.400 +01:00 [INF] 31.12.2019 13:53:53.165, 1, 0, 17, 7, 127, 127, 312
2019-12-31 13:54:15.402 +01:00 [INF] 31.12.2019 13:53:53.165, 1, 0, 22, 7, 116, 115, 302
2019-12-31 13:54:15.405 +01:00 [INF] 31.12.2019 13:53:53.165, 1, 0, 15, 7, 136, 135, 316
2019-12-31 13:54:15.407 +01:00 [INF] 31.12.2019 13:53:53.178, 1, 0, 16, 7, 137, 137, 327
2019-12-31 13:54:15.409 +01:00 [INF] 31.12.2019 13:53:53.178, 1, 0, 21, 7, 130, 129, 317
2019-12-31 13:54:15.410 +01:00 [INF] 31.12.2019 13:53:53.178, 1, 0, 12, 7, 148, 148, 337
2019-12-31 13:54:15.417 +01:00 [INF] 31.12.2019 13:53:53.179, 1, 0, 20, 7, 143, 143, 319
2019-12-31 13:54:15.419 +01:00 [INF] 31.12.2019 13:53:53.189, 1, 0, 13, 7, 181, 180, 344
2019-12-31 13:54:15.421 +01:00 [INF] 31.12.2019 13:53:53.245, 1, 0, 35, 7, 77, 77, 356
2019-12-31 13:54:15.423 +01:00 [INF] 31.12.2019 13:53:53.250, 1, 0, 18, 7, 129, 128, 395
2019-12-31 13:54:15.425 +01:00 [INF] 31.12.2019 13:53:53.268, 1, 0, 31, 7, 107, 106, 387
2019-12-31 13:54:15.427 +01:00 [INF] 31.12.2019 13:53:53.271, 1, 0, 14, 7, 252, 251, 424
2019-12-31 13:54:15.428 +01:00 [INF] 31.12.2019 13:53:53.284, 1, 0, 27, 7, 119, 119, 410
2019-12-31 13:54:15.430 +01:00 [INF] 31.12.2019 13:53:53.288, 1, 0, 37, 7, 94, 93, 394
2019-12-31 13:54:15.431 +01:00 [INF] 31.12.2019 13:53:53.294, 1, 0, 26, 7, 144, 144, 423
2019-12-31 13:54:15.432 +01:00 [INF] 31.12.2019 13:53:53.298, 1, 0, 39, 7, 106, 106, 400
2019-12-31 13:54:15.436 +01:00 [INF] 31.12.2019 13:53:53.309, 1, 0, 25, 7, 163, 162, 440
2019-12-31 13:54:15.438 +01:00 [INF] 31.12.2019 13:53:53.329, 1, 0, 29, 7, 107, 107, 452
2019-12-31 13:54:15.439 +01:00 [INF] 31.12.2019 13:53:53.409, 1, 0, 36, 7, 139, 138, 517
2019-12-31 13:54:15.441 +01:00 [INF] 31.12.2019 13:53:53.422, 1, 0, 40, 7, 120, 120, 521
2019-12-31 13:54:15.443 +01:00 [INF] 31.12.2019 13:53:53.428, 1, 0, 28, 7, 156, 156, 553
2019-12-31 13:54:15.447 +01:00 [INF] 31.12.2019 13:53:53.438, 1, 0, 41, 7, 139, 139, 535
2019-12-31 13:54:15.449 +01:00 [INF] 31.12.2019 13:53:53.462, 1, 0, 38, 7, 171, 170, 566
2019-12-31 13:54:15.451 +01:00 [INF] 31.12.2019 13:53:53.475, 1, 0, 31, 8, 8, 7, 207
2019-12-31 13:54:15.452 +01:00 [INF] 31.12.2019 13:53:53.475, 1, 0, 35, 8, 5, 5, 229
2019-12-31 13:54:15.455 +01:00 [INF] 31.12.2019 13:53:53.484, 1, 0, 20, 8, 5, 5, 305
2019-12-31 13:54:15.457 +01:00 [INF] 31.12.2019 13:53:53.499, 1, 0, 30, 7, 148, 147, 620
2019-12-31 13:54:15.459 +01:00 [INF] 31.12.2019 13:53:53.501, 1, 0, 27, 8, 5, 5, 217
2019-12-31 13:54:15.461 +01:00 [INF] 31.12.2019 13:53:53.506, 1, 0, 39, 8, 4, 4, 207
2019-12-31 13:54:15.463 +01:00 [INF] 31.12.2019 13:53:53.521, 1, 0, 32, 8, 5, 4, 236
2019-12-31 13:54:15.469 +01:00 [INF] 31.12.2019 13:53:53.528, 1, 0, 23, 7, 242, 242, 662
2019-12-31 13:54:15.471 +01:00 [INF] 31.12.2019 13:53:53.536, 1, 0, 29, 8, 16, 15, 206
2019-12-31 13:54:15.474 +01:00 [INF] 31.12.2019 13:53:53.543, 1, 0, 22, 8, 153, 152, 374
2019-12-31 13:54:15.476 +01:00 [INF] 31.12.2019 13:53:53.548, 1, 0, 37, 8, 10, 9, 259
2019-12-31 13:54:15.484 +01:00 [INF] 31.12.2019 13:53:53.554, 1, 0, 33, 7, 241, 240, 669
2019-12-31 13:54:15.487 +01:00 [INF] 31.12.2019 13:53:53.554, 1, 0, 18, 8, 6, 6, 303
2019-12-31 13:54:15.489 +01:00 [INF] 31.12.2019 13:53:53.554, 1, 0, 21, 8, 18, 17, 376
2019-12-31 13:54:15.492 +01:00 [INF] 31.12.2019 13:53:53.590, 1, 0, 25, 8, 20, 19, 281
2019-12-31 13:54:15.495 +01:00 [INF] 31.12.2019 13:53:53.595, 1, 0, 26, 8, 16, 16, 300
2019-12-31 13:54:15.497 +01:00 [INF] 31.12.2019 13:53:53.595, 1, 0, 19, 8, 50, 50, 426
2019-12-31 13:54:15.500 +01:00 [INF] 31.12.2019 13:53:53.625, 1, 0, 34, 7, 259, 258, 738
2019-12-31 13:54:15.502 +01:00 [INF] 31.12.2019 13:53:53.626, 1, 0, 28, 8, 11, 10, 197
2019-12-31 13:54:15.504 +01:00 [INF] 31.12.2019 13:53:53.638, 1, 0, 24, 7, 257, 256, 771
2019-12-31 13:54:15.505 +01:00 [INF] 31.12.2019 13:53:53.638, 1, 0, 40, 8, 25, 24, 216
2019-12-31 13:54:15.508 +01:00 [INF] 31.12.2019 13:53:53.642, 1, 0, 36, 8, 35, 35, 233
2019-12-31 13:54:15.510 +01:00 [INF] 31.12.2019 13:53:53.642, 1, 0, 38, 8, 6, 5, 180
2019-12-31 13:54:15.512 +01:00 [INF] 31.12.2019 13:53:53.647, 1, 0, 17, 8, 128, 127, 478
2019-12-31 13:54:15.515 +01:00 [INF] 31.12.2019 13:53:53.658, 1, 0, 15, 8, 116, 116, 488
2019-12-31 13:54:15.516 +01:00 [INF] 31.12.2019 13:53:53.659, 1, 0, 16, 8, 124, 123, 480
2019-12-31 13:54:15.520 +01:00 [INF] 31.12.2019 13:53:53.677, 1, 0, 12, 8, 121, 120, 498
2019-12-31 13:54:15.522 +01:00 [INF] 31.12.2019 13:53:53.700, 1, 0, 41, 8, 5, 5, 261
2019-12-31 13:54:15.524 +01:00 [INF] 31.12.2019 13:53:53.706, 1, 0, 35, 11, 32, 31, 227
2019-12-31 13:54:15.526 +01:00 [INF] 31.12.2019 13:53:53.706, 1, 0, 20, 11, 31, 31, 222
2019-12-31 13:54:15.530 +01:00 [INF] 31.12.2019 13:53:53.716, 1, 0, 14, 8, 59, 59, 444
2019-12-31 13:54:15.533 +01:00 [INF] 31.12.2019 13:53:53.739, 1, 0, 13, 8, 45, 45, 549
2019-12-31 13:54:15.535 +01:00 [INF] 31.12.2019 13:53:53.745, 1, 0, 30, 8, 54, 54, 245
2019-12-31 13:54:15.538 +01:00 [INF] 31.12.2019 13:53:53.757, 1, 0, 39, 11, 78, 78, 250
2019-12-31 13:54:15.543 +01:00 [INF] 31.12.2019 13:53:53.757, 1, 0, 27, 11, 80, 80, 255
2019-12-31 13:54:15.544 +01:00 [INF] 31.12.2019 13:53:53.769, 1, 0, 32, 11, 71, 70, 248
2019-12-31 13:54:15.546 +01:00 [INF] 31.12.2019 13:53:53.772, 1, 0, 23, 8, 51, 50, 243
2019-12-31 13:54:15.549 +01:00 [INF] 31.12.2019 13:53:53.778, 1, 0, 33, 8, 50, 50, 224
2019-12-31 13:54:15.551 +01:00 [INF] 31.12.2019 13:53:53.786, 1, 0, 29, 11, 69, 69, 249
2019-12-31 13:54:15.553 +01:00 [INF] 31.12.2019 13:53:53.786, 1, 0, 37, 11, 64, 64, 238
2019-12-31 13:54:15.555 +01:00 [INF] 31.12.2019 13:53:53.792, 1, 0, 22, 11, 79, 79, 248
2019-12-31 13:54:15.558 +01:00 [INF] 31.12.2019 13:53:53.828, 1, 0, 18, 11, 102, 102, 273
2019-12-31 13:54:15.561 +01:00 [INF] 31.12.2019 13:53:53.870, 1, 0, 28, 11, 80, 80, 244
2019-12-31 13:54:15.563 +01:00 [INF] 31.12.2019 13:53:53.877, 1, 0, 21, 11, 114, 113, 314
2019-12-31 13:54:15.565 +01:00 [INF] 31.12.2019 13:53:53.890, 1, 0, 25, 11, 103, 103, 299
2019-12-31 13:54:15.569 +01:00 [INF] 31.12.2019 13:53:53.897, 1, 0, 24, 8, 72, 71, 259
2019-12-31 13:54:15.571 +01:00 [INF] 31.12.2019 13:53:53.901, 1, 0, 19, 11, 117, 117, 306
2019-12-31 13:54:15.573 +01:00 [INF] 31.12.2019 13:53:53.907, 1, 0, 26, 11, 125, 125, 312
2019-12-31 13:54:15.575 +01:00 [INF] 31.12.2019 13:53:53.916, 1, 0, 34, 8, 49, 49, 291
2019-12-31 13:54:15.578 +01:00 [INF] 31.12.2019 13:53:53.930, 1, 0, 40, 11, 102, 101, 291
2019-12-31 13:54:15.581 +01:00 [INF] 31.12.2019 13:53:53.946, 1, 0, 38, 11, 110, 110, 303
2019-12-31 13:54:15.582 +01:00 [INF] 31.12.2019 13:53:53.946, 1, 0, 36, 11, 105, 104, 303
2019-12-31 13:54:15.584 +01:00 [INF] 31.12.2019 13:53:53.954, 1, 0, 17, 11, 121, 120, 306
2019-12-31 13:54:15.586 +01:00 [INF] 31.12.2019 13:53:53.995, 1, 0, 35, 11, 80, 79, 286
2019-12-31 13:54:15.589 +01:00 [INF] 31.12.2019 13:53:54.2, 1, 0, 16, 11, 129, 129, 342
2019-12-31 13:54:15.591 +01:00 [INF] 31.12.2019 13:53:54.34, 1, 0, 30, 11, 91, 91, 289
2019-12-31 13:54:15.593 +01:00 [INF] 31.12.2019 13:53:54.53, 1, 0, 15, 11, 118, 118, 394
2019-12-31 13:54:15.595 +01:00 [INF] 31.12.2019 13:53:54.64, 1, 0, 27, 11, 106, 105, 306
2019-12-31 13:54:15.598 +01:00 [INF] 31.12.2019 13:53:54.70, 1, 0, 31, 11, 101, 100, 362
2019-12-31 13:54:15.600 +01:00 [INF] 31.12.2019 13:53:54.77, 1, 0, 12, 11, 187, 186, 399
2019-12-31 13:54:15.602 +01:00 [INF] 31.12.2019 13:53:54.91, 1, 0, 20, 11, 129, 128, 382
2019-12-31 13:54:15.604 +01:00 [INF] 31.12.2019 13:53:54.111, 1, 0, 33, 11, 113, 113, 332
2019-12-31 13:54:15.606 +01:00 [INF] 31.12.2019 13:53:54.112, 1, 0, 29, 11, 107, 106, 325
2019-12-31 13:54:15.609 +01:00 [INF] 31.12.2019 13:53:54.128, 1, 0, 14, 11, 127, 127, 412
2019-12-31 13:54:15.611 +01:00 [INF] 31.12.2019 13:53:54.129, 1, 0, 22, 11, 100, 99, 336
2019-12-31 13:54:15.613 +01:00 [INF] 31.12.2019 13:53:54.142, 1, 0, 37, 11, 94, 93, 355
2019-12-31 13:54:15.614 +01:00 [INF] 31.12.2019 13:53:54.145, 1, 0, 18, 11, 111, 111, 317
2019-12-31 13:54:15.616 +01:00 [INF] 31.12.2019 13:53:54.145, 1, 0, 28, 11, 72, 71, 275
2019-12-31 13:54:15.621 +01:00 [INF] 31.12.2019 13:53:54.152, 1, 0, 13, 11, 143, 143, 413
2019-12-31 13:54:15.623 +01:00 [INF] 31.12.2019 13:53:54.152, 1, 0, 39, 11, 82, 81, 395
2019-12-31 13:54:15.624 +01:00 [INF] 31.12.2019 13:53:54.174, 1, 0, 23, 11, 114, 114, 401
2019-12-31 13:54:15.626 +01:00 [INF] 31.12.2019 13:53:54.191, 1, 0, 19, 11, 112, 111, 289
2019-12-31 13:54:15.629 +01:00 [INF] 31.12.2019 13:53:54.215, 1, 0, 41, 11, 87, 86, 514
2019-12-31 13:54:15.632 +01:00 [INF] 31.12.2019 13:53:54.223, 1, 0, 21, 11, 108, 108, 345
2019-12-31 13:54:15.634 +01:00 [INF] 31.12.2019 13:53:54.233, 1, 0, 38, 11, 98, 97, 287
2019-12-31 13:54:15.636 +01:00 [INF] 31.12.2019 13:53:54.237, 1, 0, 26, 11, 117, 116, 329
2019-12-31 13:54:15.639 +01:00 [INF] 31.12.2019 13:53:54.242, 1, 0, 35, 13, 20, 19, 243
2019-12-31 13:54:15.641 +01:00 [INF] 31.12.2019 13:53:54.245, 1, 0, 34, 11, 90, 90, 328
2019-12-31 13:54:15.643 +01:00 [INF] 31.12.2019 13:53:54.249, 1, 0, 24, 11, 162, 161, 351
2019-12-31 13:54:15.645 +01:00 [INF] 31.12.2019 13:53:54.256, 1, 0, 27, 13, 20, 19, 191
2019-12-31 13:54:15.647 +01:00 [INF] 31.12.2019 13:53:54.272, 1, 0, 36, 11, 112, 112, 325
2019-12-31 13:54:15.654 +01:00 [INF] 31.12.2019 13:53:54.275, 1, 0, 40, 11, 99, 98, 345
2019-12-31 13:54:15.657 +01:00 [INF] 31.12.2019 13:53:54.280, 1, 0, 17, 11, 135, 135, 325
2019-12-31 13:54:15.660 +01:00 [INF] 31.12.2019 13:53:54.288, 1, 0, 31, 13, 28, 27, 217
2019-12-31 13:54:15.662 +01:00 [INF] 31.12.2019 13:53:54.312, 1, 0, 22, 13, 30, 29, 183
2019-12-31 13:54:15.671 +01:00 [INF] 31.12.2019 13:53:54.324, 1, 0, 30, 11, 93, 92, 289
2019-12-31 13:54:15.674 +01:00 [INF] 31.12.2019 13:53:54.325, 1, 0, 29, 13, 31, 31, 213
2019-12-31 13:54:15.676 +01:00 [INF] 31.12.2019 13:53:54.330, 1, 0, 39, 13, 2, 1, 177
2019-12-31 13:54:15.678 +01:00 [INF] 31.12.2019 13:53:54.333, 1, 0, 37, 13, 5, 5, 191
2019-12-31 13:54:15.690 +01:00 [INF] 31.12.2019 13:53:54.339, 1, 0, 28, 13, 2, 2, 193
2019-12-31 13:54:15.693 +01:00 [INF] 31.12.2019 13:53:54.339, 1, 0, 18, 13, 1, 1, 193
2019-12-31 13:54:15.695 +01:00 [INF] 31.12.2019 13:53:54.351, 1, 0, 16, 11, 151, 151, 348
2019-12-31 13:54:15.697 +01:00 [INF] 31.12.2019 13:53:54.360, 1, 0, 20, 13, 109, 109, 269
2019-12-31 13:54:15.703 +01:00 [INF] 31.12.2019 13:53:54.366, 1, 0, 19, 13, 2, 1, 175
2019-12-31 13:54:15.707 +01:00 [INF] 31.12.2019 13:53:54.373, 1, 0, 21, 13, 1, 0, 150
2019-12-31 13:54:15.710 +01:00 [INF] 31.12.2019 13:53:54.391, 1, 0, 26, 13, 1, 1, 153
2019-12-31 13:54:15.715 +01:00 [INF] 31.12.2019 13:53:54.391, 1, 0, 38, 13, 4, 4, 157
2019-12-31 13:54:15.718 +01:00 [INF] 31.12.2019 13:53:54.395, 1, 0, 15, 11, 128, 128, 341
2019-12-31 13:54:15.719 +01:00 [INF] 31.12.2019 13:53:54.418, 1, 0, 25, 11, 123, 123, 528
2019-12-31 13:54:15.721 +01:00 [INF] 31.12.2019 13:53:54.423, 1, 0, 32, 11, 101, 101, 654
2019-12-31 13:54:15.724 +01:00 [INF] 31.12.2019 13:53:54.433, 1, 0, 23, 11, 93, 92, 259
2019-12-31 13:54:15.726 +01:00 [INF] 31.12.2019 13:53:54.433, 1, 0, 33, 11, 144, 144, 321
2019-12-31 13:54:15.728 +01:00 [INF] 31.12.2019 13:53:54.438, 1, 0, 14, 11, 143, 143, 309
2019-12-31 13:54:15.730 +01:00 [INF] 31.12.2019 13:53:54.447, 1, 0, 36, 13, 8, 8, 175
2019-12-31 13:54:15.733 +01:00 [INF] 31.12.2019 13:53:54.450, 1, 0, 17, 13, 8, 8, 169
2019-12-31 13:54:15.735 +01:00 [INF] 31.12.2019 13:53:54.458, 1, 0, 40, 13, 15, 14, 183
2019-12-31 13:54:15.737 +01:00 [INF] 31.12.2019 13:53:54.461, 1, 0, 34, 11, 58, 57, 215
2019-12-31 13:54:15.739 +01:00 [INF] 31.12.2019 13:53:54.475, 1, 0, 35, 11, 70, 69, 232
2019-12-31 13:54:15.740 +01:00 [INF] 31.12.2019 13:53:54.476, 1, 0, 41, 11, 104, 103, 261
2019-12-31 13:54:15.743 +01:00 [INF] 31.12.2019 13:53:54.539, 1, 0, 13, 11, 203, 202, 386
2019-12-31 13:54:15.746 +01:00 [INF] 31.12.2019 13:53:54.539, 1, 0, 27, 11, 115, 114, 282
2019-12-31 13:54:15.748 +01:00 [INF] 31.12.2019 13:53:54.545, 1, 0, 37, 11, 55, 54, 212
2019-12-31 13:54:15.750 +01:00 [INF] 31.12.2019 13:53:54.548, 1, 0, 39, 11, 60, 59, 217
2019-12-31 13:54:15.755 +01:00 [INF] 31.12.2019 13:53:54.552, 1, 0, 29, 11, 72, 71, 227
2019-12-31 13:54:15.757 +01:00 [INF] 31.12.2019 13:53:54.556, 1, 0, 28, 11, 55, 55, 217
2019-12-31 13:54:15.758 +01:00 [INF] 31.12.2019 13:53:54.560, 1, 0, 31, 11, 108, 107, 272
2019-12-31 13:54:15.761 +01:00 [INF] 31.12.2019 13:53:54.564, 1, 0, 24, 11, 146, 145, 315
2019-12-31 13:54:15.765 +01:00 [INF] 31.12.2019 13:53:54.564, 1, 0, 12, 11, 227, 226, 487
2019-12-31 13:54:15.767 +01:00 [INF] 31.12.2019 13:53:54.566, 1, 0, 30, 13, 64, 64, 242
2019-12-31 13:54:15.769 +01:00 [INF] 31.12.2019 13:53:54.570, 1, 0, 22, 11, 100, 100, 257
2019-12-31 13:54:15.770 +01:00 [INF] 31.12.2019 13:53:54.578, 1, 0, 32, 13, 4, 3, 154
2019-12-31 13:54:15.772 +01:00 [INF] 31.12.2019 13:53:54.579, 1, 0, 16, 13, 40, 40, 228
2019-12-31 13:54:15.777 +01:00 [INF] 31.12.2019 13:53:54.581, 1, 0, 15, 13, 27, 27, 186
2019-12-31 13:54:15.779 +01:00 [INF] 31.12.2019 13:53:54.584, 1, 0, 25, 13, 14, 13, 166
2019-12-31 13:54:15.781 +01:00 [INF] 31.12.2019 13:53:54.587, 1, 0, 18, 11, 90, 89, 248
2019-12-31 13:54:15.783 +01:00 [INF] 31.12.2019 13:53:54.592, 1, 0, 23, 13, 3, 3, 158
2019-12-31 13:54:15.787 +01:00 [INF] 31.12.2019 13:53:54.593, 1, 0, 14, 13, 2, 2, 154
2019-12-31 13:54:15.789 +01:00 [INF] 31.12.2019 13:53:54.593, 1, 0, 33, 13, 7, 7, 158
2019-12-31 13:54:15.791 +01:00 [INF] 31.12.2019 13:53:54.654, 1, 0, 34, 13, 25, 25, 192
2019-12-31 13:54:15.793 +01:00 [INF] 31.12.2019 13:53:54.660, 1, 0, 41, 13, 22, 22, 184
2019-12-31 13:54:15.796 +01:00 [INF] 31.12.2019 13:53:54.670, 1, 0, 40, 11, 47, 46, 211
2019-12-31 13:54:15.799 +01:00 [INF] 31.12.2019 13:53:54.671, 1, 0, 35, 4, 0, 0, 192
2019-12-31 13:54:15.800 +01:00 [INF] 31.12.2019 13:53:54.678, 1, 0, 38, 11, 104, 103, 286
2019-12-31 13:54:15.802 +01:00 [INF] 31.12.2019 13:53:54.678, 1, 0, 36, 11, 68, 67, 230
2019-12-31 13:54:15.803 +01:00 [INF] 31.12.2019 13:53:54.678, 1, 0, 20, 11, 127, 127, 317
2019-12-31 13:54:15.807 +01:00 [INF] 31.12.2019 13:53:54.681, 1, 0, 21, 11, 110, 109, 307
2019-12-31 13:54:15.808 +01:00 [INF] 31.12.2019 13:53:54.686, 1, 0, 17, 11, 71, 70, 235
2019-12-31 13:54:15.810 +01:00 [INF] 31.12.2019 13:53:54.686, 1, 0, 19, 11, 134, 133, 319
2019-12-31 13:54:15.811 +01:00 [INF] 31.12.2019 13:53:54.691, 1, 0, 27, 4, 0, 0, 152
2019-12-31 13:54:15.813 +01:00 [INF] 31.12.2019 13:53:54.695, 1, 0, 13, 13, 2, 1, 156
2019-12-31 13:54:15.816 +01:00 [INF] 31.12.2019 13:53:54.698, 1, 0, 37, 4, 0, 0, 153
2019-12-31 13:54:15.817 +01:00 [INF] 31.12.2019 13:53:54.699, 1, 0, 39, 4, 0, 0, 151
2019-12-31 13:54:15.819 +01:00 [INF] 31.12.2019 13:53:54.703, 1, 0, 29, 4, 0, 0, 150
2019-12-31 13:54:15.820 +01:00 [INF] 31.12.2019 13:53:54.707, 1, 0, 28, 4, 0, 0, 151
2019-12-31 13:54:15.821 +01:00 [INF] 31.12.2019 13:53:54.710, 1, 0, 31, 4, 0, 0, 149
2019-12-31 13:54:15.823 +01:00 [INF] 31.12.2019 13:53:54.723, 1, 0, 22, 4, 0, 0, 153
2019-12-31 13:54:15.825 +01:00 [INF] 31.12.2019 13:53:54.731, 1, 0, 12, 13, 6, 5, 166
2019-12-31 13:54:15.827 +01:00 [INF] 31.12.2019 13:53:54.731, 1, 0, 24, 13, 6, 6, 167
2019-12-31 13:54:15.828 +01:00 [INF] 31.12.2019 13:53:54.742, 1, 0, 18, 4, 0, 0, 154
2019-12-31 13:54:15.829 +01:00 [INF] 31.12.2019 13:53:54.786, 1, 0, 30, 11, 61, 60, 219
2019-12-31 13:54:15.831 +01:00 [INF] 31.12.2019 13:53:54.814, 1, 0, 32, 11, 74, 74, 235
2019-12-31 13:54:15.832 +01:00 [INF] 31.12.2019 13:53:54.823, 1, 0, 33, 11, 65, 65, 230
2019-12-31 13:54:15.835 +01:00 [INF] 31.12.2019 13:53:54.824, 1, 0, 14, 11, 67, 67, 231
2019-12-31 13:54:15.836 +01:00 [INF] 31.12.2019 13:53:54.834, 1, 0, 40, 4, 0, 0, 164
2019-12-31 13:54:15.837 +01:00 [INF] 31.12.2019 13:53:54.834, 1, 0, 38, 4, 0, 0, 156
2019-12-31 13:54:15.839 +01:00 [INF] 31.12.2019 13:53:54.834, 1, 0, 20, 4, 0, 0, 156
2019-12-31 13:54:15.841 +01:00 [INF] 31.12.2019 13:53:54.834, 1, 0, 23, 11, 71, 71, 241
2019-12-31 13:54:15.842 +01:00 [INF] 31.12.2019 13:53:54.839, 1, 0, 21, 4, 0, 0, 158
2019-12-31 13:54:15.845 +01:00 [INF] 31.12.2019 13:53:54.840, 1, 0, 17, 4, 0, 0, 153
2019-12-31 13:54:15.846 +01:00 [INF] 31.12.2019 13:53:54.840, 1, 0, 16, 11, 81, 81, 260
2019-12-31 13:54:15.848 +01:00 [INF] 31.12.2019 13:53:54.840, 1, 0, 25, 11, 76, 75, 255
2019-12-31 13:54:15.849 +01:00 [INF] 31.12.2019 13:53:54.840, 1, 0, 19, 4, 0, 0, 154
2019-12-31 13:54:15.850 +01:00 [INF] 31.12.2019 13:53:54.845, 1, 0, 15, 11, 96, 96, 264
2019-12-31 13:54:15.851 +01:00 [INF] 31.12.2019 13:53:54.845, 1, 0, 36, 4, 0, 0, 167
2019-12-31 13:54:15.853 +01:00 [INF] 31.12.2019 13:53:54.867, 1, 0, 41, 11, 36, 36, 206
2019-12-31 13:54:15.856 +01:00 [INF] 31.12.2019 13:53:54.877, 1, 0, 13, 11, 24, 23, 182
2019-12-31 13:54:15.857 +01:00 [INF] 31.12.2019 13:53:54.905, 1, 0, 24, 11, 20, 19, 173
2019-12-31 13:54:15.859 +01:00 [INF] 31.12.2019 13:53:54.912, 1, 0, 12, 11, 24, 23, 180
2019-12-31 13:54:15.861 +01:00 [INF] 31.12.2019 13:53:54.940, 1, 0, 30, 4, 0, 0, 153
2019-12-31 13:54:15.862 +01:00 [INF] 31.12.2019 13:53:54.965, 1, 0, 32, 4, 0, 0, 151
2019-12-31 13:54:15.865 +01:00 [INF] 31.12.2019 13:53:54.985, 1, 0, 33, 4, 0, 0, 161
2019-12-31 13:54:15.867 +01:00 [INF] 31.12.2019 13:53:54.988, 1, 0, 23, 4, 0, 0, 153
2019-12-31 13:54:15.868 +01:00 [INF] 31.12.2019 13:53:54.990, 1, 0, 14, 4, 0, 0, 165
2019-12-31 13:54:15.870 +01:00 [INF] 31.12.2019 13:53:54.995, 1, 0, 16, 4, 0, 0, 155
2019-12-31 13:54:15.872 +01:00 [INF] 31.12.2019 13:53:54.998, 1, 0, 15, 4, 0, 0, 153
2019-12-31 13:54:15.873 +01:00 [INF] 31.12.2019 13:53:54.999, 1, 0, 25, 4, 0, 0, 159
2019-12-31 13:54:15.877 +01:00 [INF] 31.12.2019 13:53:55.19, 1, 0, 34, 4, 0, 0, 151
2019-12-31 13:54:15.879 +01:00 [INF] 31.12.2019 13:53:55.20, 1, 0, 41, 4, 0, 0, 152
2019-12-31 13:54:15.880 +01:00 [INF] 31.12.2019 13:53:55.28, 1, 0, 13, 4, 0, 0, 151
2019-12-31 13:54:15.882 +01:00 [INF] 31.12.2019 13:53:55.55, 1, 0, 24, 4, 0, 0, 150
2019-12-31 13:54:15.884 +01:00 [INF] 31.12.2019 13:53:55.65, 1, 0, 12, 4, 0, 0, 153
2019-12-31 13:54:15.891 +01:00 [INF] 31.12.2019 13:53:55.104, 1, 0, 26, 11, 125, 124, 713
2019-12-31 13:54:15.894 +01:00 [INF] 31.12.2019 13:53:55.261, 1, 0, 26, 4, 0, 0, 156
2019-12-31 13:54:24.864 +01:00 [INF] 5630
2019-12-31 13:54:27.676 +01:00 [INF] 2680
2019-12-31 13:54:27.679 +01:00 [INF] Lista akcji:
2019-12-31 13:54:27.680 +01:00 [INF] Logowanie z pobraniem informacji o userze
2019-12-31 13:54:27.681 +01:00 [INF] DodanieFirmy
2019-12-31 13:54:27.682 +01:00 [INF] WyswietlanieTransakcji
2019-12-31 13:54:27.683 +01:00 [INF] WyswietlanieTransakcji
2019-12-31 13:54:27.684 +01:00 [INF] WyswietlanieTransakcji
2019-12-31 13:54:27.685 +01:00 [INF] Wylogowanie
2019-12-31 13:54:46.768 +01:00 [INF] 31.12.2019 13:54:22.219, 1, 0, 22, 3, 321, 0, 2264
2019-12-31 13:54:46.801 +01:00 [INF] 31.12.2019 13:54:24.662, 1, 0, 22, 1, 0, 0, 2442
2019-12-31 13:54:46.802 +01:00 [INF] 31.12.2019 13:54:22.157, 1, 0, 30, 3, 290, 0, 2167
2019-12-31 13:54:46.804 +01:00 [INF] 31.12.2019 13:54:24.662, 1, 0, 30, 1, 0, 0, 2476
2019-12-31 13:54:46.805 +01:00 [INF] 31.12.2019 13:54:22.219, 1, 0, 29, 3, 298, 0, 2230
2019-12-31 13:54:46.806 +01:00 [INF] 31.12.2019 13:54:24.662, 1, 0, 29, 1, 0, 0, 2442
2019-12-31 13:54:46.807 +01:00 [INF] 31.12.2019 13:54:22.157, 1, 0, 37, 3, 352, 0, 2161
2019-12-31 13:54:46.808 +01:00 [INF] 31.12.2019 13:54:24.662, 1, 0, 37, 1, 0, 0, 2476
2019-12-31 13:54:46.811 +01:00 [INF] 31.12.2019 13:54:22.219, 1, 0, 31, 3, 377, 0, 2230
2019-12-31 13:54:46.812 +01:00 [INF] 31.12.2019 13:54:24.663, 1, 0, 31, 1, 0, 0, 2443
2019-12-31 13:54:46.814 +01:00 [INF] 31.12.2019 13:54:23.371, 1, 0, 36, 3, 616, 0, 3379
2019-12-31 13:54:46.815 +01:00 [INF] 31.12.2019 13:54:24.664, 1, 0, 36, 1, 0, 0, 1293
2019-12-31 13:54:46.816 +01:00 [INF] 31.12.2019 13:54:23.406, 1, 0, 28, 3, 633, 0, 3417
2019-12-31 13:54:46.817 +01:00 [INF] 31.12.2019 13:54:24.664, 1, 0, 28, 1, 0, 0, 1257
2019-12-31 13:54:46.818 +01:00 [INF] 31.12.2019 13:54:23.362, 1, 0, 40, 3, 561, 0, 3355
2019-12-31 13:54:46.821 +01:00 [INF] 31.12.2019 13:54:24.664, 1, 0, 40, 1, 0, 0, 1302
2019-12-31 13:54:46.822 +01:00 [INF] 31.12.2019 13:54:23.389, 1, 0, 17, 3, 636, 0, 3438
2019-12-31 13:54:46.823 +01:00 [INF] 31.12.2019 13:54:24.664, 1, 0, 17, 1, 0, 0, 1274
2019-12-31 13:54:46.824 +01:00 [INF] 31.12.2019 13:54:23.415, 1, 0, 41, 3, 583, 0, 3408
2019-12-31 13:54:46.825 +01:00 [INF] 31.12.2019 13:54:22.157, 1, 0, 27, 3, 329, 0, 2167
2019-12-31 13:54:46.826 +01:00 [INF] 31.12.2019 13:54:24.664, 1, 0, 41, 1, 0, 0, 1249
2019-12-31 13:54:46.827 +01:00 [INF] 31.12.2019 13:54:24.664, 1, 0, 27, 1, 0, 0, 2479
2019-12-31 13:54:46.832 +01:00 [INF] 31.12.2019 13:54:22.219, 1, 0, 34, 3, 375, 0, 2229
2019-12-31 13:54:46.835 +01:00 [INF] 31.12.2019 13:54:24.664, 1, 0, 34, 1, 0, 0, 2444
2019-12-31 13:54:46.837 +01:00 [INF] 31.12.2019 13:54:23.367, 1, 0, 39, 3, 593, 0, 3361
2019-12-31 13:54:46.838 +01:00 [INF] 31.12.2019 13:54:24.664, 1, 0, 39, 1, 0, 0, 1297
2019-12-31 13:54:46.842 +01:00 [INF] 31.12.2019 13:54:22.157, 1, 0, 26, 3, 337, 0, 2168
2019-12-31 13:54:46.844 +01:00 [INF] 31.12.2019 13:54:24.664, 1, 0, 15, 1, 0, 0, 1261
2019-12-31 13:54:46.845 +01:00 [INF] 31.12.2019 13:54:24.664, 1, 0, 26, 1, 0, 0, 2479
2019-12-31 13:54:46.846 +01:00 [INF] 31.12.2019 13:54:23.424, 1, 0, 18, 3, 632, 0, 3472
2019-12-31 13:54:46.848 +01:00 [INF] 31.12.2019 13:54:24.664, 1, 0, 18, 1, 0, 0, 1240
2019-12-31 13:54:46.849 +01:00 [INF] 31.12.2019 13:54:22.157, 1, 0, 33, 3, 348, 0, 2166
2019-12-31 13:54:46.852 +01:00 [INF] 31.12.2019 13:54:24.664, 1, 0, 33, 1, 6, 6, 2479
2019-12-31 13:54:46.854 +01:00 [INF] 31.12.2019 13:54:23.379, 1, 0, 14, 3, 598, 0, 3429
2019-12-31 13:54:46.856 +01:00 [INF] 31.12.2019 13:54:24.664, 1, 0, 16, 1, 0, 0, 1254
2019-12-31 13:54:46.857 +01:00 [INF] 31.12.2019 13:54:24.664, 1, 0, 14, 1, 0, 0, 1285
2019-12-31 13:54:46.859 +01:00 [INF] 31.12.2019 13:54:22.226, 1, 0, 20, 3, 331, 0, 2273
2019-12-31 13:54:46.862 +01:00 [INF] 31.12.2019 13:54:24.664, 1, 0, 20, 1, 0, 0, 2437
2019-12-31 13:54:46.864 +01:00 [INF] 31.12.2019 13:54:24.669, 1, 0, 13, 3, 898, 0, 4732
2019-12-31 13:54:46.866 +01:00 [INF] 31.12.2019 13:54:24.824, 1, 0, 13, 1, 0, 0, 155
2019-12-31 13:54:46.868 +01:00 [INF] 31.12.2019 13:54:24.685, 1, 0, 24, 3, 856, 0, 4697
2019-12-31 13:54:46.871 +01:00 [INF] 31.12.2019 13:54:24.842, 1, 0, 24, 1, 0, 0, 156
2019-12-31 13:54:46.873 +01:00 [INF] 31.12.2019 13:54:24.694, 1, 0, 38, 3, 946, 0, 4688
2019-12-31 13:54:46.875 +01:00 [INF] 31.12.2019 13:54:24.854, 1, 0, 38, 1, 1, 1, 159
2019-12-31 13:54:46.876 +01:00 [INF] 31.12.2019 13:54:24.698, 1, 0, 35, 3, 919, 0, 4707
2019-12-31 13:54:46.877 +01:00 [INF] 31.12.2019 13:54:24.860, 1, 0, 35, 1, 3, 3, 161
2019-12-31 13:54:46.879 +01:00 [INF] 31.12.2019 13:54:24.694, 1, 0, 32, 3, 917, 0, 4704
2019-12-31 13:54:46.881 +01:00 [INF] 31.12.2019 13:54:24.861, 1, 0, 32, 1, 2, 2, 166
2019-12-31 13:54:46.883 +01:00 [INF] 31.12.2019 13:54:24.694, 1, 0, 21, 3, 916, 0, 4740
2019-12-31 13:54:46.885 +01:00 [INF] 31.12.2019 13:54:24.861, 1, 0, 21, 1, 3, 3, 160
2019-12-31 13:54:46.886 +01:00 [INF] 31.12.2019 13:54:24.685, 1, 0, 19, 3, 865, 0, 4734
2019-12-31 13:54:46.888 +01:00 [INF] 31.12.2019 13:54:24.861, 1, 0, 19, 1, 0, 0, 176
2019-12-31 13:54:46.891 +01:00 [INF] 31.12.2019 13:54:24.692, 1, 0, 25, 3, 914, 0, 4704
2019-12-31 13:54:46.893 +01:00 [INF] 31.12.2019 13:54:24.861, 1, 0, 25, 1, 3, 3, 168
2019-12-31 13:54:46.894 +01:00 [INF] 31.12.2019 13:54:24.692, 1, 0, 12, 3, 914, 0, 5384
2019-12-31 13:54:46.895 +01:00 [INF] 31.12.2019 13:54:24.861, 1, 0, 12, 1, 2, 2, 169
2019-12-31 13:54:46.897 +01:00 [INF] 31.12.2019 13:54:24.686, 1, 0, 23, 3, 912, 0, 4709
2019-12-31 13:54:46.898 +01:00 [INF] 31.12.2019 13:54:24.862, 1, 0, 23, 1, 13, 13, 176
2019-12-31 13:54:46.902 +01:00 [INF] 31.12.2019 13:54:25.195, 1, 0, 23, 6, 16, 14, 173
2019-12-31 13:54:46.903 +01:00 [INF] 31.12.2019 13:54:25.199, 1, 0, 28, 6, 3, 3, 167
2019-12-31 13:54:46.904 +01:00 [INF] 31.12.2019 13:54:25.204, 1, 0, 29, 6, 2, 1, 171
2019-12-31 13:54:46.906 +01:00 [INF] 31.12.2019 13:54:25.208, 1, 0, 24, 6, 25, 22, 183
2019-12-31 13:54:46.907 +01:00 [INF] 31.12.2019 13:54:25.212, 1, 0, 32, 6, 2, 0, 173
2019-12-31 13:54:46.908 +01:00 [INF] 31.12.2019 13:54:25.215, 1, 0, 33, 6, 2, 0, 174
2019-12-31 13:54:46.911 +01:00 [INF] 31.12.2019 13:54:25.222, 1, 0, 34, 6, 2, 0, 179
2019-12-31 13:54:46.913 +01:00 [INF] 31.12.2019 13:54:25.224, 1, 0, 36, 6, 4, 0, 178
2019-12-31 13:54:46.914 +01:00 [INF] 31.12.2019 13:54:25.228, 1, 0, 38, 6, 2, 0, 178
2019-12-31 13:54:46.915 +01:00 [INF] 31.12.2019 13:54:25.231, 1, 0, 31, 6, 4, 2, 194
2019-12-31 13:54:46.917 +01:00 [INF] 31.12.2019 13:54:25.231, 1, 0, 41, 6, 2, 0, 178
2019-12-31 13:54:46.918 +01:00 [INF] 31.12.2019 13:54:25.234, 1, 0, 26, 6, 2, 1, 207
2019-12-31 13:54:46.921 +01:00 [INF] 31.12.2019 13:54:25.237, 1, 0, 37, 6, 15, 0, 187
2019-12-31 13:54:46.923 +01:00 [INF] 31.12.2019 13:54:25.238, 1, 0, 30, 6, 18, 0, 202
2019-12-31 13:54:46.924 +01:00 [INF] 31.12.2019 13:54:25.242, 1, 0, 15, 6, 78, 76, 233
2019-12-31 13:54:46.925 +01:00 [INF] 31.12.2019 13:54:25.246, 1, 0, 40, 6, 2, 1, 194
2019-12-31 13:54:46.927 +01:00 [INF] 31.12.2019 13:54:25.249, 1, 0, 35, 6, 2, 0, 204
2019-12-31 13:54:46.928 +01:00 [INF] 31.12.2019 13:54:25.252, 1, 0, 25, 6, 65, 63, 225
2019-12-31 13:54:46.929 +01:00 [INF] 31.12.2019 13:54:25.252, 1, 0, 27, 6, 64, 13, 221
2019-12-31 13:54:46.934 +01:00 [INF] 31.12.2019 13:54:25.257, 1, 0, 16, 6, 93, 90, 246
2019-12-31 13:54:46.936 +01:00 [INF] 31.12.2019 13:54:25.257, 1, 0, 14, 6, 96, 90, 250
2019-12-31 13:54:46.937 +01:00 [INF] 31.12.2019 13:54:25.258, 1, 0, 13, 6, 95, 87, 251
2019-12-31 13:54:46.939 +01:00 [INF] 31.12.2019 13:54:25.259, 1, 0, 39, 6, 23, 1, 208
2019-12-31 13:54:46.941 +01:00 [INF] 31.12.2019 13:54:25.265, 1, 0, 22, 6, 81, 73, 243
2019-12-31 13:54:46.943 +01:00 [INF] 31.12.2019 13:54:25.265, 1, 0, 19, 6, 93, 8, 250
2019-12-31 13:54:46.945 +01:00 [INF] 31.12.2019 13:54:25.265, 1, 0, 20, 6, 72, 9, 247
2019-12-31 13:54:46.946 +01:00 [INF] 31.12.2019 13:54:25.270, 1, 0, 17, 6, 55, 7, 258
2019-12-31 13:54:46.947 +01:00 [INF] 31.12.2019 13:54:25.270, 1, 0, 18, 6, 55, 8, 256
2019-12-31 13:54:46.948 +01:00 [INF] 31.12.2019 13:54:25.270, 1, 0, 21, 6, 3, 2, 251
2019-12-31 13:54:46.950 +01:00 [INF] 31.12.2019 13:54:25.274, 1, 0, 12, 6, 115, 114, 273
2019-12-31 13:54:46.953 +01:00 [INF] 31.12.2019 13:54:25.703, 1, 0, 29, 7, 143, 142, 498
2019-12-31 13:54:46.955 +01:00 [INF] 31.12.2019 13:54:25.704, 1, 0, 38, 7, 161, 161, 475
2019-12-31 13:54:46.956 +01:00 [INF] 31.12.2019 13:54:25.704, 1, 0, 21, 7, 110, 110, 433
2019-12-31 13:54:46.958 +01:00 [INF] 31.12.2019 13:54:25.704, 1, 0, 34, 7, 109, 108, 482
2019-12-31 13:54:46.959 +01:00 [INF] 31.12.2019 13:54:25.705, 1, 0, 39, 7, 105, 104, 445
2019-12-31 13:54:46.960 +01:00 [INF] 31.12.2019 13:54:25.705, 1, 0, 31, 7, 141, 140, 474
2019-12-31 13:54:46.965 +01:00 [INF] 31.12.2019 13:54:25.705, 1, 0, 33, 7, 139, 138, 490
2019-12-31 13:54:46.967 +01:00 [INF] 31.12.2019 13:54:25.706, 1, 0, 36, 7, 111, 111, 482
2019-12-31 13:54:46.969 +01:00 [INF] 31.12.2019 13:54:25.706, 1, 0, 23, 7, 178, 177, 507
2019-12-31 13:54:46.971 +01:00 [INF] 31.12.2019 13:54:25.706, 1, 0, 25, 7, 107, 106, 453
2019-12-31 13:54:46.975 +01:00 [INF] 31.12.2019 13:54:25.707, 1, 0, 40, 7, 82, 81, 460
2019-12-31 13:54:46.977 +01:00 [INF] 31.12.2019 13:54:25.707, 1, 0, 24, 7, 154, 154, 498
2019-12-31 13:54:46.979 +01:00 [INF] 31.12.2019 13:54:25.707, 1, 0, 28, 7, 136, 135, 508
2019-12-31 13:54:46.981 +01:00 [INF] 31.12.2019 13:54:25.707, 1, 0, 37, 7, 91, 90, 469
2019-12-31 13:54:46.986 +01:00 [INF] 31.12.2019 13:54:25.707, 1, 0, 41, 7, 121, 120, 476
2019-12-31 13:54:46.988 +01:00 [INF] 31.12.2019 13:54:25.708, 1, 0, 16, 7, 119, 119, 450
2019-12-31 13:54:46.990 +01:00 [INF] 31.12.2019 13:54:25.718, 1, 0, 22, 7, 119, 119, 453
2019-12-31 13:54:46.992 +01:00 [INF] 31.12.2019 13:54:25.719, 1, 0, 19, 7, 115, 115, 453
2019-12-31 13:54:46.993 +01:00 [INF] 31.12.2019 13:54:25.720, 1, 0, 27, 7, 106, 106, 467
2019-12-31 13:54:46.998 +01:00 [INF] 31.12.2019 13:54:25.720, 1, 0, 12, 7, 151, 150, 446
2019-12-31 13:54:47.001 +01:00 [INF] 31.12.2019 13:54:25.721, 1, 0, 15, 7, 122, 121, 478
2019-12-31 13:54:47.004 +01:00 [INF] 31.12.2019 13:54:25.738, 1, 0, 17, 7, 106, 105, 468
2019-12-31 13:54:47.008 +01:00 [INF] 31.12.2019 13:54:25.739, 1, 0, 14, 7, 114, 113, 481
2019-12-31 13:54:47.011 +01:00 [INF] 31.12.2019 13:54:25.744, 1, 0, 26, 7, 107, 106, 509
2019-12-31 13:54:47.013 +01:00 [INF] 31.12.2019 13:54:25.747, 1, 0, 35, 7, 64, 64, 497
2019-12-31 13:54:47.014 +01:00 [INF] 31.12.2019 13:54:25.747, 1, 0, 18, 7, 83, 82, 476
2019-12-31 13:54:47.019 +01:00 [INF] 31.12.2019 13:54:25.747, 1, 0, 13, 7, 101, 100, 488
2019-12-31 13:54:47.021 +01:00 [INF] 31.12.2019 13:54:25.747, 1, 0, 20, 7, 88, 88, 481
2019-12-31 13:54:47.022 +01:00 [INF] 31.12.2019 13:54:25.908, 1, 0, 23, 14, 24, 23, 200
2019-12-31 13:54:47.024 +01:00 [INF] 31.12.2019 13:54:25.928, 1, 0, 22, 14, 38, 37, 209
2019-12-31 13:54:47.029 +01:00 [INF] 31.12.2019 13:54:25.932, 1, 0, 17, 14, 23, 22, 194
2019-12-31 13:54:47.032 +01:00 [INF] 31.12.2019 13:54:25.942, 1, 0, 38, 14, 62, 62, 234
2019-12-31 13:54:47.035 +01:00 [INF] 31.12.2019 13:54:25.942, 1, 0, 37, 14, 65, 64, 234
2019-12-31 13:54:47.039 +01:00 [INF] 31.12.2019 13:54:25.946, 1, 0, 21, 14, 53, 53, 238
2019-12-31 13:54:47.041 +01:00 [INF] 31.12.2019 13:54:25.954, 1, 0, 39, 14, 51, 51, 246
2019-12-31 13:54:47.042 +01:00 [INF] 31.12.2019 13:54:25.963, 1, 0, 35, 14, 31, 31, 216
2019-12-31 13:54:47.044 +01:00 [INF] 31.12.2019 13:54:25.963, 1, 0, 36, 14, 90, 90, 255
2019-12-31 13:54:47.045 +01:00 [INF] 31.12.2019 13:54:25.963, 1, 0, 14, 14, 51, 50, 224
2019-12-31 13:54:47.050 +01:00 [INF] 31.12.2019 13:54:25.982, 1, 0, 16, 14, 111, 111, 273
2019-12-31 13:54:47.051 +01:00 [INF] 31.12.2019 13:54:25.985, 1, 0, 32, 14, 32, 31, 276
2019-12-31 13:54:47.053 +01:00 [INF] 31.12.2019 13:54:25.986, 1, 0, 19, 14, 87, 86, 266
2019-12-31 13:54:47.054 +01:00 [INF] 31.12.2019 13:54:26.1, 1, 0, 13, 14, 63, 63, 254
2019-12-31 13:54:47.056 +01:00 [INF] 31.12.2019 13:54:26.5, 1, 0, 40, 14, 58, 58, 296
2019-12-31 13:54:47.059 +01:00 [INF] 31.12.2019 13:54:26.11, 1, 0, 31, 14, 43, 42, 303
2019-12-31 13:54:47.061 +01:00 [INF] 31.12.2019 13:54:26.12, 1, 0, 34, 14, 72, 72, 303
2019-12-31 13:54:47.063 +01:00 [INF] 31.12.2019 13:54:26.20, 1, 0, 18, 14, 38, 38, 273
2019-12-31 13:54:47.065 +01:00 [INF] 31.12.2019 13:54:26.28, 1, 0, 33, 14, 63, 62, 320
2019-12-31 13:54:47.069 +01:00 [INF] 31.12.2019 13:54:26.36, 1, 0, 24, 14, 133, 132, 328
2019-12-31 13:54:47.071 +01:00 [INF] 31.12.2019 13:54:26.54, 1, 0, 25, 14, 145, 144, 345
2019-12-31 13:54:47.073 +01:00 [INF] 31.12.2019 13:54:26.67, 1, 0, 41, 14, 146, 146, 359
2019-12-31 13:54:47.075 +01:00 [INF] 31.12.2019 13:54:26.67, 1, 0, 12, 14, 43, 42, 346
2019-12-31 13:54:47.079 +01:00 [INF] 31.12.2019 13:54:26.67, 1, 0, 20, 14, 45, 45, 319
2019-12-31 13:54:47.081 +01:00 [INF] 31.12.2019 13:54:26.78, 1, 0, 26, 14, 41, 40, 334
2019-12-31 13:54:47.082 +01:00 [INF] 31.12.2019 13:54:26.78, 1, 0, 15, 14, 78, 78, 357
2019-12-31 13:54:47.084 +01:00 [INF] 31.12.2019 13:54:26.78, 1, 0, 27, 14, 76, 76, 358
2019-12-31 13:54:47.086 +01:00 [INF] 31.12.2019 13:54:26.78, 1, 0, 23, 14, 4, 4, 169
2019-12-31 13:54:47.088 +01:00 [INF] 31.12.2019 13:54:26.78, 1, 0, 28, 14, 53, 52, 370
2019-12-31 13:54:47.090 +01:00 [INF] 31.12.2019 13:54:26.85, 1, 0, 22, 14, 3, 3, 157
2019-12-31 13:54:47.092 +01:00 [INF] 31.12.2019 13:54:26.91, 1, 0, 29, 14, 101, 101, 383
2019-12-31 13:54:47.094 +01:00 [INF] 31.12.2019 13:54:26.110, 1, 0, 17, 14, 19, 18, 178
2019-12-31 13:54:47.095 +01:00 [INF] 31.12.2019 13:54:26.147, 1, 0, 37, 14, 26, 25, 204
2019-12-31 13:54:47.098 +01:00 [INF] 31.12.2019 13:54:26.147, 1, 0, 35, 14, 13, 12, 184
2019-12-31 13:54:47.101 +01:00 [INF] 31.12.2019 13:54:26.148, 1, 0, 39, 14, 27, 27, 193
2019-12-31 13:54:47.103 +01:00 [INF] 31.12.2019 13:54:26.149, 1, 0, 38, 14, 28, 28, 206
2019-12-31 13:54:47.104 +01:00 [INF] 31.12.2019 13:54:26.149, 1, 0, 21, 14, 20, 19, 202
2019-12-31 13:54:47.106 +01:00 [INF] 31.12.2019 13:54:26.166, 1, 0, 32, 14, 9, 8, 181
2019-12-31 13:54:47.108 +01:00 [INF] 31.12.2019 13:54:26.172, 1, 0, 36, 14, 46, 46, 209
2019-12-31 13:54:47.110 +01:00 [INF] 31.12.2019 13:54:26.177, 1, 0, 14, 14, 36, 35, 213
2019-12-31 13:54:47.111 +01:00 [INF] 31.12.2019 13:54:26.185, 1, 0, 40, 14, 19, 18, 179
2019-12-31 13:54:47.113 +01:00 [INF] 31.12.2019 13:54:26.189, 1, 0, 16, 14, 45, 44, 207
2019-12-31 13:54:47.114 +01:00 [INF] 31.12.2019 13:54:26.189, 1, 0, 13, 14, 27, 27, 188
2019-12-31 13:54:47.116 +01:00 [INF] 31.12.2019 13:54:26.195, 1, 0, 19, 14, 43, 42, 209
2019-12-31 13:54:47.119 +01:00 [INF] 31.12.2019 13:54:26.199, 1, 0, 31, 14, 29, 29, 187
2019-12-31 13:54:47.121 +01:00 [INF] 31.12.2019 13:54:26.204, 1, 0, 33, 14, 16, 15, 175
2019-12-31 13:54:47.122 +01:00 [INF] 31.12.2019 13:54:26.204, 1, 0, 34, 14, 28, 28, 192
2019-12-31 13:54:47.124 +01:00 [INF] 31.12.2019 13:54:26.210, 1, 0, 18, 14, 30, 30, 190
2019-12-31 13:54:47.125 +01:00 [INF] 31.12.2019 13:54:26.211, 1, 0, 24, 14, 5, 4, 174
2019-12-31 13:54:47.128 +01:00 [INF] 31.12.2019 13:54:26.228, 1, 0, 20, 14, 3, 3, 160
2019-12-31 13:54:47.130 +01:00 [INF] 31.12.2019 13:54:26.228, 1, 0, 25, 14, 10, 9, 174
2019-12-31 13:54:47.131 +01:00 [INF] 31.12.2019 13:54:26.234, 1, 0, 12, 14, 4, 3, 167
2019-12-31 13:54:47.133 +01:00 [INF] 31.12.2019 13:54:26.272, 1, 0, 23, 14, 21, 21, 193
2019-12-31 13:54:47.134 +01:00 [INF] 31.12.2019 13:54:26.287, 1, 0, 28, 14, 30, 29, 209
2019-12-31 13:54:47.136 +01:00 [INF] 31.12.2019 13:54:26.295, 1, 0, 41, 14, 46, 46, 228
2019-12-31 13:54:47.139 +01:00 [INF] 31.12.2019 13:54:26.300, 1, 0, 22, 14, 49, 49, 214
2019-12-31 13:54:47.140 +01:00 [INF] 31.12.2019 13:54:26.306, 1, 0, 27, 14, 53, 52, 227
2019-12-31 13:54:47.142 +01:00 [INF] 31.12.2019 13:54:26.312, 1, 0, 17, 14, 23, 23, 201
2019-12-31 13:54:47.144 +01:00 [INF] 31.12.2019 13:54:26.312, 1, 0, 26, 14, 44, 43, 233
2019-12-31 13:54:47.145 +01:00 [INF] 31.12.2019 13:54:26.312, 1, 0, 15, 14, 58, 58, 233
2019-12-31 13:54:47.149 +01:00 [INF] 31.12.2019 13:54:26.318, 1, 0, 29, 14, 50, 49, 227
2019-12-31 13:54:47.151 +01:00 [INF] 31.12.2019 13:54:26.336, 1, 0, 32, 14, 12, 12, 169
2019-12-31 13:54:47.153 +01:00 [INF] 31.12.2019 13:54:26.361, 1, 0, 35, 14, 26, 25, 213
2019-12-31 13:54:47.154 +01:00 [INF] 31.12.2019 13:54:26.389, 1, 0, 39, 14, 49, 49, 241
2019-12-31 13:54:47.156 +01:00 [INF] 31.12.2019 13:54:26.390, 1, 0, 14, 14, 52, 52, 213
2019-12-31 13:54:47.158 +01:00 [INF] 31.12.2019 13:54:26.390, 1, 0, 21, 14, 67, 67, 241
2019-12-31 13:54:47.159 +01:00 [INF] 31.12.2019 13:54:26.403, 1, 0, 38, 14, 78, 77, 254
2019-12-31 13:54:47.161 +01:00 [INF] 31.12.2019 13:54:26.406, 1, 0, 40, 14, 65, 64, 221
2019-12-31 13:54:47.162 +01:00 [INF] 31.12.2019 13:54:26.408, 1, 0, 36, 14, 69, 69, 235
2019-12-31 13:54:47.163 +01:00 [INF] 31.12.2019 13:54:26.409, 1, 0, 37, 14, 72, 71, 261
2019-12-31 13:54:47.165 +01:00 [INF] 31.12.2019 13:54:26.411, 1, 0, 19, 14, 49, 48, 215
2019-12-31 13:54:47.166 +01:00 [INF] 31.12.2019 13:54:26.418, 1, 0, 16, 14, 52, 51, 228
2019-12-31 13:54:47.168 +01:00 [INF] 31.12.2019 13:54:26.429, 1, 0, 18, 14, 36, 35, 218
2019-12-31 13:54:47.170 +01:00 [INF] 31.12.2019 13:54:26.432, 1, 0, 33, 14, 63, 63, 228
2019-12-31 13:54:47.173 +01:00 [INF] 31.12.2019 13:54:26.437, 1, 0, 24, 14, 44, 43, 226
2019-12-31 13:54:47.174 +01:00 [INF] 31.12.2019 13:54:26.443, 1, 0, 31, 14, 47, 47, 243
2019-12-31 13:54:47.175 +01:00 [INF] 31.12.2019 13:54:26.446, 1, 0, 34, 14, 55, 55, 242
2019-12-31 13:54:47.178 +01:00 [INF] 31.12.2019 13:54:26.446, 1, 0, 23, 4, 0, 0, 171
2019-12-31 13:54:47.180 +01:00 [INF] 31.12.2019 13:54:26.456, 1, 0, 25, 14, 37, 37, 227
2019-12-31 13:54:47.185 +01:00 [INF] 31.12.2019 13:54:26.466, 1, 0, 12, 14, 50, 50, 231
2019-12-31 13:54:47.189 +01:00 [INF] 31.12.2019 13:54:26.466, 1, 0, 22, 4, 0, 0, 165
2019-12-31 13:54:47.191 +01:00 [INF] 31.12.2019 13:54:26.467, 1, 0, 20, 14, 47, 46, 238
2019-12-31 13:54:47.192 +01:00 [INF] 31.12.2019 13:54:26.468, 1, 0, 13, 14, 43, 42, 278
2019-12-31 13:54:47.194 +01:00 [INF] 31.12.2019 13:54:26.475, 1, 0, 17, 4, 0, 0, 163
2019-12-31 13:54:47.195 +01:00 [INF] 31.12.2019 13:54:26.476, 1, 0, 41, 14, 27, 26, 180
2019-12-31 13:54:47.197 +01:00 [INF] 31.12.2019 13:54:26.495, 1, 0, 32, 4, 0, 0, 157
2019-12-31 13:54:47.201 +01:00 [INF] 31.12.2019 13:54:26.495, 1, 0, 28, 14, 45, 45, 207
2019-12-31 13:54:47.203 +01:00 [INF] 31.12.2019 13:54:26.499, 1, 0, 15, 14, 27, 27, 187
2019-12-31 13:54:47.205 +01:00 [INF] 31.12.2019 13:54:26.503, 1, 0, 26, 14, 30, 30, 191
2019-12-31 13:54:47.207 +01:00 [INF] 31.12.2019 13:54:26.504, 1, 0, 30, 7, 91, 91, 1265
2019-12-31 13:54:47.210 +01:00 [INF] 31.12.2019 13:54:26.508, 1, 0, 29, 14, 31, 31, 189
2019-12-31 13:54:47.213 +01:00 [INF] 31.12.2019 13:54:26.518, 1, 0, 27, 14, 42, 42, 207
2019-12-31 13:54:47.215 +01:00 [INF] 31.12.2019 13:54:26.518, 1, 0, 35, 4, 0, 0, 157
2019-12-31 13:54:47.217 +01:00 [INF] 31.12.2019 13:54:26.542, 1, 0, 39, 4, 0, 0, 152
2019-12-31 13:54:47.221 +01:00 [INF] 31.12.2019 13:54:26.547, 1, 0, 14, 4, 0, 0, 156
2019-12-31 13:54:47.223 +01:00 [INF] 31.12.2019 13:54:26.552, 1, 0, 21, 4, 0, 0, 161
2019-12-31 13:54:47.224 +01:00 [INF] 31.12.2019 13:54:26.556, 1, 0, 38, 4, 0, 0, 152
2019-12-31 13:54:47.226 +01:00 [INF] 31.12.2019 13:54:26.559, 1, 0, 40, 4, 0, 0, 152
2019-12-31 13:54:47.228 +01:00 [INF] 31.12.2019 13:54:26.563, 1, 0, 36, 4, 0, 0, 154
2019-12-31 13:54:47.231 +01:00 [INF] 31.12.2019 13:54:26.564, 1, 0, 37, 4, 0, 0, 154
2019-12-31 13:54:47.234 +01:00 [INF] 31.12.2019 13:54:26.566, 1, 0, 19, 4, 0, 0, 154
2019-12-31 13:54:47.236 +01:00 [INF] 31.12.2019 13:54:26.569, 1, 0, 16, 4, 0, 0, 151
2019-12-31 13:54:47.237 +01:00 [INF] 31.12.2019 13:54:26.581, 1, 0, 18, 4, 0, 0, 151
2019-12-31 13:54:47.238 +01:00 [INF] 31.12.2019 13:54:26.583, 1, 0, 33, 4, 0, 0, 151
2019-12-31 13:54:47.239 +01:00 [INF] 31.12.2019 13:54:26.594, 1, 0, 31, 4, 0, 0, 151
2019-12-31 13:54:47.242 +01:00 [INF] 31.12.2019 13:54:26.596, 1, 0, 24, 4, 0, 0, 158
2019-12-31 13:54:47.244 +01:00 [INF] 31.12.2019 13:54:26.598, 1, 0, 34, 4, 0, 0, 151
2019-12-31 13:54:47.245 +01:00 [INF] 31.12.2019 13:54:26.620, 1, 0, 20, 4, 0, 0, 152
2019-12-31 13:54:47.246 +01:00 [INF] 31.12.2019 13:54:26.622, 1, 0, 12, 4, 0, 0, 156
2019-12-31 13:54:47.248 +01:00 [INF] 31.12.2019 13:54:26.628, 1, 0, 25, 4, 0, 0, 170
2019-12-31 13:54:47.249 +01:00 [INF] 31.12.2019 13:54:26.628, 1, 0, 13, 4, 0, 0, 160
2019-12-31 13:54:47.251 +01:00 [INF] 31.12.2019 13:54:26.628, 1, 0, 41, 4, 0, 0, 152
2019-12-31 13:54:47.253 +01:00 [INF] 31.12.2019 13:54:26.645, 1, 0, 28, 4, 0, 0, 150
2019-12-31 13:54:47.254 +01:00 [INF] 31.12.2019 13:54:26.651, 1, 0, 15, 4, 0, 0, 151
2019-12-31 13:54:47.255 +01:00 [INF] 31.12.2019 13:54:26.659, 1, 0, 26, 4, 0, 0, 155
2019-12-31 13:54:47.256 +01:00 [INF] 31.12.2019 13:54:26.667, 1, 0, 30, 14, 5, 4, 163
2019-12-31 13:54:47.258 +01:00 [INF] 31.12.2019 13:54:26.674, 1, 0, 27, 4, 0, 0, 156
2019-12-31 13:54:47.259 +01:00 [INF] 31.12.2019 13:54:26.832, 1, 0, 30, 14, 6, 5, 165
2019-12-31 13:54:47.261 +01:00 [INF] 31.12.2019 13:54:26.990, 1, 0, 30, 14, 6, 5, 157
2019-12-31 13:54:47.263 +01:00 [INF] 31.12.2019 13:54:27.142, 1, 0, 30, 4, 0, 0, 152
2019-12-31 13:54:47.264 +01:00 [INF] 31.12.2019 13:54:27.676, 1, 0, 29, 4, 0, 0, 1168
2019-12-31 13:54:55.830 +01:00 [INF] 5712
