2019-12-31 13:53:22.228 +01:00 [INF] 6905
2019-12-31 13:53:25.418 +01:00 [INF] 3073
2019-12-31 13:53:25.421 +01:00 [INF] Lista akcji:
2019-12-31 13:53:25.422 +01:00 [INF] Logowanie z pobraniem informacji o userze
2019-12-31 13:53:25.423 +01:00 [INF] WyswietlanieOfertSprzedazy
2019-12-31 13:53:25.424 +01:00 [INF] WycofanieOfertyKupna
2019-12-31 13:53:25.425 +01:00 [INF] WyswietlanieTransakcji
2019-12-31 13:53:25.426 +01:00 [INF] WyswietlanieOfertKupna
2019-12-31 13:53:25.428 +01:00 [INF] Wylogowanie
2019-12-31 13:53:43.033 +01:00 [INF] 31.12.2019 13:53:19.248, 1, 0, 30, 3, 457, 0, 2459
2019-12-31 13:53:43.036 +01:00 [INF] 31.12.2019 13:53:21.966, 1, 0, 30, 1, 0, 0, 2717
2019-12-31 13:53:43.037 +01:00 [INF] 31.12.2019 13:53:20.665, 1, 0, 35, 3, 851, 0, 3875
2019-12-31 13:53:43.039 +01:00 [INF] 31.12.2019 13:53:21.966, 1, 0, 35, 1, 0, 0, 1300
2019-12-31 13:53:43.040 +01:00 [INF] 31.12.2019 13:53:19.225, 1, 0, 34, 3, 477, 0, 2434
2019-12-31 13:53:43.041 +01:00 [INF] 31.12.2019 13:53:21.967, 1, 0, 34, 1, 0, 0, 2741
2019-12-31 13:53:43.043 +01:00 [INF] 31.12.2019 13:53:20.709, 1, 0, 27, 3, 814, 0, 3921
2019-12-31 13:53:43.045 +01:00 [INF] 31.12.2019 13:53:21.967, 1, 0, 37, 1, 0, 0, 1427
2019-12-31 13:53:43.046 +01:00 [INF] 31.12.2019 13:53:21.967, 1, 0, 27, 1, 0, 0, 1257
2019-12-31 13:53:43.047 +01:00 [INF] 31.12.2019 13:53:19.169, 1, 0, 36, 3, 397, 0, 2377
2019-12-31 13:53:43.049 +01:00 [INF] 31.12.2019 13:53:21.967, 1, 0, 36, 1, 0, 0, 2766
2019-12-31 13:53:43.050 +01:00 [INF] 31.12.2019 13:53:19.272, 1, 0, 25, 3, 489, 0, 2484
2019-12-31 13:53:43.051 +01:00 [INF] 31.12.2019 13:53:21.968, 1, 0, 25, 1, 0, 0, 2695
2019-12-31 13:53:43.052 +01:00 [INF] 31.12.2019 13:53:19.236, 1, 0, 20, 3, 459, 0, 2450
2019-12-31 13:53:43.054 +01:00 [INF] 31.12.2019 13:53:21.968, 1, 0, 20, 1, 0, 0, 2731
2019-12-31 13:53:43.055 +01:00 [INF] 31.12.2019 13:53:20.714, 1, 0, 21, 3, 798, 0, 3928
2019-12-31 13:53:43.056 +01:00 [INF] 31.12.2019 13:53:21.968, 1, 0, 21, 1, 0, 0, 1253
2019-12-31 13:53:43.057 +01:00 [INF] 31.12.2019 13:53:20.690, 1, 0, 13, 3, 804, 0, 3953
2019-12-31 13:53:43.058 +01:00 [INF] 31.12.2019 13:53:21.968, 1, 0, 13, 1, 0, 0, 1277
2019-12-31 13:53:43.060 +01:00 [INF] 31.12.2019 13:53:20.709, 1, 0, 40, 3, 769, 0, 3918
2019-12-31 13:53:43.061 +01:00 [INF] 31.12.2019 13:53:21.968, 1, 0, 40, 1, 0, 0, 1258
2019-12-31 13:53:43.063 +01:00 [INF] 31.12.2019 13:53:20.690, 1, 0, 22, 3, 808, 0, 3903
2019-12-31 13:53:43.065 +01:00 [INF] 31.12.2019 13:53:21.968, 1, 0, 22, 1, 0, 0, 1278
2019-12-31 13:53:43.066 +01:00 [INF] 31.12.2019 13:53:19.234, 1, 0, 12, 3, 491, 0, 3733
2019-12-31 13:53:43.067 +01:00 [INF] 31.12.2019 13:53:21.968, 1, 0, 12, 1, 0, 0, 2734
2019-12-31 13:53:43.069 +01:00 [INF] 31.12.2019 13:53:20.538, 1, 0, 38, 3, 728, 0, 3747
2019-12-31 13:53:43.070 +01:00 [INF] 31.12.2019 13:53:21.968, 1, 0, 38, 1, 0, 0, 1429
2019-12-31 13:53:43.073 +01:00 [INF] 31.12.2019 13:53:20.696, 1, 0, 31, 3, 867, 0, 3907
2019-12-31 13:53:43.075 +01:00 [INF] 31.12.2019 13:53:21.969, 1, 0, 31, 1, 0, 0, 1272
2019-12-31 13:53:43.076 +01:00 [INF] 31.12.2019 13:53:20.710, 1, 0, 41, 3, 795, 0, 3918
2019-12-31 13:53:43.077 +01:00 [INF] 31.12.2019 13:53:21.969, 1, 0, 41, 1, 0, 0, 1258
2019-12-31 13:53:43.079 +01:00 [INF] 31.12.2019 13:53:19.256, 1, 0, 15, 3, 465, 0, 2471
2019-12-31 13:53:43.081 +01:00 [INF] 31.12.2019 13:53:21.969, 1, 0, 15, 1, 0, 0, 2712
2019-12-31 13:53:43.084 +01:00 [INF] 31.12.2019 13:53:19.169, 1, 0, 39, 3, 379, 0, 2377
2019-12-31 13:53:43.093 +01:00 [INF] 31.12.2019 13:53:21.967, 1, 0, 39, 1, 0, 0, 2765
2019-12-31 13:53:43.096 +01:00 [INF] 31.12.2019 13:53:19.546, 1, 0, 18, 3, 467, 0, 2759
2019-12-31 13:53:43.098 +01:00 [INF] 31.12.2019 13:53:21.969, 1, 0, 18, 1, 0, 0, 2423
2019-12-31 13:53:43.099 +01:00 [INF] 31.12.2019 13:53:19.240, 1, 0, 26, 3, 465, 0, 2451
2019-12-31 13:53:43.102 +01:00 [INF] 31.12.2019 13:53:21.975, 1, 0, 26, 1, 3, 3, 2735
2019-12-31 13:53:43.104 +01:00 [INF] 31.12.2019 13:53:21.969, 1, 0, 29, 3, 33, 0, 5180
2019-12-31 13:53:43.106 +01:00 [INF] 31.12.2019 13:53:22.144, 1, 0, 29, 1, 1, 1, 175
2019-12-31 13:53:43.108 +01:00 [INF] 31.12.2019 13:53:21.972, 1, 0, 17, 3, 55, 0, 5186
2019-12-31 13:53:43.109 +01:00 [INF] 31.12.2019 13:53:22.144, 1, 0, 17, 1, 1, 1, 172
2019-12-31 13:53:43.112 +01:00 [INF] 31.12.2019 13:53:22.34, 1, 0, 28, 3, 135, 0, 5245
2019-12-31 13:53:43.114 +01:00 [INF] 31.12.2019 13:53:22.187, 1, 0, 28, 1, 0, 0, 153
2019-12-31 13:53:43.115 +01:00 [INF] 31.12.2019 13:53:22.36, 1, 0, 19, 3, 125, 0, 5250
2019-12-31 13:53:43.117 +01:00 [INF] 31.12.2019 13:53:22.200, 1, 0, 19, 1, 1, 1, 163
2019-12-31 13:53:43.118 +01:00 [INF] 31.12.2019 13:53:22.41, 1, 0, 16, 3, 105, 0, 5255
2019-12-31 13:53:43.120 +01:00 [INF] 31.12.2019 13:53:22.216, 1, 0, 16, 1, 3, 3, 174
2019-12-31 13:53:43.123 +01:00 [INF] 31.12.2019 13:53:22.40, 1, 0, 24, 3, 97, 0, 5253
2019-12-31 13:53:43.125 +01:00 [INF] 31.12.2019 13:53:22.217, 1, 0, 24, 1, 1, 1, 176
2019-12-31 13:53:43.126 +01:00 [INF] 31.12.2019 13:53:22.47, 1, 0, 32, 3, 90, 0, 5258
2019-12-31 13:53:43.129 +01:00 [INF] 31.12.2019 13:53:22.222, 1, 0, 32, 1, 1, 1, 174
2019-12-31 13:53:43.130 +01:00 [INF] 31.12.2019 13:53:22.47, 1, 0, 33, 3, 83, 0, 5257
2019-12-31 13:53:43.134 +01:00 [INF] 31.12.2019 13:53:22.222, 1, 0, 33, 1, 2, 2, 174
2019-12-31 13:53:43.136 +01:00 [INF] 31.12.2019 13:53:22.40, 1, 0, 23, 3, 254, 0, 5253
2019-12-31 13:53:43.137 +01:00 [INF] 31.12.2019 13:53:22.226, 1, 0, 23, 1, 1, 1, 186
2019-12-31 13:53:43.139 +01:00 [INF] 31.12.2019 13:53:22.39, 1, 0, 14, 3, 103, 0, 5255
2019-12-31 13:53:43.141 +01:00 [INF] 31.12.2019 13:53:22.226, 1, 0, 14, 1, 1, 1, 186
2019-12-31 13:53:43.143 +01:00 [INF] 31.12.2019 13:53:22.685, 1, 0, 18, 8, 94, 94, 316
2019-12-31 13:53:43.145 +01:00 [INF] 31.12.2019 13:53:22.685, 1, 0, 19, 8, 76, 75, 313
2019-12-31 13:53:43.146 +01:00 [INF] 31.12.2019 13:53:22.685, 1, 0, 21, 8, 81, 80, 307
2019-12-31 13:53:43.148 +01:00 [INF] 31.12.2019 13:53:22.685, 1, 0, 20, 8, 49, 49, 310
2019-12-31 13:53:43.149 +01:00 [INF] 31.12.2019 13:53:22.687, 1, 0, 22, 8, 63, 62, 303
2019-12-31 13:53:43.151 +01:00 [INF] 31.12.2019 13:53:22.690, 1, 0, 28, 8, 66, 65, 287
2019-12-31 13:53:43.156 +01:00 [INF] 31.12.2019 13:53:22.710, 1, 0, 23, 8, 52, 51, 323
2019-12-31 13:53:43.160 +01:00 [INF] 31.12.2019 13:53:22.725, 1, 0, 26, 8, 90, 90, 329
2019-12-31 13:53:43.161 +01:00 [INF] 31.12.2019 13:53:22.735, 1, 0, 25, 8, 101, 100, 341
2019-12-31 13:53:43.163 +01:00 [INF] 31.12.2019 13:53:22.736, 1, 0, 34, 8, 50, 50, 309
2019-12-31 13:53:43.181 +01:00 [INF] 31.12.2019 13:53:22.737, 1, 0, 17, 8, 103, 103, 370
2019-12-31 13:53:43.185 +01:00 [INF] 31.12.2019 13:53:22.738, 1, 0, 31, 8, 85, 85, 324
2019-12-31 13:53:43.189 +01:00 [INF] 31.12.2019 13:53:22.739, 1, 0, 40, 8, 41, 40, 283
2019-12-31 13:53:43.193 +01:00 [INF] 31.12.2019 13:53:22.748, 1, 0, 14, 8, 122, 122, 388
2019-12-31 13:53:43.197 +01:00 [INF] 31.12.2019 13:53:22.752, 1, 0, 32, 8, 29, 28, 335
2019-12-31 13:53:43.201 +01:00 [INF] 31.12.2019 13:53:22.760, 1, 0, 33, 8, 87, 87, 337
2019-12-31 13:53:43.202 +01:00 [INF] 31.12.2019 13:53:22.765, 1, 0, 16, 8, 69, 69, 400
2019-12-31 13:53:43.207 +01:00 [INF] 31.12.2019 13:53:22.775, 1, 0, 35, 8, 55, 55, 343
2019-12-31 13:53:43.209 +01:00 [INF] 31.12.2019 13:53:22.776, 1, 0, 39, 8, 38, 37, 323
2019-12-31 13:53:43.214 +01:00 [INF] 31.12.2019 13:53:22.785, 1, 0, 41, 8, 48, 47, 326
2019-12-31 13:53:43.219 +01:00 [INF] 31.12.2019 13:53:22.785, 1, 0, 24, 8, 74, 74, 395
2019-12-31 13:53:43.225 +01:00 [INF] 31.12.2019 13:53:22.785, 1, 0, 15, 8, 94, 93, 423
2019-12-31 13:53:43.232 +01:00 [INF] 31.12.2019 13:53:22.800, 1, 0, 36, 8, 38, 37, 363
2019-12-31 13:53:43.238 +01:00 [INF] 31.12.2019 13:53:22.803, 1, 0, 29, 8, 29, 28, 397
2019-12-31 13:53:43.242 +01:00 [INF] 31.12.2019 13:53:22.803, 1, 0, 30, 8, 47, 46, 392
2019-12-31 13:53:43.256 +01:00 [INF] 31.12.2019 13:53:22.810, 1, 0, 37, 8, 80, 79, 369
2019-12-31 13:53:43.259 +01:00 [INF] 31.12.2019 13:53:22.854, 1, 0, 13, 8, 159, 158, 496
2019-12-31 13:53:43.266 +01:00 [INF] 31.12.2019 13:53:22.855, 1, 0, 12, 8, 190, 189, 502
2019-12-31 13:53:43.275 +01:00 [INF] 31.12.2019 13:53:22.862, 1, 0, 27, 8, 77, 77, 462
2019-12-31 13:53:43.279 +01:00 [INF] 31.12.2019 13:53:22.864, 1, 0, 38, 8, 43, 42, 415
2019-12-31 13:53:43.281 +01:00 [INF] 31.12.2019 13:53:22.968, 1, 0, 28, 11, 87, 87, 277
2019-12-31 13:53:43.284 +01:00 [INF] 31.12.2019 13:53:22.972, 1, 0, 22, 11, 108, 107, 281
2019-12-31 13:53:43.286 +01:00 [INF] 31.12.2019 13:53:22.974, 1, 0, 21, 11, 103, 102, 283
2019-12-31 13:53:43.288 +01:00 [INF] 31.12.2019 13:53:22.985, 1, 0, 18, 11, 109, 109, 294
2019-12-31 13:53:43.291 +01:00 [INF] 31.12.2019 13:53:22.985, 1, 0, 20, 11, 110, 110, 294
2019-12-31 13:53:43.294 +01:00 [INF] 31.12.2019 13:53:23.4, 1, 0, 25, 11, 111, 111, 269
2019-12-31 13:53:43.296 +01:00 [INF] 31.12.2019 13:53:23.7, 1, 0, 23, 11, 123, 123, 286
2019-12-31 13:53:43.298 +01:00 [INF] 31.12.2019 13:53:23.35, 1, 0, 26, 11, 141, 140, 309
2019-12-31 13:53:43.300 +01:00 [INF] 31.12.2019 13:53:23.38, 1, 0, 31, 11, 115, 115, 300
2019-12-31 13:53:43.301 +01:00 [INF] 31.12.2019 13:53:23.72, 1, 0, 19, 11, 142, 142, 381
2019-12-31 13:53:43.305 +01:00 [INF] 31.12.2019 13:53:23.81, 1, 0, 32, 11, 115, 115, 328
2019-12-31 13:53:43.308 +01:00 [INF] 31.12.2019 13:53:23.85, 1, 0, 35, 11, 98, 97, 310
2019-12-31 13:53:43.309 +01:00 [INF] 31.12.2019 13:53:23.101, 1, 0, 17, 11, 122, 121, 364
2019-12-31 13:53:43.311 +01:00 [INF] 31.12.2019 13:53:23.101, 1, 0, 14, 11, 123, 122, 352
2019-12-31 13:53:43.315 +01:00 [INF] 31.12.2019 13:53:23.108, 1, 0, 16, 11, 123, 123, 343
2019-12-31 13:53:43.316 +01:00 [INF] 31.12.2019 13:53:23.128, 1, 0, 24, 11, 118, 117, 342
2019-12-31 13:53:43.318 +01:00 [INF] 31.12.2019 13:53:23.142, 1, 0, 34, 11, 102, 101, 405
2019-12-31 13:53:43.320 +01:00 [INF] 31.12.2019 13:53:23.146, 1, 0, 15, 11, 140, 140, 361
2019-12-31 13:53:43.321 +01:00 [INF] 31.12.2019 13:53:23.154, 1, 0, 33, 11, 113, 113, 394
2019-12-31 13:53:43.325 +01:00 [INF] 31.12.2019 13:53:23.182, 1, 0, 30, 11, 108, 107, 378
2019-12-31 13:53:43.327 +01:00 [INF] 31.12.2019 13:53:23.196, 1, 0, 40, 11, 92, 91, 456
2019-12-31 13:53:43.329 +01:00 [INF] 31.12.2019 13:53:23.209, 1, 0, 27, 11, 101, 101, 346
2019-12-31 13:53:43.330 +01:00 [INF] 31.12.2019 13:53:23.212, 1, 0, 36, 11, 124, 123, 411
2019-12-31 13:53:43.332 +01:00 [INF] 31.12.2019 13:53:23.217, 1, 0, 29, 11, 114, 114, 414
2019-12-31 13:53:43.335 +01:00 [INF] 31.12.2019 13:53:23.239, 1, 0, 25, 13, 14, 14, 235
2019-12-31 13:53:43.337 +01:00 [INF] 31.12.2019 13:53:23.239, 1, 0, 22, 13, 23, 23, 266
2019-12-31 13:53:43.339 +01:00 [INF] 31.12.2019 13:53:23.240, 1, 0, 28, 13, 34, 34, 267
2019-12-31 13:53:43.340 +01:00 [INF] 31.12.2019 13:53:23.246, 1, 0, 23, 13, 28, 27, 238
2019-12-31 13:53:43.342 +01:00 [INF] 31.12.2019 13:53:23.251, 1, 0, 18, 13, 1, 1, 265
2019-12-31 13:53:43.345 +01:00 [INF] 31.12.2019 13:53:23.252, 1, 0, 20, 13, 43, 42, 266
2019-12-31 13:53:43.347 +01:00 [INF] 31.12.2019 13:53:23.258, 1, 0, 32, 13, 6, 5, 177
2019-12-31 13:53:43.348 +01:00 [INF] 31.12.2019 13:53:23.260, 1, 0, 21, 13, 1, 1, 285
2019-12-31 13:53:43.350 +01:00 [INF] 31.12.2019 13:53:23.264, 1, 0, 17, 13, 4, 4, 162
2019-12-31 13:53:43.351 +01:00 [INF] 31.12.2019 13:53:23.265, 1, 0, 26, 13, 19, 18, 230
2019-12-31 13:53:43.354 +01:00 [INF] 31.12.2019 13:53:23.273, 1, 0, 14, 13, 2, 1, 171
2019-12-31 13:53:43.355 +01:00 [INF] 31.12.2019 13:53:23.273, 1, 0, 35, 13, 4, 4, 187
2019-12-31 13:53:43.357 +01:00 [INF] 31.12.2019 13:53:23.278, 1, 0, 19, 13, 35, 35, 206
2019-12-31 13:53:43.358 +01:00 [INF] 31.12.2019 13:53:23.278, 1, 0, 16, 13, 5, 5, 170
2019-12-31 13:53:43.360 +01:00 [INF] 31.12.2019 13:53:23.282, 1, 0, 31, 13, 45, 44, 244
2019-12-31 13:53:43.362 +01:00 [INF] 31.12.2019 13:53:23.292, 1, 0, 24, 13, 2, 1, 163
2019-12-31 13:53:43.364 +01:00 [INF] 31.12.2019 13:53:23.293, 1, 0, 37, 11, 142, 141, 482
2019-12-31 13:53:43.366 +01:00 [INF] 31.12.2019 13:53:23.298, 1, 0, 34, 13, 1, 0, 156
2019-12-31 13:53:43.367 +01:00 [INF] 31.12.2019 13:53:23.298, 1, 0, 38, 11, 138, 137, 433
2019-12-31 13:53:43.368 +01:00 [INF] 31.12.2019 13:53:23.301, 1, 0, 15, 13, 1, 1, 154
2019-12-31 13:53:43.369 +01:00 [INF] 31.12.2019 13:53:23.306, 1, 0, 41, 11, 132, 131, 521
2019-12-31 13:53:43.371 +01:00 [INF] 31.12.2019 13:53:23.307, 1, 0, 39, 11, 75, 74, 530
2019-12-31 13:53:43.372 +01:00 [INF] 31.12.2019 13:53:23.312, 1, 0, 12, 11, 199, 198, 456
2019-12-31 13:53:43.375 +01:00 [INF] 31.12.2019 13:53:23.315, 1, 0, 33, 13, 3, 2, 160
2019-12-31 13:53:43.377 +01:00 [INF] 31.12.2019 13:53:23.319, 1, 0, 13, 11, 156, 155, 465
2019-12-31 13:53:43.379 +01:00 [INF] 31.12.2019 13:53:23.338, 1, 0, 30, 13, 1, 1, 155
2019-12-31 13:53:43.380 +01:00 [INF] 31.12.2019 13:53:23.350, 1, 0, 40, 13, 1, 1, 154
2019-12-31 13:53:43.382 +01:00 [INF] 31.12.2019 13:53:23.362, 1, 0, 27, 13, 2, 1, 153
2019-12-31 13:53:43.385 +01:00 [INF] 31.12.2019 13:53:23.374, 1, 0, 29, 13, 2, 2, 157
2019-12-31 13:53:43.387 +01:00 [INF] 31.12.2019 13:53:23.378, 1, 0, 36, 13, 4, 4, 166
2019-12-31 13:53:43.388 +01:00 [INF] 31.12.2019 13:53:23.495, 1, 0, 28, 11, 91, 90, 255
2019-12-31 13:53:43.390 +01:00 [INF] 31.12.2019 13:53:23.519, 1, 0, 22, 11, 108, 108, 279
2019-12-31 13:53:43.391 +01:00 [INF] 31.12.2019 13:53:23.519, 1, 0, 18, 11, 104, 104, 268
2019-12-31 13:53:43.392 +01:00 [INF] 31.12.2019 13:53:23.539, 1, 0, 12, 13, 3, 2, 226
2019-12-31 13:53:43.393 +01:00 [INF] 31.12.2019 13:53:23.539, 1, 0, 41, 13, 7, 6, 232
2019-12-31 13:53:43.397 +01:00 [INF] 31.12.2019 13:53:23.545, 1, 0, 37, 13, 26, 25, 252
2019-12-31 13:53:43.398 +01:00 [INF] 31.12.2019 13:53:23.547, 1, 0, 32, 11, 91, 91, 289
2019-12-31 13:53:43.400 +01:00 [INF] 31.12.2019 13:53:23.552, 1, 0, 13, 13, 15, 14, 232
2019-12-31 13:53:43.402 +01:00 [INF] 31.12.2019 13:53:23.561, 1, 0, 20, 11, 119, 119, 309
2019-12-31 13:53:43.403 +01:00 [INF] 31.12.2019 13:53:23.582, 1, 0, 17, 11, 133, 133, 318
2019-12-31 13:53:43.406 +01:00 [INF] 31.12.2019 13:53:23.584, 1, 0, 25, 11, 102, 102, 344
2019-12-31 13:53:43.407 +01:00 [INF] 31.12.2019 13:53:23.591, 1, 0, 21, 11, 141, 141, 330
2019-12-31 13:53:43.409 +01:00 [INF] 31.12.2019 13:53:23.591, 1, 0, 26, 11, 149, 148, 325
2019-12-31 13:53:43.410 +01:00 [INF] 31.12.2019 13:53:23.619, 1, 0, 23, 11, 114, 113, 372
2019-12-31 13:53:43.411 +01:00 [INF] 31.12.2019 13:53:23.625, 1, 0, 34, 11, 71, 70, 327
2019-12-31 13:53:43.413 +01:00 [INF] 31.12.2019 13:53:23.636, 1, 0, 31, 11, 114, 114, 353
2019-12-31 13:53:43.415 +01:00 [INF] 31.12.2019 13:53:23.636, 1, 0, 24, 11, 102, 102, 344
2019-12-31 13:53:43.417 +01:00 [INF] 31.12.2019 13:53:23.646, 1, 0, 14, 11, 117, 116, 373
2019-12-31 13:53:43.418 +01:00 [INF] 31.12.2019 13:53:23.651, 1, 0, 39, 13, 20, 19, 342
2019-12-31 13:53:43.419 +01:00 [INF] 31.12.2019 13:53:23.651, 1, 0, 19, 11, 104, 103, 372
2019-12-31 13:53:43.421 +01:00 [INF] 31.12.2019 13:53:23.655, 1, 0, 38, 13, 27, 26, 357
2019-12-31 13:53:43.422 +01:00 [INF] 31.12.2019 13:53:23.687, 1, 0, 29, 11, 101, 100, 312
2019-12-31 13:53:43.425 +01:00 [INF] 31.12.2019 13:53:23.689, 1, 0, 28, 14, 22, 21, 189
2019-12-31 13:53:43.426 +01:00 [INF] 31.12.2019 13:53:23.704, 1, 0, 36, 11, 110, 110, 325
2019-12-31 13:53:43.427 +01:00 [INF] 31.12.2019 13:53:23.710, 1, 0, 35, 11, 119, 119, 437
2019-12-31 13:53:43.429 +01:00 [INF] 31.12.2019 13:53:23.721, 1, 0, 15, 11, 128, 127, 419
2019-12-31 13:53:43.430 +01:00 [INF] 31.12.2019 13:53:23.729, 1, 0, 22, 14, 32, 31, 209
2019-12-31 13:53:43.431 +01:00 [INF] 31.12.2019 13:53:23.729, 1, 0, 40, 11, 96, 96, 378
2019-12-31 13:53:43.435 +01:00 [INF] 31.12.2019 13:53:23.739, 1, 0, 18, 14, 34, 33, 219
2019-12-31 13:53:43.437 +01:00 [INF] 31.12.2019 13:53:23.741, 1, 0, 27, 11, 97, 96, 378
2019-12-31 13:53:43.438 +01:00 [INF] 31.12.2019 13:53:23.741, 1, 0, 30, 11, 90, 89, 403
2019-12-31 13:53:43.439 +01:00 [INF] 31.12.2019 13:53:23.747, 1, 0, 33, 11, 113, 112, 431
2019-12-31 13:53:43.440 +01:00 [INF] 31.12.2019 13:53:23.751, 1, 0, 16, 11, 104, 104, 472
2019-12-31 13:53:43.442 +01:00 [INF] 31.12.2019 13:53:23.757, 1, 0, 20, 14, 31, 31, 195
2019-12-31 13:53:43.443 +01:00 [INF] 31.12.2019 13:53:23.758, 1, 0, 32, 14, 17, 17, 210
2019-12-31 13:53:43.448 +01:00 [INF] 31.12.2019 13:53:23.799, 1, 0, 17, 14, 38, 38, 216
2019-12-31 13:53:43.449 +01:00 [INF] 31.12.2019 13:53:23.832, 1, 0, 21, 14, 68, 68, 241
2019-12-31 13:53:43.451 +01:00 [INF] 31.12.2019 13:53:23.832, 1, 0, 26, 14, 70, 70, 240
2019-12-31 13:53:43.452 +01:00 [INF] 31.12.2019 13:53:23.842, 1, 0, 23, 14, 39, 38, 223
2019-12-31 13:53:43.454 +01:00 [INF] 31.12.2019 13:53:23.846, 1, 0, 37, 11, 125, 124, 300
2019-12-31 13:53:43.457 +01:00 [INF] 31.12.2019 13:53:23.855, 1, 0, 25, 14, 52, 51, 269
2019-12-31 13:53:43.459 +01:00 [INF] 31.12.2019 13:53:23.860, 1, 0, 41, 11, 131, 131, 320
2019-12-31 13:53:43.461 +01:00 [INF] 31.12.2019 13:53:23.874, 1, 0, 24, 14, 44, 43, 237
2019-12-31 13:53:43.463 +01:00 [INF] 31.12.2019 13:53:23.882, 1, 0, 31, 14, 67, 66, 245
2019-12-31 13:53:43.464 +01:00 [INF] 31.12.2019 13:53:23.897, 1, 0, 34, 14, 72, 71, 271
2019-12-31 13:53:43.468 +01:00 [INF] 31.12.2019 13:53:23.915, 1, 0, 35, 14, 32, 32, 204
2019-12-31 13:53:43.470 +01:00 [INF] 31.12.2019 13:53:23.932, 1, 0, 19, 14, 90, 89, 280
2019-12-31 13:53:43.472 +01:00 [INF] 31.12.2019 13:53:23.949, 1, 0, 14, 14, 86, 86, 302
2019-12-31 13:53:43.474 +01:00 [INF] 31.12.2019 13:53:23.950, 1, 0, 13, 11, 219, 219, 397
2019-12-31 13:53:43.476 +01:00 [INF] 31.12.2019 13:53:23.958, 1, 0, 29, 14, 91, 90, 271
2019-12-31 13:53:43.480 +01:00 [INF] 31.12.2019 13:53:23.965, 1, 0, 39, 11, 136, 135, 313
2019-12-31 13:53:43.482 +01:00 [INF] 31.12.2019 13:53:23.968, 1, 0, 38, 11, 135, 134, 313
2019-12-31 13:53:43.484 +01:00 [INF] 31.12.2019 13:53:23.976, 1, 0, 36, 14, 76, 75, 271
2019-12-31 13:53:43.485 +01:00 [INF] 31.12.2019 13:53:23.983, 1, 0, 27, 14, 57, 57, 242
2019-12-31 13:53:43.486 +01:00 [INF] 31.12.2019 13:53:23.999, 1, 0, 40, 14, 47, 47, 270
2019-12-31 13:53:43.489 +01:00 [INF] 31.12.2019 13:53:24.18, 1, 0, 12, 11, 224, 223, 479
2019-12-31 13:53:43.491 +01:00 [INF] 31.12.2019 13:53:24.21, 1, 0, 16, 14, 66, 66, 270
2019-12-31 13:53:43.492 +01:00 [INF] 31.12.2019 13:53:24.64, 1, 0, 33, 14, 63, 63, 317
2019-12-31 13:53:43.493 +01:00 [INF] 31.12.2019 13:53:24.64, 1, 0, 30, 14, 65, 64, 323
2019-12-31 13:53:43.495 +01:00 [INF] 31.12.2019 13:53:24.64, 1, 0, 15, 14, 85, 85, 342
2019-12-31 13:53:43.496 +01:00 [INF] 31.12.2019 13:53:24.65, 1, 0, 22, 11, 127, 127, 336
2019-12-31 13:53:43.499 +01:00 [INF] 31.12.2019 13:53:24.71, 1, 0, 18, 11, 143, 143, 332
2019-12-31 13:53:43.500 +01:00 [INF] 31.12.2019 13:53:24.101, 1, 0, 28, 11, 138, 137, 410
2019-12-31 13:53:43.501 +01:00 [INF] 31.12.2019 13:53:24.133, 1, 0, 17, 11, 136, 135, 333
2019-12-31 13:53:43.503 +01:00 [INF] 31.12.2019 13:53:24.135, 1, 0, 37, 14, 58, 58, 289
2019-12-31 13:53:43.504 +01:00 [INF] 31.12.2019 13:53:24.141, 1, 0, 20, 11, 142, 141, 384
2019-12-31 13:53:43.506 +01:00 [INF] 31.12.2019 13:53:24.153, 1, 0, 32, 11, 118, 118, 394
2019-12-31 13:53:43.507 +01:00 [INF] 31.12.2019 13:53:24.157, 1, 0, 26, 11, 145, 145, 324
2019-12-31 13:53:43.510 +01:00 [INF] 31.12.2019 13:53:24.167, 1, 0, 41, 14, 18, 18, 307
2019-12-31 13:53:43.511 +01:00 [INF] 31.12.2019 13:53:24.174, 1, 0, 23, 11, 143, 143, 331
2019-12-31 13:53:43.513 +01:00 [INF] 31.12.2019 13:53:24.180, 1, 0, 13, 14, 25, 24, 229
2019-12-31 13:53:43.514 +01:00 [INF] 31.12.2019 13:53:24.180, 1, 0, 24, 11, 129, 128, 306
2019-12-31 13:53:43.516 +01:00 [INF] 31.12.2019 13:53:24.191, 1, 0, 31, 11, 133, 133, 309
2019-12-31 13:53:43.517 +01:00 [INF] 31.12.2019 13:53:24.200, 1, 0, 25, 11, 140, 139, 345
2019-12-31 13:53:43.520 +01:00 [INF] 31.12.2019 13:53:24.234, 1, 0, 39, 14, 53, 52, 269
2019-12-31 13:53:43.521 +01:00 [INF] 31.12.2019 13:53:24.238, 1, 0, 38, 14, 60, 59, 269
2019-12-31 13:53:43.522 +01:00 [INF] 31.12.2019 13:53:24.256, 1, 0, 34, 11, 122, 121, 358
2019-12-31 13:53:43.524 +01:00 [INF] 31.12.2019 13:53:24.261, 1, 0, 18, 4, 0, 0, 188
2019-12-31 13:53:43.525 +01:00 [INF] 31.12.2019 13:53:24.261, 1, 0, 22, 4, 0, 0, 188
2019-12-31 13:53:43.534 +01:00 [INF] 31.12.2019 13:53:24.263, 1, 0, 35, 11, 124, 123, 348
2019-12-31 13:53:43.535 +01:00 [INF] 31.12.2019 13:53:24.268, 1, 0, 21, 11, 131, 130, 435
2019-12-31 13:53:43.537 +01:00 [INF] 31.12.2019 13:53:24.278, 1, 0, 14, 11, 141, 140, 329
2019-12-31 13:53:43.540 +01:00 [INF] 31.12.2019 13:53:24.281, 1, 0, 12, 14, 42, 41, 263
2019-12-31 13:53:43.542 +01:00 [INF] 31.12.2019 13:53:24.291, 1, 0, 28, 4, 0, 0, 189
2019-12-31 13:53:43.544 +01:00 [INF] 31.12.2019 13:53:24.292, 1, 0, 17, 4, 0, 0, 159
2019-12-31 13:53:43.545 +01:00 [INF] 31.12.2019 13:53:24.294, 1, 0, 20, 4, 0, 0, 152
2019-12-31 13:53:43.547 +01:00 [INF] 31.12.2019 13:53:24.297, 1, 0, 36, 11, 104, 104, 320
2019-12-31 13:53:43.550 +01:00 [INF] 31.12.2019 13:53:24.306, 1, 0, 40, 11, 100, 100, 306
2019-12-31 13:53:43.553 +01:00 [INF] 31.12.2019 13:53:24.309, 1, 0, 27, 11, 122, 121, 325
2019-12-31 13:53:43.555 +01:00 [INF] 31.12.2019 13:53:24.309, 1, 0, 32, 4, 0, 0, 156
2019-12-31 13:53:43.557 +01:00 [INF] 31.12.2019 13:53:24.312, 1, 0, 26, 4, 0, 0, 154
2019-12-31 13:53:43.560 +01:00 [INF] 31.12.2019 13:53:24.314, 1, 0, 19, 11, 133, 132, 381
2019-12-31 13:53:43.564 +01:00 [INF] 31.12.2019 13:53:24.322, 1, 0, 16, 11, 130, 130, 301
2019-12-31 13:53:43.565 +01:00 [INF] 31.12.2019 13:53:24.327, 1, 0, 23, 4, 0, 0, 153
2019-12-31 13:53:43.567 +01:00 [INF] 31.12.2019 13:53:24.335, 1, 0, 24, 4, 0, 0, 154
2019-12-31 13:53:43.570 +01:00 [INF] 31.12.2019 13:53:24.343, 1, 0, 31, 4, 0, 0, 151
2019-12-31 13:53:43.572 +01:00 [INF] 31.12.2019 13:53:24.344, 1, 0, 33, 11, 91, 91, 279
2019-12-31 13:53:43.574 +01:00 [INF] 31.12.2019 13:53:24.348, 1, 0, 30, 11, 69, 68, 283
2019-12-31 13:53:43.575 +01:00 [INF] 31.12.2019 13:53:24.352, 1, 0, 25, 4, 0, 0, 152
2019-12-31 13:53:43.577 +01:00 [INF] 31.12.2019 13:53:24.361, 1, 0, 41, 11, 40, 39, 193
2019-12-31 13:53:43.581 +01:00 [INF] 31.12.2019 13:53:24.361, 1, 0, 37, 11, 66, 65, 225
2019-12-31 13:53:43.582 +01:00 [INF] 31.12.2019 13:53:24.361, 1, 0, 15, 11, 113, 113, 296
2019-12-31 13:53:43.584 +01:00 [INF] 31.12.2019 13:53:24.370, 1, 0, 13, 11, 35, 34, 190
2019-12-31 13:53:43.586 +01:00 [INF] 31.12.2019 13:53:24.406, 1, 0, 39, 11, 17, 17, 171
2019-12-31 13:53:43.590 +01:00 [INF] 31.12.2019 13:53:24.410, 1, 0, 34, 4, 0, 0, 153
2019-12-31 13:53:43.592 +01:00 [INF] 31.12.2019 13:53:24.410, 1, 0, 38, 11, 12, 11, 172
2019-12-31 13:53:43.593 +01:00 [INF] 31.12.2019 13:53:24.414, 1, 0, 35, 4, 0, 0, 151
2019-12-31 13:53:43.596 +01:00 [INF] 31.12.2019 13:53:24.422, 1, 0, 21, 4, 0, 0, 154
2019-12-31 13:53:43.597 +01:00 [INF] 31.12.2019 13:53:24.428, 1, 0, 14, 4, 0, 0, 150
2019-12-31 13:53:43.600 +01:00 [INF] 31.12.2019 13:53:24.453, 1, 0, 36, 4, 0, 0, 156
2019-12-31 13:53:43.603 +01:00 [INF] 31.12.2019 13:53:24.454, 1, 0, 12, 11, 15, 14, 172
2019-12-31 13:53:43.605 +01:00 [INF] 31.12.2019 13:53:24.458, 1, 0, 40, 4, 0, 0, 151
2019-12-31 13:53:43.606 +01:00 [INF] 31.12.2019 13:53:24.462, 1, 0, 27, 4, 0, 0, 153
2019-12-31 13:53:43.607 +01:00 [INF] 31.12.2019 13:53:24.466, 1, 0, 19, 4, 0, 0, 152
2019-12-31 13:53:43.610 +01:00 [INF] 31.12.2019 13:53:24.472, 1, 0, 16, 4, 0, 0, 149
2019-12-31 13:53:43.612 +01:00 [INF] 31.12.2019 13:53:24.495, 1, 0, 33, 4, 0, 0, 151
2019-12-31 13:53:43.614 +01:00 [INF] 31.12.2019 13:53:24.502, 1, 0, 30, 4, 0, 0, 154
2019-12-31 13:53:43.617 +01:00 [INF] 31.12.2019 13:53:24.512, 1, 0, 37, 4, 0, 0, 151
2019-12-31 13:53:43.618 +01:00 [INF] 31.12.2019 13:53:24.518, 1, 0, 15, 4, 0, 0, 156
2019-12-31 13:53:43.621 +01:00 [INF] 31.12.2019 13:53:24.518, 1, 0, 41, 4, 0, 0, 156
2019-12-31 13:53:43.623 +01:00 [INF] 31.12.2019 13:53:24.523, 1, 0, 13, 4, 0, 0, 151
2019-12-31 13:53:43.625 +01:00 [INF] 31.12.2019 13:53:24.557, 1, 0, 39, 4, 0, 0, 150
2019-12-31 13:53:43.627 +01:00 [INF] 31.12.2019 13:53:24.564, 1, 0, 38, 4, 0, 0, 154
2019-12-31 13:53:43.630 +01:00 [INF] 31.12.2019 13:53:24.605, 1, 0, 12, 4, 0, 0, 151
2019-12-31 13:53:43.632 +01:00 [INF] 31.12.2019 13:53:25.262, 1, 0, 29, 11, 8, 7, 1303
2019-12-31 13:53:43.633 +01:00 [INF] 31.12.2019 13:53:25.418, 1, 0, 29, 4, 0, 0, 155
2019-12-31 13:53:52.728 +01:00 [INF] 5593
2019-12-31 13:53:55.261 +01:00 [INF] 2423
2019-12-31 13:53:55.263 +01:00 [INF] Lista akcji:
2019-12-31 13:53:55.264 +01:00 [INF] Logowanie z pobraniem informacji o userze
2019-12-31 13:53:55.265 +01:00 [INF] WyswietlanieZasobów
2019-12-31 13:53:55.267 +01:00 [INF] WyswietlanieOfertSprzedazy
2019-12-31 13:53:55.268 +01:00 [INF] WyswietlanieOfertKupna
2019-12-31 13:53:55.269 +01:00 [INF] WycofanieOfertyKupna
2019-12-31 13:53:55.270 +01:00 [INF] Wylogowanie
